{
    "_links": {
        "self": {
            "href": "http:\/\/default\/file\/89?_format=hal_json"
        },
        "type": {
            "href": "http:\/\/drupal.org\/rest\/type\/file\/image"
        },
        "http:\/\/drupal.org\/rest\/relation\/file\/image\/uid": [
            {
                "href": "http:\/\/default\/user\/1?_format=hal_json"
            }
        ]
    },
    "fid": [
        {
            "value": 89
        }
    ],
    "uuid": [
        {
            "value": "16cf2721-5dc5-4921-8bc0-036c405be384"
        }
    ],
    "langcode": [
        {
            "value": "en"
        }
    ],
    "type": [
        {
            "target_id": "image"
        }
    ],
    "_embedded": {
        "http:\/\/drupal.org\/rest\/relation\/file\/image\/uid": [
            {
                "_links": {
                    "self": {
                        "href": "http:\/\/default\/user\/1?_format=hal_json"
                    },
                    "type": {
                        "href": "http:\/\/drupal.org\/rest\/type\/user\/user"
                    }
                },
                "uuid": [
                    {
                        "value": "e293b5c8-f55c-4881-a86a-864c8e6aec85"
                    }
                ]
            }
        ]
    },
    "filename": [
        {
            "value": "Bearded man.jpeg"
        }
    ],
    "uri": [
        {
            "value": "public:\/\/2019-07\/Bearded man.jpeg",
            "url": "\/sites\/default\/files\/2019-07\/Bearded%20man.jpeg"
        }
    ],
    "filemime": [
        {
            "value": "image\/jpeg"
        }
    ],
    "filesize": [
        {
            "value": 37206
        }
    ],
    "status": [
        {
            "value": true
        }
    ],
    "created": [
        {
            "value": "2019-07-17T02:51:50+00:00",
            "format": "Y-m-d\\TH:i:sP"
        }
    ],
    "changed": [
        {
            "value": "2019-07-17T02:51:59+00:00",
            "format": "Y-m-d\\TH:i:sP"
        }
    ],
    "data": [
        {
            "value": "\/9j\/4AAQSkZJRgABAQEAYABgAAD\/2wBDAAYEBQYFBAYGBQYHBwYIChAKCgkJChQODwwQFxQYGBcUFhYaHSUfGhsjHBYWICwgIyYnKSopGR8tMC0oMCUoKSj\/2wBDAQcHBwoIChMKChMoGhYaKCgoKCgoKCgoKCgoKCgoKCgoKCgoKCgoKCgoKCgoKCgoKCgoKCgoKCgoKCgoKCgoKCj\/wAARCAJBAkIDASIAAhEBAxEB\/8QAHwAAAQUBAQEBAQEAAAAAAAAAAAECAwQFBgcICQoL\/8QAtRAAAgEDAwIEAwUFBAQAAAF9AQIDAAQRBRIhMUEGE1FhByJxFDKBkaEII0KxwRVS0fAkM2JyggkKFhcYGRolJicoKSo0NTY3ODk6Q0RFRkdISUpTVFVWV1hZWmNkZWZnaGlqc3R1dnd4eXqDhIWGh4iJipKTlJWWl5iZmqKjpKWmp6ipqrKztLW2t7i5usLDxMXGx8jJytLT1NXW19jZ2uHi4+Tl5ufo6erx8vP09fb3+Pn6\/8QAHwEAAwEBAQEBAQEBAQAAAAAAAAECAwQFBgcICQoL\/8QAtREAAgECBAQDBAcFBAQAAQJ3AAECAxEEBSExBhJBUQdhcRMiMoEIFEKRobHBCSMzUvAVYnLRChYkNOEl8RcYGRomJygpKjU2Nzg5OkNERUZHSElKU1RVVldYWVpjZGVmZ2hpanN0dXZ3eHl6goOEhYaHiImKkpOUlZaXmJmaoqOkpaanqKmqsrO0tba3uLm6wsPExcbHyMnK0tPU1dbX2Nna4uPk5ebn6Onq8vP09fb3+Pn6\/9oADAMBAAIRAxEAPwD6C0L\/AJAmn\/8AXvH\/AOgir1UdC\/5Amn\/9e8f\/AKCKvUygooooAKKKKACiiigAooooAKKKKACiiigAooooAKKKKACiiigAooooAKKKKACiiigAooooAKKKKACiiigAooooAKKKKACiiigAooooAKKKKACiiigAooooAKKKKACiiigAooooAKKKKACiiigAooooAKKKKACiiigAooooAKKKKACiiigAooooAKKKKAPmvxZ\/yNWs\/wDX7N\/6GaKPFn\/I1az\/ANfs3\/oZooEfQ2hf8gTT\/wDr3j\/9BFXqo6F\/yBNP\/wCveP8A9BFXqBhRRRQAUUUUAFFFFABRRRQAUUUUAFFFFABRRRQAUUUUAFFFFABRRRQAUUUUAFFFFABRRRQAUUUUAFFFFABRRRQAUUUUAFFFFABRRRQAUUUUAFFFFABRRRQAUUUUAFFFFABRRRQAUUUUAFFFFABRRRQAUUUUAFFFFABRRRQAUUUUAFFFFABRRRQAUUUUAfNfiz\/katZ\/6\/Zv\/QzRR4s\/5GrWf+v2b\/0M0UCPobQv+QJp\/wD17x\/+gir1UdC\/5Amn\/wDXvH\/6CKvUDCiiigAooooAKKKKACiiigAooooAKKKKACiiigAooooAKKKKACiiigAooooAKKKKACiiigAooooAKKKKACiijp1oAKKKKACiiigAopMiloAKKKKACiiigAooooAKKKKACiiigAooooAKKKKACiiigAooooAKKKKACiiigAooooAKKKKACiiigAooooAKKKKAPmvxZ\/yNWs\/9fs3\/AKGaKPFn\/I1az\/1+zf8AoZooEfQ2hf8AIE0\/\/r3j\/wDQRV6qOhf8gTT\/APr3j\/8AQRV6gYUUUUAFFFFABRRRQAUUUUAFFFFABRRRQAUUUUAFFFFABRRRQAUUUUAFFFFABRRRQAUUUUAFFFNkdYo2dzhVGSTQA6snU9d0+wU+fewRkdQzYryv4n\/EyWzWSy0p1SU8bs814NqF3c6jcNJqOpXDBjkgPUOXYrl7n09qfxL0KyDbr5JH7BHBrnD8XLIynbJlO2TzXzjqn2EFRamVj3Z6zi0gPycilZvqO6XQ+uNH+J2nXpCvLtY+prsLDxPp9woC3MbE\/wC1XxJZ3s0bjkqexrpdM1y7ibAmcHsQam8kO0WfZ8N1BN\/q5FP41NXytpPjvUrPCtMTjuTXd6Z8WpI40N0gOOtNVO4ez7HtjAEU0MU+90rh9F+Jej6kypu2OfXArq01G3miD5zGejDpVqSZDi1uaAOaWqAlMeHjbzIj6c4q6jh1BU5FUIdRRRQAUUUUAFFFFABRRRQAUUUUAFFFFABRRRQAUUUUAFFFFABRRRQAUUUUAFFFFABRRRQAUUUUAFFFFAHzX4s\/5GrWf+v2b\/0M0UeLP+Rq1n\/r9m\/9DNFAj6G0L\/kCaf8A9e8f\/oIq9VHQv+QJp3\/XvH\/6CKvUDCiiigAooooAKKKKACiiigAooooAKKKKACiiigAooooAKKKKACiiigAooqOaURrkmgB+aAa5248UabDPskmXeDgjPStGPVIZYBLCQyHvSTTCzNLIHU1XmukjBI5rDu9RuJyRDGVT1IrjPG\/iZdKtTGk5a6YYCoelJu2o1G503iPxrZ6LCzXE0QYdFzzXivjL4s316ZIrBisLcZHWudvLWXVLlrjU7psMc7XbpUYsNIhHzS7sehrJyua8tjk7\/UJrycyzgs57tWbMzbj3rt5ZNJhk+aJmH0qG4v8ASgp2WvXvtqlLyJcfM4l8uMBTmomilP3QwrqxLYM3yR4z2Iq\/b2dldJtRgrnpT5kLlOE\/fKcMCasRSyrjDfnXUXWhSITgZXsawbyzeCQh8j3pisX7C9D4juFwexrUhfOVblfWuZtpMSbH59D3ro7P5ovn7VDRSZDK0lm\/mwuwPXiu48EfEa5spEhu2MsPQq\/OK5Z7QyQ5X5h2xXNyq1tec\/LzSsVc+sNJ8TQahBmwcK\/XYx4NdLo+pJNNtDAN\/Eh7V8v+GNansnU7j9RXoNrr8rBbmKXEoIzg9aan3E4J7HvtFYfhrWk1KyiZuHIrcrVO5lsFFFFMAooooAKKKKACiiigAooooAKKKKACiiigAooooAKKKKACiiigAooooAKKKKACiiigAooooA+a\/Fn\/ACNWs\/8AX7N\/6GaKPFn\/ACNOs\/8AX7N\/6GaKBH0NoX\/IE0\/\/AK94\/wD0EVeqjoX\/ACBNP\/694\/8A0EVeoGFFFFABRRRQAUUUUAFFFFABRRRQAUUUUAFFFFABRRRQAUUUUAFFFIWAUk9qAIruYQW7Oewrx\/xv44lsrkQRvgZ55rr\/AB\/rhi0G5Nk2ZEHUV8yajqFxqNyZblstk5qGy4rqbPiTXnuNRM9sWCNjk10Hhj4hz2m2CUFrdOpNcI7xi3\/fMojH51REz3CsIV2RD8M1D8i15nqWu\/Fq4uYDDbIsQHGVGK4C61+51K5Msvzn+8ayCsCIPMfLHsDVu21G3hwgSLaOpNSPYle93ZEglf61DJcAvthgJX3FTz6\/ZtlIoU\/3sVXXWIQMRR5f6UxDsyuP9Sn\/AAIVIlo8gzJGgHsKq3F\/K3JAH+7Vuyla5AwzAd6Yh50iNjkELViDS2Qgx\/d9RSTadeKu6F9wPTmoWm1K0QqVNG4G\/ATAAkrblPrWLrlvHG+9hvjPXHUVjyeIZfLaCVfm9T1FQHV5dvz\/ADg9QaNRXJLnS43h8+2fPpjtWj4dYyApOuSOKwI75rSVthJhf+E9q6Tw5cRHe\/HNNiRDPcy6XqWVy1sx5U9qfrFnHexGe2O4kZwKb4gmWTJXGR196ytM1B7WUAkmM0rDL2kyt5Q3D7hwa3RfNYOuTmF\/ukdq5tLgW9+xGDBP+lWZZDHG1tI25DypPak1cqLPc\/hhryyg2jOMH7pzyK9b0+6Eq7HPzr+tfHnhnXZtL1OJwxBU\/ga908PeM0uAyp802BgCnCVtGTON9UesiVfM2fxVJXPeEppby1a4uTmU\/pXQVqjPYWiiimAUUUUAFFFFABRRRQAUUUUAFFFFABRRRQAUUUUAFFFFABSUtFABRRRQAUUUUAFFFFAHzX4s\/wCRq1n\/AK\/Zv\/QzRR4s\/wCRq1n\/AK\/Zv\/QzRQI+htC\/5Amnf9e8f\/oIq9VHQv8AkB6f\/wBe8f8A6CKvUDCiiigAooooAM0UUUAFFFFABRRRQAUUUUAFFFFABRRRQAUUUUANdgikmuX8Y6x\/ZlmSsgV3B6mrHi\/X4NDtRLMcj+76189\/EDxnc69cMyHZGvQDipcuhSXU0Nc8YxyWj2pJ3MTuPrXneqXdrExaPJY9hUD3UckmZcl\/ap\/s4cjZAX9OKnYoyhumfzZ8iMdFqG8v2x5cfyqPSte706Yr5k5WNB0HSsW4jt4yWLbj6UtGw1RRZ5Ty2aaVbGW\/KpZDJJ91cKKasDfekfA9M1RIze\/ZVFWrV5gDtiBP0p0QgZQGOCO9b+lRRSL+6Zdw9aTGjFU3i\/fhYr34rV0k+YwMTEN3WtecSwRliiMO+RWDd3ccMwmt18t8\/MOgpDOxEzrZlSdsgHy+9cvea3OHMc+cD1pZ9aZ4lIKkY\/EVg3V0bskuOaSQ7lqdoL1iD8j9mHesu5EkDANyPUU0sVPORinNL50eG5xVIhkYlJb5ulWtOvWtLgEE7DVB8bsHigcD1FOwXNfUrlmk8xGJQ1TjuMHB6H9KjjcFShPFROmOnSgDQSQqwR2yAcitm6mRoEbOcVy6ueA3UdDVu3uiCFflfSk0O5rXJSS3V4W+cV1vgfW0sp43PMrcNntXn3nGGQleUPardldbX3KdpzUNFJn2X4EmQ6UHLjEnIOa6cyIP41r528B+JUeC2jubuRIk42q3NexadLaXEQ2TTsOxJrWLuRKNmdSCG+6QaCccViSRSvGUs5iH7FjU2mXM6P8AZr0ZlHRh0NMk1qKBRTAKKKKACiiigAooooAKKKKACiiigAooooAKKKKACiiigAooooAKKKKACiikoA+bPFn\/ACNOs\/8AX7N\/6GaKPFn\/ACNWs\/8AX7N\/6GaKBH0NoX\/IE0\/\/AK94\/wD0EVeqjoX\/ACBNP\/694\/8A0EVeoGFFFFABRRRQAUUUUAFFFFABRRRQAUUUUAFFFFABRRRQAVDd3CWtu8spwqjNTV5p8VfEn2NUs4W5bO7FKTshpXZ538TfEz6pfyJB\/qFOOa86lQXQ7xjuema1teu4ZJN7HaR\/D61zl3cSPg\/dXsBWNzWxowCyskJZRI3qwzUE+ueWpMYVB2xWLcTBExI+W9KqCFrh\/vfJ3NCV9xN22J9Q1O6viRuIT1qjEF3c5ZquyRpCACwI9qjEoZwtvGpPrirXkS2RytcOdsUR\/KojbTsN05CL6GtO3kuFYiJQ79yOQKV41BLXT5PpnimIyEiJb5QSB3rTtmlgAaIEEVA91Er4j+77VLHMzLiLOPegCzceI5\/J8meMY6ZA5rHupxK2VJwexqxcqZYyGT5vUVRfCx4I5FKwxgZlPBOKeGZlzHjI6imqdwwRQgdGyKYD3\/exk9GFV03LyKsZznC4NMPPbFILANsnBGDT0jK8dRSJEXOBwaniik3bSKLhYikg\/jU0qg7drDNXY9PmblVYqa6PR\/Dc15j92Qe3FJySKUbnFmMnqKYQVavXbf4dzzqPkIJ68Vka18PruzUlYyQPap9oh+zZ58CWGDT13RferWv\/AA\/dWibihx9KywxRjHODnsaq9ybNHT+DtQS21CJp8eUDzmvojwj4i069iWK0uYBL\/dZq+VLcN5uN3FdJp7JBNG8T3MLH+NOBRsG59iWsuxQ20H1K1ZkeOV0ZPvDvXgfhLVNYhaNotTWePuksmTXsmhagXUGaM5I6gcValclxsdKpyM06mIysoK4xT6okKKSloAKKKKACiiigAooooAKKKKACiiigAooooAKKKKACiiigAooooAKKKKAPmvxZ\/wAjVrP\/AF+zf+hmijxZ\/wAjVrP\/AF+zf+hmigR9DaF\/yBNP\/wCveP8A9BFXqo6F\/wAgTT\/+veP\/ANBFXqBhRRRQAUUUUAFFFFABRRRQAUUUUAFFFFABRRRQAUUUUAMlYqpwMkjivm34szzW2vyeewLE8CvozUJxbWcszYG0Gvlzx7epf65PLM28g9aiZcDibwyXExdsk1Tnfyj+8bJ7Vau5gCTH+VZtwjO46s\/8qhIq5CVRpN0pJPpU124itgY+\/YVPBZmQjzCEUdSainaJ5gkQyopiKtrbS3R3zkpGO9atrafal2WymKBfvSHgn8auaTYm8ba52W68sfWneIdThhQWtgvyjg7ad+iFbqZ+o6jFZQm2s1BfoWHU1n29rJcHfdyFVP8ADmokceZkKGf1NEsx3fM35UAaO+0iXy4oNw9SKhSVd+Am36CixSa8lWOCNjn0Fd5ofgOe7AeTOfQ1LkkWoNnJCTy4DiEOT0OKzXtHuH\/dQsCe2K9wsfh6qIBKeK6HS\/A9tGVzCrY74qecv2Z882nhi\/uHCrA6k9yK6vTPhnqVyoJUD619E2Phq3jAzCnHtzW5BYRQoAFApOTEkkfNzfCfU9m7YuadD8JbyX7w2kV9KhQBikZF9BUczNEl2PnSP4Q3K8s3Snf8Kvu4ZA33gK+hGUc8VHhRwQKlzZaiux4zYeCmtyu+IFO\/FdjpHhyGBlYIBiuwaJP7oxTNgUccCpcilErJaog+UYNVrmzWVSJEBHvWiMHvSsoxU3KtY4jVfDNtcIwMY59q8w8W+AjtdrdfmHIxXvVwoway7y1WVTkA1Sk0JwUtz5HubaeyuWhnBR1Peuh8Pa1HE0cF7GGi6ZIr0X4meDlvrNrqzTFxHycDrXjkaPDKUnTkHBBrpjLmRyTi4M9t062tEijuLRg0bf8APPqK9M8P3MlrBG7MJ4G7jkivnfwxfzWEiSRyF4D96PNe5+DNUtbpFEJAU9UNNPUl7Hp1m6yRh4z8p7VbxWTYDaA0R+TuK1lO5QRWyMhaKKKACiiigAFFFFABRRRQAUUUUAFFFFABRRRQAUUUUAFFFFABRRRQAUUUUAfNfiz\/AJGnWf8Ar9m\/9DNFHiz\/AJGrWf8Ar9m\/9DNFFhH0NoX\/ACBNP\/694\/8A0EVeqjoX\/IE0\/wD694\/\/AEEVeoGFFFFABRRRQAUUUUAFFFFABRRRQAUUUUAHeiiigAoNFIxABJ6DmgDjviZqRstFKKwVpOBXzf4gQwl3l6tzXofxg19r7UmghY+VB6d68p1G6luIlM5yB0rJ6s1SsjIy0kvyL9M1JcPHaHJ5kPUUk9yltGGfiQ\/dArJdnnZpHOSegpLUWwslxPcyHkqnYCr+l2gMqqfmc9qasK2tuGfmV+i1r20J03Tzcyj9\/IOPam2CRJcTlP8AR4BtHQkd6oXtgLdMYy79T3q1oEJuroySn92pySe9XtYw0vmgfKOlTexSVzk3gMOc\/fPQUWWnyXVysQU5JqSXfNeBscA16X4F0QXMy3DxHPGOKUp2Lpw5mb\/w+8E+VCsroC3XOK9QsdKSJQEXaRT9DtzbWqhRitqNPmz2NY3ubvTRFaCzRmAIOB61qQwpGMKopoxjGMVJGeKpaGctR+OOmKY44qQHNDCq3IWhWao+ckmrDLzTGAxWbRqmQNiom56CpJMA1EWqGaIazcYNRtnPHSnO2ecU0McVJQwod2QaDnpmnEntUbBjQMhlUEGqUnpV+SNscVUeM5OTSvYZl3kWcgjKnqK8T+JXhh7S4a9tU\/dk5YAV7rcJjvWFrdnHeWcsTqCGFXCVmZzjzKx88WNyYxlTjFbuh+ILqxvFnt3IXPIzVTU9MXTdUkjkH7sk8Vkzg205VGyh6V06SOP4WfVvw08SxaxZbXYeaAMiu\/QY6dK+U\/hPrsllrEUe77xxX1RaSeZbo47jNaU3dWImrO6J6KQUtaEBRRRQAUUUUAFFFFABRRRQAUUUlAC0UUd6ACiiigBKWiigAoopKAFooooA+a\/Fn\/I06z\/1+zf+hmijxZ\/yNOs\/9fs3\/oZooEfQ2hf8gTT\/APr3j\/8AQRV6qOhf8gPT\/wDr3j\/9BFXqBhRRRQAUUUUAFFFFABRRRQAUUUUAFFFFABRRRQAVQ1ycW2lXEmcYU1frl\/HkdxJpEhhPygcgUmHU+d9fufNuLh5zyWNcVqV9G3yrwBV\/xVeOL6VEOWB5FcxPGZGyxwazsaXFcG5n8ydsKOgq1axJEDI\/3R61DbwkjzJD8i9M0ssm5go5FHkCNCwCS3BubjnH3QegqDVNSaa4ChsovAFRTymG2J6Z7VjFy0maEht2OjgvfJhWJTtB64rZu7qK4t1VDyRXEyTbiuM5q7aTsmGJPHSk0CZ0ml2CSu+f4cV7b8PrNVsVbbxXinh6V55406bjzivobwzEItPijRcACsJvU6aasjqLeP8AdgdqsrkAD0qK2OIwKmJ\/KpK3JA+RgU9TioQQOlOBNFxNE4bmnbj2qBGwfenhznpVKRDiD5zyaYwyKkckioG3YwTQ2OIxtp+tR5GOlK4waaelQakbkYqHdzz0qVlzUbLtNSykEkg24HFQtMae4BFRYXNJ3GrEE10y8DJqo32iUnaMD1NaTIg5IFVbiZz8sS\/lWUrlryKT20uMtIPzqjOpXOa11s5WjzI2Ce1ULy3eP73IqoXJk0eS\/FXSj9nW9gGCv3sV5hcS7o0kzkV9DeIbNb3TpoHGcqa+c7+J7S9uLR\/4G4rspPSxx1lZ3N3whcOutQLGfnLDFfZHhOZptFty+d+3nNfEugSSLrFo0P8ArAwxivtrwmp\/sO2d12uyjIraPxGEtjZopKWtCAooooAKKKKACk7UtFABRRRQAdqSlooAKKKKACiiigAooooAKKKKACiiigD5r8Wf8jVrP\/X7N\/6GaKPFn\/I06z\/1+zf+hmigR9DaF\/yBNP8A+veP\/wBBFXqo6F\/yBNP\/AOveP\/0EVeoGFFFFABRRRQAUUUUAFFFFABRRRQAUUUUAFFFFABWJ4yuRaeHbqVhnC9K26434pTFPDc0asFLCk9gWrPmnX47eQS3UceHYnqK5RYi0u6XhfSuk127WJfLHzEE5rmJXZ2LseOwrO5rYfcOGyFOI16D1qvaDLtK\/3RTdxdMevemSyjYY4+nrQBDeXDXEuB09KiChBk9aUqYcHGWNNY55aqJFGCcrVmEFtqg1TXg9a09Jt3muVVFySamRUdXY9A+H+mfaL9Hx8qV71oiERqOleY+BNNezjAyMn71er6QmIwTXJJ3Z2pWRsRjCgU\/jpSKQQBSgZNDJFFKGGaQDApu3uKkZMpFODHNRxKTUxTAqkmyXZCZJFMcGhgQMinJ81PURXZWPWmkHvVhwQahGc80WLTE2ccVE64OTVgnAqB3GDQ0NEE2B0qFBuNPmkyKbAwY1G5dtB3lhuKVYlQcDLUk9xHbglyBivN\/GnxLXS\/MisIwzrwSRTUSZPQ67xRrMOk2TyyOFYDgE143efEqWW8OSREprhPE3i\/UtbnLXcpCZ4UHism2hmujlEJT1rVUurMHV6RPdtD8UWerbU3ASNxg15l8VdL+weI1lRcJNzn8KydIefTb0NyOe1dd8Qi+o+GLS+dfnj71UVysmb5o6nLfDy2N34vsoSP4819vWqCO1hQDACD+VfJvwK0pdR8YhnGDHgj8q+tY\/9Wo9Bit4o5pdh\/eikoqxC0UUhoBi0UUUAJS0UUAFFFFABRRRQAUUlLQAUUUUAFFFFABRmiigAooooA+a\/Fn\/ACNWs\/8AX7N\/6GaKPFn\/ACNWs\/8AX7N\/6GaKBH0NoX\/IE0\/\/AK94\/wD0EVeqjoX\/ACBNP\/694\/8A0EVeoGFFFFABRRRQAUUUUAFFFFABRRRQAUUUUAFFFFAAeBmvI\/jXqX+jpbRFgTnNeuHmvHvjLE0d1DKYt0XOTiplsVHc+fda2LL87Vkklydv3a63xDpVuWNyHLd9grk7ifAKRptH0qEimytPME+ROtQggcURRF5Djn1NEu1GPc0xCScDrk1EzeWhyMsaa8hz70w5Y5anYTY+3Us3PJNdt4VgELq5GXPSuS09C0qk9K9E8KxLLeR5H3ayqvQ2oq7PUPC9s4VVJ5PU16Dax7I1C9BXNeGo1IAQZPc11kKFVxXMdjJo3\/Opd3FVyNnNSA5FImxKpyOOlKGA61CG+bA6VieI9cg02Ft0gDY9aaC3Qu6trcWnofmG6sAeMHO4nHFec6prtxqd63UQA9ajM6TRHZKV9s1WoWR6NH48g3hJSPfFakXjfRwhMk+3HuK8H1OK+Cn7NCzg9wK5e5\/tSIsJoJth9ulVFMiSXY+lrv4laDA203CsfYirumeMtG1MgW93Hv8A7pYV8nJp1xNMp2ucnnNdjpfhi5URy2zvFIOcg4pteYR9D6YFykiZRgQajkfjArgvD8t7b26JPIXI68111vPuQbutZNmyj1Q+Rju46U0NsBYdBRcAbcg1Te4CggkVNy90cp411qdUZbcEnpXiHiFri5uX3I249eOtew+K723i3biN1ea3mpW\/2gySBQoPFaRlZ3RlOHMrGDpXha41GVWuF2RivQ9G0C2tIhGVUj1rGtPEUWFEcbMP9kVqQ68v8SlfrSnKTKp04x2LWp+GbaaPdEMMOag122V\/AtxbkfNHjH51ONcUggkKPesq91y2XTrqOSeI5wQuetOm3citBJHffs+eG3gtzqboyluhI617iBXy74U+NV5p1lHYx2MaxJwCFrs7f462EMYN6o3dwK7U7HntXdz3CivLvCHxl0XxLrsWmW0cqSSdGYDFeo9qaZNgooopgFFFFABRRRQAtFJRQAUtJRQAtFFJQAtFFFABQaKDQAUUlAoAWiiigD5r8Wf8jTrP\/X7N\/wChmijxZ\/yNWs\/9fs3\/AKGaKBH0NoX\/ACA9P\/694\/8A0EVeqjoX\/IE0\/wD694\/\/AEEVeoGFFFFABRRRQAUUUUAFFFFABRRRQAUUUUAFFFFABXH\/ABPtEn8NzSFNzoOOK7CqWsWgvdOmgcAhh3oYXsz5EmuGTcZYyVyQeKwb+3Ul5FQMjdMCu3+I1s2mXUltDCQmTyR1rzZ7meFioYnPaosW2NuQsS7U4z1rMmdc4Xk+tSXMzMxz97vVZyCMjPvTSE2NB+bJqYYLDPSo4+e1TdG4HFAkXrFVLhcmvSfBFnLcToVXAzya83scNIO1e4fDKDzkTgBB3rnrHXQPTdEtEt4FCjHHWtdTxVaEBVAqdDgVgdDHNzjmgNge1IevtUN1JiMgd+9BJla1qkkIKQMufUV5nrulalrd5zMSuegPFdveaVNPIXSQ4PvVjTdMNuSXbk0LQ00scZZeC7hkVfMOP4ua6fTfB9nbLmfDN710PmRwDgisLX\/ElrYJy2+Q9EXqaTkOMG9i8tpZW5IWJCPQis7U4tPkjYPBFz7VzEl54j1glrGxeCE9HlUisvUdF13aWuNStoye28ilaRVoLdmhPZ2MUh8lU61ftruOMKoVRivO2lutNlzdXsMi56hs1sW2p2siqwu4s+m6pfMi0os9Agnzjb3roNPJYA964bQ7pJyAs8bfjXoWjQFgpGG+lCbJkkkOuwywtx2rida1aOyidpH6epr0q+snaAjaelfOfxVvGt9Ue23gKPQ1XLd2M4zXLc57xN4gkvbtvLy2ThVHepNJ8PwLGL7xFdCNDyIQ2D+IrmrPUI7aUtHEZ7o8RqBnmtXTNDvte16K2127FosgJPmNtCjFdMadtDmnV1Om\/wCEv8N2Efk2WntcSDgFUBrM1TWrnVz5cNjFYxt0eVdpqpbvp\/hrxM8FpHDdwRMB5hG7dXeeLNOtdY02KW2Xy2dcgLxiqcYxZHtJvqcZZ6Asjqt1qbOT2ifNXNQ8Pw21tnTbOe9n9GXdWRZ6fcWN0irJlgeua9v+FCZvgZlVifWkm1JIJJcrZ4PP\/aVtKpn0cxKCM5jxXUahP4f1i3itGsIobmReGRAOQK+p7rRtMu0ZbiygfcMHK14l4x+D9zF4jTU9DcG3zkxsfu\/QVrKL6GMZI8Q8EO2hfEWzRgFaOTGfY191W53W8Tf3kB\/Svh3x7A2kfEiPeNjq6bv0r7U8O3P2rQ7KUHO6MfyqluQzSoooqhBRRRQAUUUUAFFFFABRRRQAUtJRQAUtAooAKKKKACiiigAooooA+a\/Fn\/I06z\/1+zf+hmijxZ\/yNWs\/9fs3\/oZooEfQ2hf8gTT\/APr3j\/8AQRV6qOhf8gTT\/wDr3j\/9BFXqBhRRRQAUUUUAFFFFABRRRQAUUUUAFFFFABRRRQAUh5FLRQB4f+0BZJDBDMkYXdnnFfPM9uygtyWNfVfxw0afU\/D4kgBYxZOBXy9fbwSpIDA4NQ9y1sYcsbFsgc96bIAAAQPwq67bSdx471QnJblQTQKxLDPGp2uoxUZPzkAH2xViwjiiO+5Qsprbs206UjBVAP71UrCMSwLrMNyMBn0r6G+HVzp9tpURkuY0cjkFq8uSK0ZF8toG+lNlikjP7pmC\/wCzWc6fN1NYVOU+lIdS0\/H\/AB+wf99VOuoWB6XkP\/fVfL7TXAPFxMPxpn2i77XU3\/fVZ+wfc1+sLsfUy3tnn\/j7hI\/3qqXF1BK2BcxY9N1fMzXl8BxeT\/8AfVdLZ\/aJfBFxd\/a5\/tKDht3vUyota3Gq67Htc15a2yF5rqJEHq2K5fWfHWh2Wd19G2P7rCvm291vVLmPybi9mZFJ\/irpvht4Ut9d8y+1Rma3j6Kf4qmVFRV5MunXc5csFqdvq3xOiuAY9Jt7idjwCq5Fc9Bqeuic3t1aRJnlftKniuraGysXC6Xp6fJ02pWbBpeoa1d3E+rSOkSD93Cp4PHpUU+W+iNqqqJav7jNn13xRq26KDUCqIPmS1c4UUnhzQG8TNKsmu3f2hDzG0vJrlYdW1DQLu7jtYgrSHa24cgVq\/DSK6k8TRTwbgckuR0rpdkrnGrt2N\/V\/AUdlbNIbi6m29QTmsXS9A02\/JSOW5SUfw55r1zxJcxqhAkBJHKg1zuiW1lHdrOVCyg8gd656lRrY7aNGMo3kY1p8OLyYb9P1O6hbsGfFYPiO88beCbhY5r6R4D9195xX0bZeSNP850VFVck4rw74i+IB4k07VCqD7NakLG3rk1VNuW5hVtG\/LocbP8AE\/xS8ex79hn0c1yeo6pe6hO01\/JK8jd2Ne+\/BT4X6fqGiJrGtx+a0nKIRkV2PjH4caHqWlzQWlnHBMF+RlUCteaMehiqbkrXPCvhDYwS3rXs8QmaMjCkZxXZ\/EDwrPrt39t06TyiB8wziuJ8FvceG\/FN1pVzlGLYGeM16DNd3ak7XYL9aznJqRvSpRnBdzz7TvCl3HdKlxhVB5Y16FNJbWlokay72UYAU5rNllLjErv+dQySQRvlec1DqXNVRUS2NNjltftBIEjHpXefDtvI1CIGuI0xnumACkIK7Xw6ptbyF+2aFLVGc46NHseelOXr+FQwt5kaMvORWH4q8X6V4at3a+uFM+PlhU\/MT9K7mzzUeA+KPCq+Kfj0bR\/9QjBpCPpmvpmxtY7K0itoRiONQoxXmfwx0ufU\/EWoeKby3eD7SR5SOuGAHFeqUIphS0lJTEOoptLmgBaKTNGaAFopKWgAooooAKKKKACiiigBaSlooASigmigQUtFFAz5r8Wf8jTrP\/X7N\/6GaKTxZ\/yNOs\/9fs3\/AKGaKBH0PoX\/ACBNP\/694\/8A0EVeqjoX\/IE0\/wD694\/\/AEEVeoGFFFFABRRRQAUUUUAFFFFABRRRQAUUUUAFFFFABRRRQBm+I1VtFug+MbD1+lfFOsxNJqlysHOXPP419s65ate6TcQLwzqRXyRrnh660\/xFNbFWVdxINRN2VzWjHmkonP2mixFlFzL8zdga9E8N+CdPuEUsFcH05rH8M6DJd6nGkykjPevVLfw1NbKslg5Vl529q4pTlLY9VUoU9LHC+JvASrE32SIBQM9K8mvdNNpcMkgxg19YW4F1aMkwxLjDV418Q\/CMllctcRZkhY5PfFXTqWdmctaknqkeWxxMjLskcc9jXoPh7R57u3RhIzD3NcgYPLkyB8oPevWPAc0Rs0jx+8PQVdSTtoZUo2epnT+G5tm5U3fhWY+jspKvGyn6V7PBboY1UKKhu9HhkBOwZ+lZe0ktmdHs6bWqPA7mJoJWSRSCPWup0FRJ4Iv0zwBXV654ZgljYmPn1Armo1bSNLu7BULCUYBI6Vs68ZKz3Od4eUXdao8Uu\/lllHoTXuHwasftPhJiMAHr+deN65p91a3EzyxHy2PBA4r2H4GXm3w1LFnof60Yh3hoGFTjUPQLTT4bXOFVie5qpcQmOcOgya144jNytMlspM5wTXHFtHoPXcw7zw\/p14DLNaxmU9TtqjPpUWmor6ciQk\/eIGDXRy2d4fuKQKryaLcSqfOY49BWnO2ZqEUzkLzLH5WLue5rQ8NaJLPdoz7iAcnNdNYeGwXBdcAetddptjDbKFRRxStcqVSysjD8ZTNp3g+7ZThtuBXg0to8XhO3tiP32oS9O5w1fQvj2xOoaA1uvyhiCx9ga818M6XH4j8fQpbru0zTO46Ekf41vB2Vzinq0j2jwjYjTPDljaAY2oCfxFWbuLncKsKcKAOwxTZWyuDUvYqOjufMn7QOmPpuuWus2abTuyxUV0Pge\/tPFGlRvE6faFGHQ9a7z4k6FFq+kyJLGGwOOK8N0vwhdWOps2m38lmxPQPtBpXTjZ9DVKUZXjsz0u68NyhsiIkfSoE8MsXy0PPuKx20nxgFCw6tA6+rSHNKPDfi+5OJ9ZijX1WQio5PMv2kv5Tr7bTLayi3TyxRKOuTis2\/8W6Jpz4F0szr\/DEwJrFTwBNIc6rrt1Kp6qsuRWhY+GdC05gIrZZ5B\/HKoJqkorqRLnfSxrW3jTxT4pj+w+GdPNtAeDPOhGB7EV0vhf4YwQXS6j4luH1K+67ZTvRT7Ve8CTKknlxKI0\/urwK7rNdkHdXPPqe67BHGkUapEoVBwFHQU6koqyBaKKKACiiigApaSigBRRSUooAKWkzRQAtJS0UAFFFFABRRRQAUUUUAFKaSigD5s8Wf8jTrP\/X7N\/6GaKPFn\/I06z\/1+zf+hmikI+htC\/5Amn\/9e8f\/AKCKvVR0L\/kCaf8A9e8f\/oIq9TGFFJS0AFFFFABRRRQAUUUUAFFFFABRRRQAUUUUAFBoooABXmXjnQhN4gjnEQKyZ5x0r02q91bxzr8ygkd6UldWKhPkkmeSaXo62mph1Wu4iXy4snpVa4tvLvScYFTsSYsV59uXQ9mpL2lpI5fxHr1hpN1EufmkODVu40+LWdMlXAYMuQayNe8NJqmox7hnBzXYeHbT7HZmF+QoxURTbuwqqMYrlPl7xjpcumXzQYbBbg11Hg4fZZYZWcYHUZ612PxQ0aEl51UO3UAda4fw9aeVIt1dy7Y0PCE1u9VY47Wdz2HT5xKoOME1pqM8Vyvh28+1BnAwo6V1Fu24AmsmaJ3K91beYSMDFc1rGiq4JVea7Jk3LwaY0AdeRzSsaKVjyLVfDYubWWF03BgeorkvhxqMPhrVrvSdUbyFLfI78Cvep7BSeBWDrHg3SNXOb+2Ak7OoGa0i1blexM1dqcdzW0W9sJ0UxX1u2fR66GFYiMiSNh7GvLz8K7DObPVr2D2EmKkj+GWor\/x7+JbsL7z01BdGS5yW6PUDGh6ugH1qJ2tYgTLcQqB\/eavNZPhxqq8P4ouP+\/8AVC58ArED9q8QX83ss2afKluxJyl8KPRNQ8UaHYqfO1G2GOyuK5e\/+LWkWu5dPhmunHQoMiuTXwdp6t8sV3cv6yjIrV0\/weXIVLSGCPuVXBqHKK21NlQm17zSOc1Txb4n8c6glhYIbS3Y4JXKnFe4+A\/Dtr4Y0RLeL5p2GZJD1Y1heHNEtNPuB9nQFh1bHNd5HGBGKIyciKlOEFZDt\/PFG7IppQgUsIXcNxqjJlW+hWSJlcZBrzjV9DSHUDuX5GPBr0zU540HBGBXGavfwzSeXkEjvUvexpBu1zOh0Z9g2SN7c02XS7lDgSMR9a1tLuQRsJHHStJiCDwDSRq2zjZLWZPlbNVWhdGz1rq7tFJzisa7VRkDpVIzkzb8Ft5dypPevRwQa8o0K5+z31tGT988V6pH90Z64rqpbHn1viJRRSClzWpkFFFFABS0lFAC0UlFAC0UUUAFLSUUALS02loAWikzRmgApaKKACiiigAooooA+bPFn\/I06z\/1+zf+hmik8Wf8jTrP\/X7N\/wChmikI+h9C\/wCQJp\/\/AF7x\/wDoIq9VHQv+QJp3\/XvH\/wCgir1MYUUUUAFFFFABRRRQAUUUUAFFFFABRRRQAUUUUAFFFFABSGlpDQDOQ8R3AsNXiM5Agm6VciiEttlKh+IOjPquiO0BInhG5cfnXOeAvEkeo6cYpXAuYTtkUnkdq5q0bO524efNHl6nU2VoolMjct2okPkSncPlapYW53KwINMu\/MccIGFY9Dd6y1Oa8cWGdLlmhUM+PlzXz\/LPK00kdwxXY3Ir6L164lGmSo6DhTjNfN11FLcalOzAgbuacXczmmlqei+ENTWS1RQQAPSvQdPnEkYNeK6TqEdtdIkA+Udh3r1TR7sLBGW+8w6UpIIs6ZTxT1xVOGXcuamSTIxWZoSNGDyKhliz1FTltq5p+QRVIZQFtu7VYhsi2MHAq0i5HtUyHZVoTbK39kxtkvkmnLotovJRSfcVeSQZFMknHNVdELm7lQWdvGTtRQPpWRqN2EcQwDLtxxVrVdQWKJjkDFZnhe3e+u3vJQdoPy5rGbu7I6aceVc8i7ZEWVwom43d62Ztas7WPM8yIo7saZqmnJd2jLna+PlavFPHWg+IJpTbCU+UT95SelO0o6IS5Kmsmeqy+O9B3mMahDu\/3xTT4ktJPmt7iORf9k5rxHTfh2iQmS6mbzOpOaS6sJtFUvb3LsnpmlK4KMT1DXvFMO0hJB+decal4xgj1DyoiZHJ5I5ArjdW16Vg0aBsnqe9Y1nLGZMHhyep61cKbtdmcqsb8qPcfDmtG4l354rs4bssg5rynwaCkKnORXodtKBBWV7PU30aRdmlBJJNZl22elNubhRgZOahZyw56DmtIswmZkmrx23jDS4GcKoJzk171bOHiRx0YDFfHfinUi\/jFZEY4jYYI7V9L+ANc\/tPTIo3bMiqPxrrp6I86pq7nZilpinIp2a1MxaKTNLQAZpRSUUALRSUtABS0lFAC0UlLQAUUZooAKWkooAXNFJS0ALmikooAWiiigD5s8Wf8jTrP\/X7N\/6GaKPFn\/I06z\/1+zf+hmikI+htC\/5Amn\/9e8f\/AKCKvVR0L\/kCaf8A9e8f\/oIq9TGFFFFABRRRQAUUUhoAWiiigAooooAKKKDQAUUUUAFFFFABSUtJQAjAMpU9CMGvnrxbZyeCfiCbtcrpt83PoK+hsV598aPD\/wDbfhSVkA86AblPcVMldWKpycXdE2lgtapPBOZImGRzmrH26aMMFya+ffh98Qrvw\/c\/ZNVZpbPO3J5217RZ+MfD97biSK9hUkZwzDNckocp6EKinqyPVLy5vZPLaMhADk4rxLxHutbq52nGT0Fet+IPG+jWEJWO4ikd+BtIJryjxLFunlud25X5AqKasyqrujP0mdbdVlm4z0r0HwzqLTSqJXwo968lYyTbvm+VO1dT4av3FmmPv55NXNdTGnLoe428+6NcLhfWraEZ+XpXN6Pd+fZIC\/AHNb9q4ZAKxZsXNwK4NIJABjtUTHApHzkUJlItrKAMA809Zdw5OMVRDBDk9akQ5+btVJjsi75wxmqF3dDB28YpJJByM4FZ12WkUqnfqaGxxSMW+kkv7xYI84J5rvdKgSytI4RgHHNcOLy10ybezAv39qpXHjhYpmO7J7VEd7hUlze6j0e\/vY7aB5ZmARRXlviLxWrO+4kL0WsjX\/GTXlpNE8nzMOMHivNZLua7B86UnB9elbLUwbSO5\/t1hbSlptxbpzXHXesyS3pgd\/l9CeKou0kaKWJ8s9D61mTqft0ZkyCxq1BGUqjJrxCZGyOe1UnGGDbcEela19DMpQKu73FULljE3lyLg1ojJs3dA16WwXYxyld3oXi2IzLFOT5bdCa8vtpITZMjA7+xFT2d1HEVRzweh9KynTT1N4VWj3OcxSQiWJlYHkGsbUtREFlK5OCBXPeGNTd4dhkyg7E1V8YXjQQEJyjdRWUVrY1nLS5wk8qT6jLNK52ls5Fev\/CDxEIpoUyzYOCa8aBiMxZfu5yQa9R+G2oWMF2myDO7tiuxHCz6chlV41ZTkMM1LmsTQ5TJaoc\/8B7itheRWpkPopKWkAtGaSlFMBaKSgUALS0lFAC5opKKAFopKWgBaKSloAKKKKAFopKWgApaSigD5s8Wf8jTrP8A1+zf+hmijxYP+Kp1n\/r9m\/8AQzRSEfQ+hf8AIE0\/\/r3j\/wDQRV6qOhf8gTT\/APr3j\/8AQRV6mMKKKKACiiigAooooAKKKKACiiigAooooAKKKKACikpRQAUUUdqACoLy3S6tJYJBlXUip6SgR8ZfE7w8\/h\/xNcW7r+6kbKVxjRlM7ZJE9NpxX0N+0vpKiKz1JRkjO6vny4ckDb0qDTcgjVt+XdnYHILGvQllGpeHI5C6iSIYPPJrgBGTESudx6AV0XhXcYpYJWIyOhqZrqXB20KgcRlwpJLda07Sd0hDRfLjqKxJUMV665wM9TWi5IjLI30HrUSVyoOx6L4d1yM2kUG8iXvXf6fq8EuEicFx1rwLTLmSO5jPRs8mu+0C5QXzNu+8O1YShY6IzueqxXkcrBVYZHUU55Vk5jYcdRXEaZdkXB3lgexrQt75TcMVc4781nY0TOlaRWTOc1H9sSNTGCSfauZn1dY7zaHGzsM1Zhuo45N7sCzdBRcs30kUxjPJNUda1COytZOgciszVNee0QCCHL+44FeYeMPEVzcu6NLh\/QGha6ITdtWRa1rckkr5kJ3H1rFv7wmRR5mD9ayryVo4Q8jgAc896zFvjLNvClm9BW8YWRzuTkzrorV5l+Zuo4qjdWrQhlJCnuPWs\/7Vrc6gWtq+Ox2mm\/2B4ivm8yRZAT9aaVt2beyvsmzRllV7RYmYYHaqtvD595vlkXZ2yelVm8K62rEsHyPrRB4V1m4baC4+maq67j9hK+sGarXdvZKwe4DE+p6Vm6lc29237p1JPfNSSeAdTdSWLsR1FUJvCF\/aZZtwojy9zOpSqLeGg4SrbwkAgk1Ua9zH5bjn1pDplyjDeWIFSvZeaNoBDinoYNPoaWgarJBcISxCjrWz4i1GO6jBjYkY5FchbQSxyYxz6VK0xEhVuAKXIr3Qc75bMXcFQAjBzxXY+FNSW0vrYhQoBrkDPG+3euPpV+1jd5o2icgZ4J7VojI+tvCF5DLErLITIwHGa65DXh\/w+u5rKSAzP5isOSpyK9msLmO5i3RtkVaZm0Xc0U0UtUIWlFNzS5oAWlptLQAtFJS0ALRSUUALS0lFAC0UlLQAClpKKAFooooAKUUlFAHzb4sP\/FU6z\/1+zf8AoZoo8Wf8jTrP\/X7N\/wChmikI+h9C\/wCQJp\/\/AF7x\/wDoIq9VHQv+QJp\/\/XvH\/wCgir1MYUUUUAFFFFABRRRQAUUUUAFFFFABRRRQAUUUUAJS0UUAFFFFABQaSloA5D4neHV8ReF7i3AzMoylfHl9aS6bezWt5Eyyg4AIr7x9iM14b8fPBkNwsep2EP8ApIyWVByaloqL6HgelWM0krcD5OcVegPkXg3Hard609O0y4gtDdSFlBI3L3rQ8R2Ns2nwXKxsjEcACpauWtDl9SiQzlsg5qqZGyA3yjtU12AYsrkkVm3U7NgHt6UkguSxzyiTAbj1rrfC97ILkpkM56Zrik+ZwqnitfSrj7NcLKG5WlKN0OErM9JGpJCG8xuV7iqGm68JrmUKcAdM1yN7fMzb948r0Bpml3UKs7sSAax9nobqpqddf6h5IZx85P3SOaqafqd5MxkmkOV+4oNUFmW6P7k\/u1HJNM0qZAXYuuFPc1HLZGilc3dWudUktiWkUMR6815veTzCZ2dtz56mu+lvg0UhlbK4+U1yAhju7sgDAJ4qqehNR3G+G9Gn1+\/SN9xjB59K9p0b4eaXbwKxiBcDnIqHwLo0djDDIkYy3UgdK9GgiEa5b+LoKznNt6GlL3dtzEtdFsLVcCJBj2q\/GNMt1+dI\/fIp2rWTPCzxPtP1rybxhqNzZOUeYqfQGoTbZ1e301Z6RqOsaGgO9YB+VZA1zRLZS6mEZ6ZxXh15q4ZiJZJCfTNUJb77QNjuy7ehrdU5PcyeOjHRL8T27UPGGmgN5Coc9SK5XWtcguoSI1G4159aPJu2sfkPeuk0awF5dxtIwCj9aUocovrTqaJWJ005pLYysmR9KzJ4IhncNrDpXe38sNjblBjbivPdZkSWVxG34VNO7ZjVaSKrqgVlXmXsRXPXrMGJwcjrVzfJbzliWPpVaRzIWPGW7V1RjY5JSuQqSyrWnZO4kALkJ3xVCBGEmOCPSrdnbyNuKtz6GrIPUfh3dXct3HFI+LcH5WJ4NfRGikRoAgG3Azivm\/4V\/vdR+y3rbIl+5719H6NEEso9rZIpoUjbU5p1RRNke9PzVEjqBTRS0AOzRmm0tAC0ZpM0tAC0UlL0oAWlpBRmgBaBSCloAUGiiigApaSigBaKKKAPmzxZ\/wAjTrP\/AF+zf+hmijxZ\/wAjTrP\/AF+zf+hmigR9EaF\/yBNP\/wCveP8A9BFXqo6F\/wAgTTv+veP\/ANBFXqBhRRRQAUUUUAFFFFABRRRQAUUUUAFFFFABRRSUAFLRRQAUUUlABRS9BSUCCsy+sEutzyqHbHAPStM0hHFAI8ik8MxL4jaOaHNrKfu44FY\/xE8JfYrPNv8APABke1ey3dkskySBRlayfGlgbvQpooVHmEcZpWKUtT5Buh5BkUrnFZL4KgADPc11niqybTtUa2Kkvk5rm5LXcHx8pFTsWzPmb5gY+B60+LOC28\/SmlQuFJphUowAOR7UySxLcsFCY+WpIJA0bAdTVdWUE+YOPejzVjXclJoaZrW921vEFUkKetQyu0Y3K3D9qqo\/mlWznPaplYSSMDztrNo0UjaaZf7KQM4J789KzrC+W31FSQpQHvVZIy8TBWJJ9egrMnJjYgMCwpRhuOUz2vQvGMCXcVuGG3HPtXaWPiS3IcvMHb+EA180WM80f70cD1NdFp+sNZ2bTbi0rdj2rKdK2xpCoup71ca\/HMjIrdBXjPjKV59QleRmZz9wDoKTQdZuJZWPzMx\/Kr9xaQTSLI7lnb73PSpjHlepq58ysjzq8tpvMztJI71FHBNJbtIikgda9GvraF7YRxRjKdWxXMqBp91KMBoJO1dCndHNKFmYVrdTREKRuWti21GeMqyOVA7VVMCPI3ld+RU8MMbLgn5hVOzJV0at7qUt1ZBPMLN65rIEUjtubO71qWK0PnP5UnzL\/CT1pHmlTqmCOoI61KVthtt7lOeJiMqwPrmofsrlTs27u1Xb63MmJozsRvyqkrSK58s5xVkERUxOoIIbvV6KGY3SLD1bnAqu8zSt8yYI9q0LFyHR7dsydMHrQB3Xw709rjUUkmkKyA8DNfRmkZht41kHQdq+dPBQvbS5BkiJMpG045FfR2ifvrON5MhiBkGmiZGrAPl3DvUlNXgYHSlqyRwoptLQA7NApKM0AOoFNpaAHUUlFAC0tIKWgBaKQUUgHUUgpaYC0UlLQAUtJRQB82+LP+Rp1n\/r9m\/9DNFHiv8A5GnWf+v2b\/0M0UCPojQv+QHp\/wD17x\/+gir1UdC\/5Amn\/wDXvH\/6CKvUDCiiigAooooAKKKKACkpaKACiikoAM0tJS0AFFFFACUUUtAg70UUUBcQ0UUUAFJS0UDGkjFZWugm1LKxGK1jiqt7CJI9p5FAHgfxK8PuA19KgUn+LFeP3kRjLFz17ivqj4n6U95oflRfebpXzj4o0yazbyJI9pX1FQ1Zmi1RyAjDAnPPvVQo7SEjhV71oXqsEVUX6mqcU+VaLHXvTRLH\/LI6liNveotqM5APyjtTZYzH8qnNRRxO8uAwBzTEXWIjwEzk9PapIwqdGIY9aW8KIB5eD6mhUDCNm6Dqajcu4sUpUSL0rPkjDODzyeasyOrSsydO1RFjI6qF4piLd4QsUCRj5ahZm3hei96nlB8qJGHJpLyPy0eRiMLjAFIo0NMv\/sakDjP8VbWm3iSLIxfJPSuTZw9iqkYY1csDtZV3YJ7VDiUpWO1truM2k8S4JA69zXHX84BZcE5PftV9JGtH83JYNwR6VQ1Ty4ptgIKy9D6UorUqTuitBK8K5CZU98VLO6pIHQHa3XFJEzfZ2t8AsO4qUoIUAcZVq1sY3HzOgEc8THJ64qGa6dnHmD5T3qKMrLM0I+Var3Mx+0MB90etTYdzoJ4IvsiIzYRxwfSudmV7N2B5bsRV+K7W7hW3bIYfdrPv\/NR9sw6etKOmg5aj2bzYw8Z+cdR61d8PwtLeqyYABGaoRjEYKAk+1buhTLDOhlQIMjORjNUJHuXg\/S3+020zBXicdT0Fer28YjVQoGK43wF5NxpsDxn5cfdrtwNpGM4qkQ9yUHilpoozTEOpc02lzTAdmikooAdS5popQc0ALmlptKKAFpabS0AO70UgNFADhRSCloAWikpaAFopBS0AfNviv\/kadZ\/6\/Zv\/AEM0UeK\/+Rp1j\/r8m\/8AQzRSEfRGhf8AID0\/\/r3j\/wDQRV4VR0L\/AJAmn\/8AXvH\/AOgirvemMWiijmgAooooAKKKKACiiigAooooAKKKSgApaSigANLSUUCClpKKACiiigAoooPSgBKYfve1PoNAGVrMKvB+85Uc59K8G+JFj\/aFzcXEJAVK968RP5WlTN7V4P4gmmu9Om+xIWyTv46VFT4bmtLV2PGL6Qq+w9B1NZrFQx8sZJ71uahpzx+Y7\/drFjAjGQOfemmTJDwwbh8AiiztxJOzOSB2qvMNxLHIoV3DIobg0xEroUmO8\/LUymSVWVR8pqXZGgPmnc3bFRy3brHthQc+napKII4\/KuCDlkHXHaltXxcRkrlAeajZmhGM5L9a14hbpbxSN074oegDdTZTIrQcgdqgnJkt1kYfL3qEktJIU+52qe2bfYtE\/ekMdBGstoGUZ20KDBdqX6N0NR203lQ7U6DqKR5DIwV+o6UxGi1w0cbK4z6e9VtTiC2kcu4P6VRa8bzQkwJQcA1EZm+eMndGvSlazKbuiZZW2C4hbkfeWrtzfRGJTJwO2Kxo5dgYr0PUVDdlnj2gHiqILc90d6yrwfanTTrMQw4YdR61mux8pfapEGTvXkjqKTGmWY5Wjk8xc8VfScX8LiTmQdDWeWAYMo4PUVJDKomXYNuaTQ0yeznMI7ZHrXR6JH9rvoJZSvl55U965+MQ+btk53HqK7PwzYCK9jhVHncn5dvIFLcNT37wii24TylKxkDAHSu6VuBXH+DLS5t4V+07WGBgDtXXA+1WiGS5opoOTS0xC0uabmigB2aWm0tADqUUzNOpgLS0gpetACilptOoABS0lFACilpO1FADhS02loAWiiigD5u8V\/8AI06x\/wBfk3\/oZopPFf8AyNOs\/wDX7N\/6GaKQj6J0L\/kCaf8A9e8f\/oIq9VHQv+QJp\/8A17x\/+gir1MYUUUUAFFFFABSUtFABRRRQAUUUUAJS0lGaBC0lLRQMSiiigQUUUUAFFFFAWEopaQ0DA0lFFAmZ2u7DaFJDwwNeHtLFHrl\/YW7AFuiivWfHVwYbBXU4CnkivFvGrppeqWur2qkxy\/fYUqkHKm0i6U+WornOa7DFMk0Zj2vH1UDk15zcxusrnYQq17Fdx2+oXUN5EVMcg+bH0rk9e0v7FNM\/lFoz0yK5qdSx1VKdzgFm5yygqafEqBmBHXofSpJ4VLtj5Qe1QqW2lCM46mum5ytWHtGUchmJB\/ippiMUnBJU96ktZN+5JBmPsTRLKrRhRxSAhRPOuR\/dHUmkkkzL5ecRmlZiAQvBPWq+3fKqhqALiNt2xg5qW5hNrIMtlT2FRi1ZVWQMDT7q4WSdFOdp4zSGPtyskT9Ax6VnzytHJk5DL2q7DG67lGCo5DVBdoZSHcAHvigBsqLLGsiMMN27iqwYqp447ml8oxt8hyD2qMeapxjhuxoFcSJhv4pXmYlxjP0pRGBKVJwRTZFK\/wCrGaoTIBufC1b8qSHEsY3D+IVHArFyccitOxlQKVY5z1FJjRVZfmU44NTWsHmyY6D1p9xhVYY47UQNmIiI\/NUlW1L0Vopj3\/xKa9Q+GssYuIiU\/fdFc9K8xs5GYBG+4xAJr1fwfozQyxtbuzRNgg9vwpDPb9CjktYh53Jfv2rYBrK0dpPsiRTg5A4JrTXgYNWZsfRmkopiHUUmaKAHUtNpRQAtLTacKAFFKDSUtMB2aUU3NKKAFpRTetLQAppc0lAoAdRSUtAC0UlLQB83eK\/+Rp1j\/r8m\/wDQzRR4r\/5GnWP+vyb\/ANDNFAj6J0L\/AJAmn\/8AXvH\/AOgir1UdC\/5Amn\/9e8f\/AKCKvUDCiiigANFFFABRQaSgBaKKKACiiigAopKWgQUUUUAJRRQaAuFFFFABRSUUDCiiigApkzCOJ3JwFBNOrO8QyiLSJ+cFlIFCEziPF16bzwfdzxHdg4yPrXmekzwa7aNol6wBP3GNejeC7P7X4bv7K5O4PnGfqa8Vvra50vxY8IykkT5X6VqtCWrm1dWTaFutSxVU\/vd6u25i17TQAVLLwRWp4ghg8WeHsROI9QRecHBNed6TqT+FbsQX6uuTjNc9bD396J00cTb3ZFbxL4eMNwfLQrj24rk76FrclQh3HrXt881rqdkJIgJlYdV5xXF+INIVAzooJPauaNRxdpHTOlGa5onAEIkStklj2FM\/cpEfM5kHQCr7WoibY68Z5NZl5sEx8sZA9a6U7nG1bcgC+d0ODRHF5chLnGOlMDGN8im7nkkJY\/hVEluSXKKELZomByqBfnHWrECxJbK7cP2zUT3KKrbPmkPepKY6zd2BVjwPSjzonZ45CQw6YqnC7KG5IJpjr5aEucs350BctRofMU8cnipbpRDOFkA9qqafITOGcnavrUl5cNPcltpbtxR1DoQ3iZmDjn6Urrg5HftVpF+x2ztOAzyY2r3FQXWIkBzlm7UJiaIoyYZsnvVyOPMgMagk8mqSqZTyQD709Z2hyFJpsEWpGMs5AxtHUUkChJcpnk4xT9KgaZzz16mtO2jKPzDuizy2OlSUbmm6FBLbkvKUmIztJxXZeAzd\/arSwjlLhCc4PStLQdGhudKhkKLI0g4kAzivQPC3hay0658+D\/WnqTTsDdjq7EERL5hycVczxUUYCsVwKkqjMdRTaKAHClpuaXNADqKSlzQA4UtMpRQA8UopopQaAHUUlKKYC0tJQKAH0UmaKAHA0UlKKAFFLTaUGgD5v8V\/8jTrH\/X5N\/6GaKPFf\/I06x\/1+Tf+hmikI+idC\/5Amn\/9e8f\/AKCKvVR0L\/kB6f8A9e8f\/oIq9TGJmlopKAFooooAKKSigELRRSUAFFLSUCFNJS0UAJRRSmgBKKM0UAgooooAKKSigLhRUck0cZw7AE9qjuryG2gMszBVA796AH3NxDbRGS4kWNB3Y4rG1meLUNPXyGDRt\/F2Nc9eaZe+L73zZppLfTEPCg4LVj+PdWOj2622lHekGNwXtVxWopbFzR7xLDxM+nN8qSdPfisf4ieFzdTf2vax5lj++AOtZes3zXmk2XiG0z5iH5sfXFeqeGLuDWNES4G10lXDjrVS0dyYPQ+aNR1SfTb6GW0cgg\/MvrXSanFpfjPT1+7HeBeR0Oam+KngyTTNZN\/YqXsmOWA\/hrzR7ye0v\/tFo5QqegPBqk9AlG7utzQsjrHg\/VhsQzWoPKnJUivUtO1rw34vthFcL9hvSMdlGazfBOqWXiK1ZdQRBNjGGHX6VR8W+CDaJJfaY20Lzjv+FTKmpK6HGq4uz0ZneLvBy2UzLZyidT\/EDmvPdX0We3BZ42X8K0dM8Sappd\/i73yxA8rJzXe3Ot6L4js1RNsFwRgq2BWSppao1dVvRnixQSSquMbalnMJAVQQ\/r2rpdc8NyWMhnAPlHuOlczco8bBnTardDilYCO5LNtjBGBSQIuMEdO9I6s7AKDkd6VNwOMfWkA3cRJnAx2qG5UszFm6dKknwr7QfypnySkBiQaACKRlgxgY9aety8afIi5Pc0t0ECpHH90dTUAVhkjlRRYLlvIuirOx8xexqvOxkkOe1PWQTEbV2sPSlGA5BGaBbkcMZlkbY2GFMwd+GOTV2yiVXy3emT23lvkZYk0DRq6NbC5Qxs7Qn++OK9Q+Hfhwx2xW9T7Qk33eM15haX01mMRRJKCOQRmus8LeMLuKIW8DhJkOVDHiklcpux7p4b0j+zY2t1QmBeVBHSuutIQihlzzXCeEPGj6hp4aa3H2qPiRAOT9K7jTdRtr6IPCwUnqh6iqsQaAx1ozTM4PNLuoEPBozTcijNAD80tMzS5oAdmlpueKUGgB1OpmadmgB1KKZTqAHClptLQA6lFNBpc0wHUtN70ooAdRSUUAOFFJTh0pAfN\/iv8A5GjWP+vyb\/0M0U3xX\/yNOsf9fk3\/AKGaKBH0XoX\/ACA9P\/694\/8A0EVeqjoX\/IE0\/wD694\/\/AEEVd70wClpKWgLhSUtFAwNGKKDQIKKKKBBSYpaKACikooAKKKKBhRRRQISlrH1rxFYaS6RTyqZ34WMHmuP8deP20ezVLRAblx0I6VSi3sJyS0PRZHSMZdlX61FNMQn7kbmPSvEvAOt6t4t11mvZnS1hOWUE4Ndt8Q\/FB8N+HJbiEgSsNqfyo5RmvqOp22nuTM32m8bpGnOPwrlvEGpy2dq9\/qzZJ5jtl\/qKwPDevxW\/h\/8AtPUfmvpuVZ+3NZMrX3iDV0QlpTIeO4FaKKiRdyemxTuvidq9zcfZLKMRJ0CoMEVasPDeta1iS4ulhWf76uxDGpfE9tYeBpIzcWwkuJRnzCucVh6f4vvLrUIZUJWMHjd0FCG1ZHeXGlRaBp6aRKwNrICAzetReCtVk8IXzafqJIs5T8jHoKn8Z239reHhM1wA6AMpQ1z9vqVp4w8LPb7l\/tS1GAD1b\/OKuUehnCfU9aljg1G3lEwWa2lHB6ivnT4jeCrrQtQkntUaWxkbII5213nw28US2GdG1lyozhHftXphsob8fZ7mNZYW7EZFZbGqPm\/TYPstlEIn2S9dwrWu\/HMlnDFYX3zq3Bcda7jxv8OJ4Ge80TLxjkx9x9BXhWtRyPqzRTxsjocFWHNUpdglFSWp6e2jaXrGneeNhZhncvUV5dr\/AIavdNunnt9zR54K9RViPVbvS8Laytt7qTxXX6H4ktNWRbe7UJMeMHoatuMtGYpShqtjlNI8QTt5Vhqw82BurdSKzvFD2d1eqloSbaH7u3qc16Zr\/hG0t9CudTICSEfL6V5\/4P0r7bcGFlAySSTXPNcp0QlzLQ5mcykgpGVT1xUdywVcdD611V5cW39unTfKxjjpXL+Ibf7JqckAOazi7lszymTuL809owFyCM1EuQcEZqV8BgAasQ1yzDOcH0FRozpnrg1KsRJJBrW0TTGvGJkU7F6e9AFKxhy44Pz9BVu80i4gQOylcc5NbCabJDeK4TKIcjir3iDWRrs0FpbRBFj4YqOTU7jscvaxtJl9p8tetWrGaGe4ZSAfTNTa4TpFi1oiZklHJx0rEsI3ghMpyD61VrCuadu\/2fVkjQbxnkV0OsWNrckzaVmG4jALKeM1geC1+0655silgtdnJYK91LcRnZwePwqXoylqV\/CHiWS2l8qSXZMON+f516FpXjY2Vyo1K3baektuOD9TXzzKZUv52RjndWvY63qciCABpAnY81otdzPbY+qrfxUZrX7Tp5W6jAyUHLCrGl+PNFv5fJml+y3I4KSkLXgnhbxQlnIk8btbTqcSQscK34V1XirTNK8WWi3dhMtpfgZyh25NLlC57vDNHKgaGRZFPQqc08NXzt4L1XxDo0\/2S5leWAHAYkmvY9G8T2dwqxXsywz+rHANJxaC51INOBrNn1COGEyoRcRjkmLmotN8QabqJK286iQdUJ5FKwzYFLmo1YEZByPWng0AOFLTc0oNADqcKZmloAeKWm0ooAcKUU2loAdSikpaYC0opBS5oAWgUlLQB83+K\/8AkadY\/wCvyb\/0M0UeK\/8AkaNY\/wCvyb\/0M0UiT6K0L\/kCaf8A9e8f\/oIq9VLQuNE0\/wD694\/\/AEEVdpjClopKACloooAKSlpKBAKKWg0AFFFJQAtFJRQAUhOBk9KXpyeBXL6p4iRdbh063BcHO9l5xRuBo3mshLhbe1jLyk9ccCr8kqwWjSzuo2rknNc1d6dfTSySWuI2boemKzpPDl\/jF5qh2HqrScVVkFzhzpd3rfjC61yaR\/sMOSgY8dO1edeItXnv\/EUxIZk3bVH6V7reWliYBYpqkES\/xKkmKp6d4Y8NwXqyqPtM685GCua15tLIjl15mX\/hb4dGneHhNIm2acZOeorj\/ifH\/wAJJr1rpNo4NpbkmaT+Ed+tdhr+uTxQMiyRW1qgwcHBx7V5R4h8W2z2kttpMMokkOHkx8zc+tJLW7C\/YoeP9YtZY4tL04bba2ABlHc\/WvTPg3Ja3Hh9biIrLdrwSeStcfpfg2PUPDUksgAklGee1P8AgzcHQtfk09tzLKcEDpxVSi9xRktkemeP\/C0fibQJUlUG5jGUbvXzLfzyWDyWnKzRnBr7BkdixABwRXzb8UPDkq+MJ\/sMLMJDzgdKhOxa8yb4f+I2voTpt85aTGF3HrWHr+nah4Y8SpfaSrmN2yVXofrWh4S8Izxa3azTyCMg9AcGvX\/GS6TaaOvntErheC3WtL3Wpm1yy06nB+IrJtc0e31aziMdwBmRVGDmuq+FPjIMgsNZfEi\/Kkjf1NXvAcdpqPh2fyfmHY+tZOr+FFMTS2cZSUHJUDH5VLXMNPl0ex67PMI7ZnUhlI4I6GvOPEvgLT\/EZkmRFgu+odRjJ965az8fXWgTJYagrT24ODnllr1fSr601DTFubCRZFYZwDkioSsWz5W8YeGtQ8Pak0V7ETED8sgHB\/Gq\/hewN3qnmj7kfOa+jNWuNF1+7m0K+Ae7xgbsZH0rjLj4e3Hhq1me2VpoZOcryQKLjRyviLXCLa3069l\/0ds5554riP8AhJrfSfEKtZKWtx1zUmvzQ3niOWO5fZFB1yawLuHT47oSqxeInjFJrmY72Vkdxqeq6FM51GCEm7YcDA6157fJJd373Nw2CT0rp4bW3vdOae1AUAdO9Ynh21i1XX1tL6QxRkkbs4o9koEKo5FWX7OArLj3rOfa8p216VqfhbTtNdRHumHqea871eA22teWylImIAPShopGv4Z0mXWL1YYgSin5zXd32kf2RJC0K5iPBo8L2yaNbB4BkOmWb8Kh0fXEOk6o+oSCQr\/qVY5PWs3c12KHjDUI7SBEs2BmccgdqwvCzpaXLX1yMxICfqaz7NZb7Um84klj1PYVqX\/kpDLbRj5QOapK2pDd9DI1DV1v7+WeYZBPyiul0DVNKk08w3cAzjriuGV4wCCvQ1raBNZmRknGAe9OO4nsbfhzU7PTPEaiJFaF25yK9g87SnA2QqQw5wK8EvoILfVY5In+TcO9es6dYia1hmguOGA71Mk7lxascb43isNP1oi1t8I3JBFYtlfJFdxtFGo59K3fiLptzBdQ3DYZW71y1puiuY2kjyuecCmhOx1fiiO3fTxOkMSS4zkDmui+Eyz3GnTPNCsqpjBxk1m+IbWK70FZIFbha7P4HT2f9kT2zSATjqCaue5ENi3r8qQaTcT+W0ckY4yMCvM7Lx2NrC9gR8EgMo5r3nxZpUOpeHLuCAoZWXivnOXwxH5rxtMsbgnIzikmwcUzvvCfia4XN1YXLtF\/FDOfl\/KtCS8g1K+F9pki2d+p\/eRA7Ub8KyPBvheOXTnt47yLz8cDdzVLSPCeo6V4yjGoz\/6I5+\/mrdrXIi3dpnqvgvxTcR6s2n6nkwvjZIegr0ZJo2+7IpH1rz+38H3dtMJ7J0uImwVMnNW\/+Egk0y9FjrNm8SdBNGuB+dZNX2NEd0D6U7Nc29\/bXEX\/ABKdSjMx+6kr1HY6xqsMvlahYsw7SRLxSsM6oGlBrLXW9PEgjnnWCU9pDitGN0lXdDIsi+qnNICUUtMBpwNADhThTBSigB9KKaKWgB1KKaDSg0wHClpopaAPnDxX\/wAjRrH\/AF+Tf+hmijxX\/wAjRrH\/AF+Tf+hmikI+i9C\/5Aen\/wDXvH\/6CKvVR0L\/AJAmn\/8AXvH\/AOgir1MBKKKKBC0UlFAxaKSloEBpKKKAAUtRXE8duheVgBXOaz4ptrGB5HdVUDgE8mmk3sDdtzpZJEiUs7ACuf1fxdp1hG371XlHRQa8c8S+NNb1u5aHS4JvKzgFQea6r4f+CZpIRqPiDe0h5CN2+tVypbiLX9ta54ku\/KsUeCAnBfBHFdVYaPZeH7Nri9mVpSMtJKefzrOv\/F+maZK+naREsl6OAqDI\/GsXU7DVLrT59Q1d2eNRkQIeD+FFrjbsM1jx9dX92bHw9CWUcGdh8v51gz6RrV55k+oapJz\/AAwyHisazu7m8jItolsrcHGEG1q9N8IQRnRPmBlfByz81rFJGUnJanmRv7bS7hLK2sru9u2ODIy7q9S0jRJnsonljWBnGSEGDXPaDc21v4vWOdIQSTjPWvT2u0EgVRniplJ7FKK3Z5H8XdNnMNrb6dvdud4Nee2vh25MsaXEsMLEjHODXQ\/FTWtXHiya3svkT1\/Cuc8P2Fzd6tbyaheuWB+6WpxTY20kerX13p\/hzwuouJixVeSDVX4SXWkanc3V3bw7pYzncQM1V8fWFmfDjCeQYwOpo+A8djDHerb4PTOKc0Z03oeqSXvyuUj5CnHHtXzb4h1jWLrXrvaAgDYBOc19JmSIBwB\/Cf5V8ueNdYeDxFexQpjDdaiKRpdvY2fBVvd3HiKJry7Ygdt1dF8UksxawLczHH1rzPwhqdyfE1uWkIBPQGus+LUTSadDIWJwK1T93Qzknzq56r8KJbGPwjEbVRt7\/nWx4n1AWmiXN5BGDJEMjjrXB\/AuXzPCbRnHyf413OtRCfQb2PGcof5VlfU0seQ2J03xy7TRulvqKk7ozwGrOXVNV8I6yFty4jQ\/NEfusPYVwESajZ6jJJpyTRzI5wV4zzXpmiakfEWn\/ZddtWivQMLLtxn8au\/NoS04a7oi1PxFb6n4s07V9NXybrdiZDwT2r6JeeN9FaeQAxmLJB+lfNuv+C7yw05r61BaZSGRk78966yy+IEv\/CBvY6ijJfMuxMDr2rOUWaJprQ8S8QXSw+K7zUDbpJaTSbSpGR1xXQX\/AIb02T7LNbAi2uBlR6GuquvAlva+AZL7Wp1idjvAJweua519Vs18I2ot9zLCxAb8aSGZenWMVjqsdvvbyScFc8Vp+P8AwhDY2K32n7kkAzlaz9Wv7OO6jkyQ3BrvtV1K0vvCBJYE7O9ax1TRjU92SZn\/AA00lPEXh9luZi08Y5JPNU\/GXw+X+yruaR8yQ8oc81e+Al1D\/aF7CXAQnua7jx7JC9pcxxSLyvPNZGp5H4bv4F8KebdOA0YK4J5PauDsUl1C\/lSEnDNwtW\/sFxcxtDauWXcdyqeBzWpp9muhhZ9w80+tCjcJSsSatbQaXBbwx\/NfSdh1ptzpbxxI8kbBmHORWfdLcx69DqN4wbLDaD0Fe72dja6nYW1x5KOrqOgpS3Ki9D5kvLcw3csbKRiorNf9IAzXqPxX0OLTtUjmjhCxSegrh7G1gOoQgg4Y0WBlDUkZQhJr0PwPcyTaOg8w4Hv0ql4l0K3j03zEB4FdF8ItJhv7C5jLEFcYokrMUJXVyt4yjmm0KTexbZ0NeZrdyhRzkV9H6t4RSbRrqNXJ+XjJr58OkSxySoWHysRz9aBs7LwbrRutMe2nRWIGOah8IaqNH8aojLtjduR2qh4M0q7e8kSLGeKf4r0y8sNegnMZB3DkCtHrG5ktJtH0dBNb716hWH868J+KFjHYeLJTFIyRy8jB9q9m0WOW50m0nMbHco5xXnPx10phDaX6xtxnJxUJl2OH8PSSwa3bNFduuT\/errfid\/aEdlbTRXL5HOQ1eZ28zQzRS\/MpUivUvETNqvg5Z0O4qtaQs00ZzupJnpHws1fUJ\/CNs0zmRlHUnNVfjHr0lt4cjlkiBYd8e9ZXwI1Uz+Hp7Z8FouMfjW38W7eO+8GT5TJTHb3rNI0bdzxqy8YwxyRON0cmRyOK9t\/4TV7LwzDeI6ygLyHOa+aPscEoUqRkNXrkOjLrXg5IbO5HmBfuhquKvuRUlax6XpNtp\/jzS49QmiaKQd4xirMXhnUdPnEmk3rNCOscrV598PtW1PwXp0lrfwSyQk8FRnFetaJq66np63VsG2t1B6ios1uXfsEGoXEC41CFlx\/Eo4rStrm3uk3W08cnqFOSK8z8feL7zwtqUfnIJ7GfIw4zisnw3fwapNJd6JeyQ3P3vIZsKfwpctx3se0A+tOFcDpvjyOK4Wz1iJopc48wDC13NvNHcRq8EiupGRg5qWmtxp3JxSimA04UgHUopKWhAKKWkpRTA+cPFX\/I0ax\/1+Tf+hmijxX\/AMjRrH\/X5N\/6GaKRJ9GaF\/yBNP8A+veP\/wBBFXqoaF\/yBNP\/AOveP\/0EVfpjEopaSgBaKKKAEooFVbu\/gtt3mOMgZPPSgRayACTwKwda8TWWnRnbIskvZVOTXmfxD+KDAvp2hDdIeGkHb6Gp\/hfoM1zb\/wBrawXlZjlUfmr5bbiudLDPqviCTKxGKA93GKv\/APCI2SL5uou0\/rv5UV09qyGICJQijsK89+KuuyaUYonn8u3frtOCaLt6DsbDaj4f0cCO0t4nn6ARgZrnfFN54luLSaS0KW8LD5RyDiuX8J6vb6prca2kBbZ\/G4ra8feIb+BobS3EfPBzVqOlyHK0rFr4PeGVgN1fajie8Y53tyRXpGrRoNLuAQMbe9c\/4JguLXQ42mKiWQZOKXxzqK2Hhq5aaYKXGBzUNNsu547qOvWem+auRJJuOFXnvXZ+AdWu9Q0NpEj8tcHGRivI2Gn24aVyZpWbPPPevUfCty8HhNpgBGu04A4raK1Maj00OT07TLyb4iR3Mt1ld\/3d1fQipHGyk4zgV80\/D65n1Lx+hMjlQ5719G8mUdTwKzluaWfU8L+N16bLxSPIXDP3\/CuD8P3M8uv2rSSsAW6ZrvvjTpd5qHitPs8RKjvjjpWP4S8JtFrNrJeSfMD90GmmNpJHQfExmPh0Km5iQOlXf2fLSSOxvZHjZc4xkV13i6xtl02IeSrcdxW18O7eKHSnMcaID6CioyKS900vLb5\/lP3TXzB4x0m\/uPE160dtIQW4O2vrO4liht5JHKgKpya8U1DxFpLXspNxHu3HkGoTNDzjwx4W1P8At21kaPYuecivT\/HfhNr3SUWaXbgdjTtA1TT7nVoljukY+m6ui8bahZQ6eplnQKR61qtjKWskRfB3QoNN0qaFWL9OtehS20Qtpl2AgqeorjPhje2k1jO9vKHXjoa7NrmPyZMHjaf5Vi9zU8Mu4beC\/uAsMY+bsKv+Gkt59XKTxqQenFcf4l8X29trF5DFA7srelZeheK72fX7cQw7FY+laImWzPVdX1mLQb9LW6xJZScZbnFc34o0\/Sb3UbG6sJ1I3Z2A8VmfFS0uLrSEm83bIBnANO+Dvht9T015Lx2JhPyk1c3bQyprTmR1nxH0mLUvBDTyzSO0KDESHj8q8UYQyeBwiII8PgcYJ+avp6WxtY9JnhnIKbDkfhXzR4waCOG3trP5Y97cfjWVjZO5g65Zr5sXzZ6V3N1YeV4N3Zx8tee3kkkupxoTnkcV3vi+8kg8MpEuACorSnazZnVvdIk+BemSzXN5MpwAetdX4x024U3GGOAp\/lVf4AEpo93JtHOP511Hiq7DRXpKchf6VCsXd3Pnfw7qFxot5NMyeYjkggjNMha813XEVgUiByFqP7ePNkyn8R7e9a3hS+B1tCIx+VOKV7ClezYeN9NuLa2gJY8V6V8Mpr5\/CsLglxH2NcX8Rr5ms4QU9a7b4K3zN4alRlyo\/wAaKiXMKm3ylP4vG4vdAjnaHBi6nFeQWt5Es8LnIKmvpXxfFDfeGL2Fo+duRxXzQLeEsynghv61FjRM9L1bULG48PsDndtFSfBDVLWPVri3dsBjxSaRotrfeHwxYZKmue+HlvFY+NI42cAMxHWtKkdmZ0pLVH0lDPZujqXXDKR1r528SQ2lp4hvYTKoG7I5r6C\/smFWHzYyBXi\/xi8OW9prsdwr4WWoUTTmRT8IXMEGsQGOdAGPPNdH8SrUNbwXCMpI5ry21svJvIZIpyMMO9emeJdJubzw15kczNhRjmtIptNGUpJSTPWfhXOL3whb7trMgwal+JelR33hWcGFWMYz0rzL4B3l\/GLuweUnGNoJr1m9S9ubG4t3GQ6msrGjaPnb+zLWfGYBgdeK77wfplrfaDPaMuABgV5lqN\/qelardWjwAlWPaun+HXia9g1N4bq2KxSd9taR0ZNRXianws059E8Y3ViXxDK3GTXsOo+H3vbGe0mUGOVcZrz2exuLnUhqNggUp82QKsaH8Ur688TJpF\/amJfuhtuKiUWmUpcx59qHwn1PT76bd81sCSCvpU+mX8fhtCtsskhXqDzXv0k5YvHKdysp6\/SvlXx7PPpvi69gjc+XuyBmhND3PZdC8XQ+ItJmjns1SRF5+WovhZ4rhHiK50mQ7QThVavOvhTrDnVJ4ZQCrDn8qs6OIV+K6eSdpZu30qpJONzOOknE9z+Ifhq08Q6BMjgeagyhFeB6RaPoOpLNFKQUbBGa+hb5pYbaUo2V8s5\/KvlfWdff+17uOXhQ5wR9ahaGi10PX7gW0sltqF0vm2MvDnqVNW7631nRbuK60S5a5sH5A3E4FZngI\/bvBcwlw6YyAea6n4bTSX1lc2UmQIwQufeql3Ij1XY6Hwv4qtdY227Oq3fQrnqa6cHnBr56l0q\/8M+O1llZ0hdyY3\/hr3PSNQF5Cm8jzMDp3rGWjNbGrS0xaeKAFpRSClpgfOPiv\/kaNY\/6\/Jv\/AEM0UeKv+Ro1j\/r8m\/8AQzRSJPovQv8AkCaf\/wBe8f8A6CKviqOhf8gTT\/8Ar3j\/APQRV6mMSilpO9AC0nQZJwKK8W+LHxJn0fxJb6RZ\/KCcSNQtQPSfEGurYxOYyNiD5mrybxB4ubXVeDTiySk4OerfSt\/xET\/wi1vevKfLlHzKx6k1S0vTNG8JWg1jVSHupOY4Rg\/pWqstibX3J\/AHgO3t7ZtR1uJQzcqrj+dW\/G3jq08OJBbWUQyx2qFHHWsFNa1bxR4jhkE32fTF\/wCWYOMisr4jW9nJrenxghn3fdquW6uyOb3kj2vSLmW+0m1uIxt8wZIrx741bG12FbyTKLnC5r1vSXa3sLWFeAqDj8K+e\/jVfG48YupYnZ2\/CoW5erNf4YX0b6pMtvGFVO+Ky\/GV7Pd+PIIPNbZvHyg1p\/BTSri5lupnGxOOvFbdzodpB40jmlXzJN3U8itG\/dM0vfZ6vYxMtnboAeFH8q88+M1jf6gLW0tyFjOc5r12NQIo8AAbRXmfxP1a1stThS5nCDnjNZJ6mp5fY+C9rIbyYdRwDXssWlWkHhsRBMoE6Yryebxnpy3MaRhpGLY9a9E1rxI1r4YaaKAnCAgYrWJlU3Vyr4A0ewh8Q+ZBbqrAnnFerLGgbhRXhnwg8S3mq+IJFlttignnbXs4nmLDC1k0a3PPPiJL5et9QoHc1xltrdjBrNuGkDyE9Aaq\/F9NVu\/FkiQyMkI9D7Vy3h7R1t9ctpLuXc+7uauKZMpI9G+K3iW6g0eL7FHyR1xW78FLy9v\/AAvI9ySH9\/rWN8Qzaw+HxI4U7VFX\/gZqyXekXaRLgJiqqKxnTk3E77WYGOi3m9zyvrXzUbXSIppTPJltx7+9fSGuO0uj3i56oen0r5DvCReXG4kkOev1qIuxpZs9K+H0WkSa2TFu3JV\/4n6hYwpDC6uwOeK5D4VyA61IoGSfStb4oWF3dXFv9ngc89cVrf3bmbX7yx6l8JoIIfC6zwx7fM7Y966TX75tP0O7uVAyinFZHws065TwdaxzAKwB\/nXQ+ItJW40C6hkY4ZecVjfU1sfJd3qK3F1NO6x73Y5\/Ot34eyJda+PMC4XpitxfCWlxk+ZvY7j\/ADrpfBGh6baav+6i5PcirW4p7M5H4wXjxw20cTuFOc813fwZuNvgxSPvHv8AjUPxZ0u2ktIGWBTz6V2fwx0i1j8JwIqY45pTetyaa90yvFF5Ouh3jpxgAV8\/6xZzy6pAmxiqbiQB619aatoFtc6XPDz81eL3mkpB4gnjZTnoM\/SpWpotDx7RtOuLnxHCGjcru9K7r4i6bOukxhYnIA7Ct\/wzpIj1yI7NzBjxivRPGWmtNpJKW28gDjbWkbJNGU786ZyHwDtpF8PXCNCwPHUe9dH4usnS2vMxkbkOOPatT4UIscFxF5YVhjIxXY6jZw3b7JUVgykYI9qyuaeZ8LPGySSgofvn+dbHg1R\/baZBr0bxdo9np2uTQLHD97O3FTeEbHTm1eIrbru78VUVqEvhZxXxITFtDwcc12\/wQjz4cmOD2\/nW58RtIsvsETG3U\/hXVfB\/TbRPDsgjhUD6U6m9yafwFe7g8yxuEK5BQ\/yr5b1OLytSuU6Yc\/zr7jfT7fypB5S\/dPb2r5U8baTbrr12iptJbjAqNy0S+ApjNpTxFz8o9a5fUd2leLo5VYjDivRvhf4bh850kkb5+2a1PHPgexFxHcbXLE5zWr1gZR92oz0Kxf7Xp9rOr53oO\/tXC\/GzTfP8PR3S5LxdT+Nen+AbWzk8N2ys3zIMYNXPE+i6fqejzWbqDvHFZJmh8XFyBkORj3r2DwbdSar4VMXmbmVSOTWV4w0DT\/C90sF3bsxcnawHFZGneJ4dJZVsYysZIyuK0g+V6k1I8y0L3gjUL\/w14v8ANuI5Fttx3sRxivoPRtattYDPYTB1UfNzXner31neeFHufske5kznbzVD4CaxFPql5b7Nq56USjbW4oy5uh32u+DdHvGuL+YsJ8Z4x2ryyTxHpMDPDCqrJGSMmvebpYZLeYcY2N\/KvkTxJZxjWb3yzg7zwPrU6lKx7f8ADrWxfG4RXUqBwM1zvnK\/xMgQRqfn9K574TR3EJu5FZsAU3wlqM03xVjEw3AMf5VUvgFH42fT8trFI4yMHZ\/Svkz4q2Tv41vWjYEAivq+K9ild+dpCd\/pXyv413TeLtQIbd83as0aIh+F8Lx6jcyupAUdfwrZ+H1v\/aPxNubgniE8flWx8NbNf7KvZJEBbb6c1L8GdN3eLNVlXklhgGql8JEfjZ6P4k1RrTQL6ZuNq4r5PvG+23MkndnP86+ofiZaSjwff7UbOB0r5ZVTE+c4O7+tT0KR7Z4Pgu7LwcChIUqTirfwS8QXV34kvYrhAsantUOjX7f8IEzyYAVODWb8EbyL+09RuZDhI+SfzrSa0RlTbuz1XUZrHxbLe6NIQl7DgxMeuevFcno+s6lo\/imw0y\/RlCsVZj3Haq15qMF2Rr2gP\/p0DneqnqM4rd1G\/t9ft9M10IA6HEoxyD0rOUbGsZXPVjjcMdCAacKr28iywRSIcqyjB\/CpxWRQtOFNFKKoD5y8Vf8AI0ax\/wBfk3\/oZoo8Vf8AI0ax\/wBfk3\/oZooEfRmhf8gTTv8Ar3j\/APQRV6qOhf8AIE0\/\/r3j\/wDQRV2gQtIaU9KSgDK8RatFpNmJZmChuMmvM\/FvgCHxPqlpqSEGVTvZh0IrsPiXpX9u6ONOik2TyEFSD0wa5Lxr4mbwF4WttPR\/OvmXG4nJpooo\/EnUYZBa6NZ48m3wGK+vFcP8StVLSWok3b1XADdOlWPB9ynibV0UMfMzufd+dO+J+n\/2vrkUNmFCwjDEfStUrIzbu7C\/C28e8SRZXO9PetbS9LOv\/EuNWVvJtzkk9OlXPhF4cisnunmO98Dp0rr\/AAWsB8U3sioqbSPxpt+6Sl79zuFsFTJJ4C4\/SvEfE2gWl14iu7x1MjZ4B5Fe26jqEdtY3EvXYpr5n1PxdqN5e3K2dvhSxGSKzjc0PRvhrNFay3UbkIoxxWH4v8VWVl4pjjiBaTeBVP4WWt3c3N3LfuQWxxmqHjXTbKDxIssjKGDjrW3LdGPNabPoC1vJLqzgdOAyivEvjPpf2jxLC9xIQvPf2r2bQ7iM6PaMmCCorxb9oOSVdUs3QlQ2elZKyZrqzj7CDS7bUbcHazbq9a8Wana23hlyIwVCDjFfPunn\/iaWpdsnd3r2TxtFNN4V2wRO5KjoK2i9GYzj7yJ\/gpqkN1qtx5MIXHfFeyJcktwBjmvE\/gPpd5b3V280DxjjGRiva4raTnPHBrGTNbHzj8T\/ABBdDxhdRx42qR\/KuS026muNbtjJIeW7Gu28aeDLy\/8AFt5OZkVGIxzUvhnwZbW+qQG4dnkB7HIqkwaVi\/8AEP5vC75OflFTfs6I5tL5QpxxXb+KNHsm0cq8W8YHBFWPhVZwWsVwLeFYwcdBinUZFJe7Y6OaxkntJoyMblI5+lfPF14Gjh1edrmUlS5OAa+oX4R+wwa8K8T6lp9tqc\/2i4QFT0BrOLNSTwRpNhY6upt4Bz3IrofHEJWGN44wMegrivDvjbT\/AO24reBCzE9cVsfE3xTJbaUrQQ5JHcVqloZS+NHovw7uGl0BVbOVrd1QodNuAzADaa8q+Cms32paTc+cu3GMYr0G9t5p7C5QsfmQ\/wAqya1NWzxS81XTkmkVrlMhj\/F71p+Etb046rGBcKWPbNeYaj4YlXU7kGQklz396m8K6FND4jt8vwD61oosiUlZnsHxG1jT4tMRpXyPrWz8IfENnqGjyxwOT5eK4j4iaB9o0Mbj0FWfgJpS2hvUDEg44p1Ik0pLlPa3vIfLbnsa+b\/Ft\/qdv47uxtPl\/wAH5V9BLar0JrxH4tXR07xZbSKimJsgtj2qErF3LPwW1Jr\/AMQXSaqgSYH92GHWu\/a716Lxebd7VZNIPBbaT2rwGbxFPp2srcQr5ZUggrwTXqen\/EHW7qFDbWyywMvD7ST0qJQbeg+a25vR3baV8RRZWuPJnHKjtxXXzrcCUOGOa8G8O6\/qkvj5Lq9tpOWwWK9K98mS4nUOgIGARVWtuJtngHxd0CUeKpLj7W0W\/nG7HauN8OX2p6drERicSoGxknNeifHuzunvLW6hSVgcg7RXl+naZrXmI1vFIpJyCwNVdBZ2PWfGep6g2iBza79oB+7Wj8FvGKTRTWNwixSDGARjNP8ADGnXetaT5GozosgGGANZbeGtO8MaukwvCJA2RlqqdnqZ0217rPZ\/7TQqwMZzg9q8E8WWU0Gtz3FxYTGJmyrBOK9+0uS1utPhnQowYdaoeNI7VvD07uI\/kHBPaskzY8P0jU7+xuVmsrFgB\/eSu2sGvPE9oWuESPaOmMVyB1+LDKk0eBkcGui+Hmqi4NyBKuBjvWkexnUWlzmJLLXtG8TxRpqDC13\/AOrDnFe6iyd4InDDJUfyrw\/xdfufF0MaPn5x0r3q1ZvsduOfuj+VRLRlp3SPE\/2gtNuZIbGSNAWGea8OntLpCoaJs5HQV9JfG8uYbJUPPNeXNACkbMuWyM5o6DRtp5o8DbXRhhO9ZP7PxA8T3Q7k16pa2MU\/hRY3jXBTniud+EukW1n4pnKqBuPGKupsjKl1PSplOyUA9Vb+VfJfiXfH4hvxnkNX2VPpqHfgkfKf5V8lePdHmg8SX7IQV3VCNUdJ8KbkLp12z9lpnwvjjvviZLJgYVj\/ACqL4cHZot9uUghetP8Agem\/xzdvnoxq5P3UZxXvs+h3tgRKy9dh\/lXyR4nN1F4r1BkJPzV9ZJI4WXB\/hP8AKvk\/xNemPxTqAYZ+eo0LVz0D4SayXtbu3uY+duOlbXwkuYYfH19ArhSx4Fcv8JLiCa9uVfAyKm0mP7F8WVaCTaHbsfarkvcIi\/faPozWrOO90q6hkQMGU8EV8l+KNFg+0SRwrskVzkdO9fUz3NzFFJnkbD\/KvljxDrQbxHerKu3D1mjRHc6fpc5+HUkSDzCFPC8muB8Mai2jeGNXXaUmmIUevWvXvh5cx3XhWWJHUyFDgZrn\/Dngtda0fWo5wFuFOY\/zNXLZGcNG0ee\/D3V5dG1MCdibWckMD7163oapHYarYKflIDxfzrwbUPNsrqW0mUpLE3f616T4E14NNZyXLZyGRyfpgVLeli0tbnsfwt14appH2eQ\/vYSR+td0p4rwDwbfP4e8b3Nkx\/dOwK\/jzXvkTrJGsifdYZrNlIlFLTQaWkM+c\/FX\/I0ax\/1+Tf8AoZopPFX\/ACNGsf8AX5N\/6GaKYj6M0L\/kCaf\/ANe8f\/oIq\/VDQv8AkCaf\/wBe8f8A6CKv0CEqC9uI7S1knmYKiAkk1PXmPxX8R5sLvTLMkyKvzle1NK7sDdlc1PDGuR65Ncag2DGpIj\/DrXiXxW1NNa8UTKTlIjhQK7v4Rv5fgeWVyflD5z+NeRafbSa345ZYyShkJb8DVrcHpdna+FNMXwr4WudYlG2eRfk9a3PAOmz33hC+1TUEJnmOUJHIwayfFmojWtbsPDVgMohAk29K9ut9Mt7PQBZRgLEkXOPpVTfRGcO76nnXgPWbWGO6jB3S8jiqHw+1C4k8f6hbXJ2BiNgrB8BRiLxfqMC\/NEz\/ACntW5YTwQfEaN0x5hOGx9Kpr3biT99o9X1OFBpV0G5+U9a+WdS11LS6nit4xuDHJx719STN5yyRt\/Ep\/lXyR42s20\/xXfW5Xb82QKzTsaJX3O2+Fmsz3d9cxu2OnArM+KbyDXYCXOCw71F8I7W6fxAQkbBG7kV2PxF8IPc3dtPNKFUHJwa0veJna1Q9R8Eyeb4XsGHJ21w\/xv0K41J7FkwoGck16X4EtI7bwzZxrztHU1gfFyVIbe2aVwiDPU4rLqao8h0HwnbQXsDTkyOCPcV7Lr0McWhoEjXhR2ryJPFlhb6lBFBmRiccc11vxC1y+HhzNpGQSo6CtVsZTfvI7n4ecxzMQo6dK7LcMNyOleOfAuTUrnT7qS9dsnGM16kIpdr5Y\/dP8qya1NL2PKPFusadba3cCe5XIPIDVg6L4xsn12GC3jMmT94DNc14r0NJfFF9LdXHylumat+DYtMttdgVNpbNaxiRKSs7HoXxB8VtY6JuigLMR0xUnwW8QXWrWl28sGzGMcVkfEzU7O10iPdEGyPStj4IX0M+j3MkMW0cdqKiRNNux6I7XEiyZyBtP8q+Ydf0Ez6\/ePdTkjd0Jr6cuLtvs8xUYwh\/lXyR4lv7mXWrzMrAbz0PvURsjTV7HW+D9M0u216Ah0Lj3rsfiRNYQ6UrSBSAK8h8Fsx8UWxd2PJ6mu5+KpX+x0Gc8Vsn7pjKPvpNnb\/BPULabT7r7OgAGOlejS3JMEwA\/hP8q8g\/Z+G3SLsqh5x2r1kRyNHJhTyp\/lWDZty2PlXxFq92viC+VWACtUXh\/V7s67alm71c8SeHdUm8SXzRwEKzccVHofhjVU1i3Ji4Dc8VSbG0rHo3xAv7geG3ZTztFV\/2fb2ea9vVkbPTvWv4u8O3114ekQKB8o5NN+B\/hq40m5ubi6b5GxjFVUZlSS5T1Lc4DHceATXjfiiyGvxX816zRi2YFT0zzXqfjDUG0nw\/c3ECjzCMKWrynwWlzfR6pNqEqTRgbvLBzUJGidjmL2PRniinYSvjjjB6V3Hw51y0+zyWtvavtTpuWuFOr2C6dMwtR+7YjG33rX+HniO3bWGjSDbu9q0ilcipdx2NDxr4in0nWl+zWA2lhyEr2fw1q02o+HrW58vazryMV4h8T9YSGSF\/Kzk+leo\/CbVhf+DYXAwVzx+NTNK44NuI\/wAfJJP4XujHbxtNGMqWFfPMl3rs2QHEfJA2kivpLxFeZ0bUF25IWvl258QTidtqgAMf50lYr3uh2nw0bVf7XmS5unYNjgtTfi5p139pt5xcMoJ55rE8Ba7OfEajjmtj4v6nKba26c1orcpl73tD1b4YefL4Ltd8hYqDzmrPjuOX\/hD9Qy5+6KwvhLfuvgiAtjp\/Wp\/iZq5tvBV4TxuA\/nWOhrrc+ZkF0N+JH+8e\/vXf\/C77YkdxJufbXAQXuEJYHkmvTvhxeLFpErlTgg1cEuYmq\/dOZv7m6m8fwqHcjeK+nLa7uUhiBzwq\/wAq+a\/Dt1Ff\/EOIkfx19QJJCQvToKl7jvZI8W+O+vXVvfWSKAQM9a85Hi+YRqHhXqOgr0T46y2ra5axvt4zXm91HYlI1TbuJp8o+Y9s8O+J45\/Cse9MHYe1c38NfFNu3jVYCGBZjWrotjar4ZiwwHyHpXE+ArGEePbdozzvNXOPuoypSV2fUZu4XJAbGV\/pXzf8Ro0h12+XcCeor6Ae0XI2nsK+bvjZbTWfi2R43O1+oz7VklY2TubHw1hWfw\/fhkByOuKk+CujGLxjdsCQCxxmq3wa1JfsN3BOOMVqeD\/EVhZeO0ijcKWYg81UvhRMfjZ7HJZTRJMQM4Vv5V8eeLfMHijUC6EfP3FfbzSI2cMPnT+lfNPjLQk\/4SO9WSMFyc9KhalowfhNGTNcye1FvcOfipblWPDf0rr\/AIa6PBHdTwjK7+lUNQ8H3Wl+P4dQ3Awl60fwWM1\/Edz3aG5DKVkHHl\/0r5Z8aQ2reLNQVcD5hX1OlszRJImGR0xkfSvmL4p6NcaX4xuS8TiOYgq2OKhMtI3\/AIdxyozxQylflOBn2rsvhVeyPfanp9w2LtSMA9xXmPhO8ltddsSZNqNnqevFeg3ej3X2w67o8vlXcWC6g43irtzR0M78s9epzPx48MrZ3aavbpgSf6wCuD8Is8kxhGQpIINfTlvb6b458KSxSFXlZcMOpUivnm+0q48Ma89vcIU8t8DI6g1nubI9B8T28cQ0nW4OdwxIfpwK9c8FagL3R0BbLIK8qeNNR8EXlsjZaIKyD8cmtP4R62WukhZ\/3cvygfSpewHsYpaatOFSM+c\/FX\/Iz6x\/1+Tf+hmijxUf+Kn1j\/r8m\/8AQzRQI+jdC\/5Amn\/9e8f\/AKCKvVQ0L\/kCaf8A9e8f\/oIq9TEQX8wt7OeU\/wAKk\/pXzvot+2r63rMk43bjjn8a998RnGiXWOuw\/wAq8H+F2ny3esXSOuFeQlj9DVw0YNXjY6iaGPw98LJwPknmzgfjXl\/w7tZrD+0dSmQ\/ICQ31zXdfF7V47q7h0qyZTFBwwXvmmT2q6R4B8uVQJrrAx361UF1JqPS3cr\/AAP0n7XfXuv3a73Zv3ZP1xXffEbxB\/YHhe4k3\/vZRhBmtDwPoC6V4WtYohtJBZh+teFfGrX5NR8SfYVJFvb8Y7Gp6l2H\/DO8ebWJJifmySR65rRsn8r4mAPkh24qX4M6ELgvfTEqG6D1rqX0+3TxrF5cOZA33sVq\/hMV8bsenwWUkjK54BArx\/4l+G7RfFLXUiBi3XI9q91VgoXccYUV4h8V\/EVrF4gaKMNK69QvIrJas12KnhHZBqtuIIwgJ\/hFdJ8TLiC2tbc3Eqrz3NeeeFNQ1LUtfgS3tjFCp5JGK0\/ixYyXl5ZRTzHqMjNapaGTfvo9i8IX8b+HrQw8gjivNvj0txfyWUCuUTnPNej+DrOPT\/DtlD1KrXj3x81KYa9bwxEqq56fSs1a5pr0OO0nSrK01G0aV1Mm71r1D4g6jBa+GwVQMdoxxXh2nySPq1qZHJO7ua9V+JCu\/heMRKWbaOlbRejsYzXvK50\/wQ1GS50a5faAOMV6O1xJ5Mp6AKf5V5p8A7S4Tw\/MJIyhOOo969QksnNrMCeqn+VYtmtj5K8UXc83iG+Lytt3etTeAir+Jocncc11d74Ntzq9y9zKzbmzgGui8G+H9Os9ajMUWWHqKtbhLZmF8W0mfTrdYYXfOegrsvgRZzw+GJTJEyFscEe9bPjWCL7PCFgQ\/hXQeAF26PjYF9gKVR6k017ti9NbSvbTALglCP0r5rvPBNzPrN01xKqKXJ4NfVkpxC5Jx8prxHVrq2TUZmluI1+bu1RE02Oa8J+CILfXoJHmYkHpmvQfGnh+xfTkEqbwB3Fc\/oWt6c2uwxxzK7nsprd+IPiS3srBESN5JX4VQMk1qtjKWskb\/wAL7K2tdOlSCFEHHQV2+0BWwo6GvPvhpfXX9lPJd2zQM\/3VZcGqnxP8b33h6zjSyg3ySgjOOlYtXZqY3iSRYNZuGkkWNQecnFM0WaOeUXED+YickjmvHNY1DW9YnkmmScl+SBnFem\/Di2vB4bC+Sytg5yK1grsio+VXRR8XfEG8vNaTSbdRHBuCsehNew6YqW2nQJGoHygk+tfNuq6JqZ8YtJ5Rx5g7V9KafZXDWFvkc7B\/KlJ6jSskcb8a7iVfBDmNyp9j715v8DL7OpX9pcyFjMh2gn2NerfFfRbm98HSxRldw9frXk\/ww8NXmn+LrW4lddg3ZAPtUX0KWxzc8Mqf2tC0Lja+QMe9M+H00i+I4tyMuSe1eratFGNZ1Bfs0eOP4fasrwlbQf21EzW8ancegq1uKexjfFYH7HA4QnrXf\/AKcyeE5EOfl\/xqf4h2Vq+mJmFDx6Vt\/By1t4tFlWNFA9hTqPW5FL4bFvWlJsr8bTyn9K+StRLLdzARv989vevt3UIoRDcl0XG09vavmW9gtptSuWECBAx7e9QtTRHIeB2ceI4cow\/Ctv4tTE\/ZUwc5rb8FRQT+KSEhTCegpPikkc+uWkCxr94DpWi+Bmb1qI7T4dK0Hg6yTB+YGsX43XTQ+FEizjzP8a9a8L6TBBoljGYxgL6VzHxp0O2udHt90fAz0FYo0PlVcBAMivXvCtutv4T8w4+6agsfCNhLFuaMnHtXoWi6LZSeGGhUEAAitaejMqux498LYVufHyM2D85r6YEeCPwryb4beFbS18XpNG7Z3Hgmvd20tCeGqHoaM+YvjwCfFMQ54\/wrzdkYsnzHqK97+MngyTUNfhnSXaD6n2rgp\/h\/cRAN5ynBGOaBnTWjSR+FlwzfcrkPhY8jePLfc7Ebm716jb+HJz4X2qwLbDXC\/DPw\/fw+OIHdBsVm7VpUeiMaS1Z9DtI4cfMe1eBfHuQx+JICedwP8q+h2sZfT0r58\/aFtpItctGZTg5rO5qkQfB1YZmulYjJFZ2q6RFp\/j2KYOF\/eA9aofC2\/W110wk4ElbvxPsnWSG+hD7s5JFarWBlqqnqfRaQ+Za28qPwUHIPtXivxr0\/ULHWIL+yOUl+9XW\/CLXrvWfDaxzhzJAMZPetbx9odzrfh+aKJD9oQZSs0aapnhmh6\/rGn3kUwgBUHng16pq0t3rehi4tkQS7crXh9xc6tZyyW88UiSISDkV2Xwy8Q3XnSWF68gB+5k1pFrYiopfEd98KvGV1O8uj6umJozhD61u\/Eqzsb\/RhdXMKebF3YV4x4lurnw743tryJyInevcdSji1\/wAOsr8CaLII9cVm0lItO6TPFLjT7S4aGW2wDE38Pbmup8SXE+h29reQOzW8i7XXPtivNBFfaTLfRRyl2RuFJ5612kN3P4t8DfZ4EIvIByD35qk+gpK7TG\/CPxCumeOZ7SSbFtckEKTxXUftAadb3OkLqdoo8+LliO9eERG4sPFVjLIGjkV8MDxXv\/iqNr3wjch\/mzGD+lZdTQ4P4Z6l5l1bR3JzBcKytnp0q5pinw14nmtjwInBX6E5rg\/Dl+bXTwVOHgl4\/wC+q9F8cL51zpuqr924X5iPYUdRdD3q0mW4topkOVdRU4rk\/h1fm70COJzl4q6oGoKPnXxV\/wAjPrH\/AF+Tf+hmijxV\/wAjPrH\/AF+Tf+hmigR9G6F\/yBNP\/wCveP8A9BFXqo6F\/wAgTT\/+veP\/ANBFXqYGL4umEWjTc43DFcroOnx6J4Zu78KFlZSc1r+JpTqOpQ6fFyoPz4rgPjT4vj0jS10OwYGaQYfH8NUthHkugS3er+OCzszIZCWz04r09L2PxV44tNKj4t7TG4dulcl8MYobfT9Q1WZRlF+Un1Ndj8FNGZmv9cfJeZvlJ69a02iRvK\/Y9j1O4j03SZZWwscUeB+VfMc9ovibxG8YQFpZOoHPWu++NHjGbTLeHSIzlpc7\/UVifDuKC10+41yUgBB8m7uTxUwRcnZG1Or6Fq+maTpQ3rGCZdv0zVXTdXu9T+I6wW8W2JDyxHtXX\/DfSHuYLvXL8Fppwdm7sBmuJ8DX7SfEi6giiyqOctjpVc19CFHlPa7tvJtZpZW+6n9K+X\/EGtq+q3cojVmLEbmFfQ\/i+eSLw\/eugLNtwAK+drPw+083m3zbVLk4\/GlF9irdzuPhktwthLqM6gAjKgVj29pqnizx1GXST7Kj9xxXpemxwWXgvMMYAVepFL8K7q1nF1KpQyKf4auTsjOCV2ztobZokjiVcKgArxX4seGbrVvFQcMFjH+Fe0anqhtNOuLlEJ8sZAxXgeo+KdW1O+muWWNBuOM1nFNmjaRW0XwJDFqduZpGZgc4zXrHifT4I9FVFhBwo6iuJ8GXF7fX\/wBolMWyP0o+IPiy5lnTTbKRBKTtIBrVJpGTd5I9I+GqhNNkAAUV1d1KkdrMzsAApya43wDp9zpPh+Nb6UtPIMnB6VH498Q2mi6JL9qkbdMCFANYtXZrc8w1nxPpdtqM5Mu9tx+6as+D\/F1vda6sdtA7H1Irz1TpxleQW8kzMxP3c16Z8OdFMMDaktnsLDKgrWsVqRN2QvxU8R6hb28C2kHzNnnFdn8Jbq\/uPCqzXg2u3T864O+tNY8T+JI7eVI4rYN7g17PpejLp9lFaxMQiCpm1cIJpEGu3f2TSLmaeYINpAOcV8v3dr9ou5pGluJizngHI61798R7YSRw2zO\/lnqAetcitna28X7q3iXGOSKUSyh8PvBZij\/tN4cSYJQOOlS6X4fub\/xjDPqU4eNG+WMHj8q9H0i5iGjpmRQAp71wVl4gsbfxVHGbhSxfHWrlexnDWTZ7OtrCgUBQAABiuK+J0EAt7d3hRiM9RXZG9h2qc8EA1wHxe1m2stGimkDEDPSsVc1OId1VCUhRV9hXZ+B5t+mOMAYrxu48dW4UqkRIx6V2fw28XC6splSHlfatY6szqfCWNfkZfETBc53CvZ9LYtp9uST92vmjxx4untPEmEhXlhzivc\/C2ty3WgWc20fMtTNalR+FGl43Uv4buOteZeEUEeqRSMSQNxrsfHep3I8J37IoyoGK+efCfivVJPEVrCf9WxYGpSKOt1rxjAPEWoKEbCYB4rL8N+LrSTWoVUMMsap61YQHXdQfkbgCfyrG8MaVC3iC3EZ\/iNWosmUlY9W+IviS1XSF2ls4ro\/gbrFvc6POQx4xmvPfiToy\/wBkJg9q6z9n7SxFolzk5zinUWpFKS5T0XxBrNtDDdBmIAU\/yr5p1PxDYDzhExyWP869w8b2gC3nzfw\/0r5avrMJcOoOTuP86i1jRNM9G+FOowHVrmZsnpil8X6nazeL4MsRhxTPhDopkNw54PFN8ZeG2HiRZc4G4GtbPkMuZe0PpfSLq3OmWpDcbB\/KsD4oXFqvh0zTMAi96v8Ahy0V9Cs2LD7uKo\/ELRY9R8IXcLHoKySNOY8cj8T6ZDEdspJx0Bro\/BHiK0vdNuVUkADvXlg0WyhYxvJk896674YaUs4vEQ\/uwOtaxTuZ1JJxN\/wbrNlH4rRDMgbccc17wbiLj5h0FfKLaNHpfi37VNMURHyTniveIPGPh6SOLZdhjtAJDD0rOUdTRSutCl8WdTsrCK2uLhuDnpXmk\/jTS3X7x46c11XxfutF1Pw\/EUuo3ZegDAmvFGttPkk2IyhfWmo6BzLqe++F9cs9S0AtBKPunqaxPAN0r+NNivnDHgVh\/DyXSrTS5oZrqOPI4y2KwdDvk0j4mJLBeIbQty27jpVTXumdN+8z6tbNeD\/HG2e78R2iBNyjOeK9Bn8d6QkiqdQhPA6PXmHxS8TRTaxbTWE9vKpzk5zis4o2uV\/DPh60tZobt4QrqeSRXqGq2GlX2jtvSFhtyCa8E1LVbya3Ja\/jjX+7G+K7Dw\/qsP8Awi265vgWCnhn5rWETGo+p1fw21nT7bW2sLeSEBjjCmvWVePfjctfHXw7m3ePvOSfbCrEkk8V73d+JoIi0i3A2KOTu9qxa1NjlPicbS08Vupii+b29q57Sbu0i1u2IijBJ6gV514\/8WT6v4ouLmKUmNThear+GdXuW1WGaUFo0NNSBrQ9g+MVjaz2dpIo2uCDkfhXpHgK3kbwnYMTvG0jmvCPG\/i2DVBa2sTfMpAOa+hPAubfwpp8ZPzFadR6k001HU8Y+L2kf2B4jivociK5zuU9Kb8LPEVrZ64LG6jCs54YDiui\/aCuI2nsYJQDya8\/s9IjGuafcwS4duozQmOUbo6P9oDw\/BYXFnrenqPKdgW29B0rrNNuGvvC4J5Dxf0rlviVJe\/2NJpl2N8LAGNvTHNavwvlkv8AwxHHglkVgamasxxfMrnjelRlrzUbXoQ+R+deqRb9a+GaPGCZrU\/lzXnsdr\/Z\/wAQ54J+FdiCK9V+G4WC41jQpQNroCmfpmk9rgt7Gv8ACO\/Jdo3b74Ax9K9VFeD+AZjYeITBIdpRzwfrXukDh4lYdCKh7lLY+efFX\/Iz6v8A9fk3\/oZoo8U\/8jPq\/wD1+Tf+hmigR9HaF\/yBNP8A+veP\/wBBFXj0P0oopiOM07\/kaLr6f0r53+Ln\/I7Xf1\/pRRVLcZraD\/yTe6\/D+deufBz\/AJEq2+p\/nRRWstjJdTyL48f8jj\/n0rQsv+SdQf7w\/nRRSiVLoe7+EP8AkUIf+uR\/lXjnww\/5KNq3+\/RRULqW9j1rxH\/yA7r6V4vefeT\/AHv60UU4knfXP\/IhSf7lc18BOupf739aKKuZEOp6lr3\/ACLt5\/u187XP3JPqaKKIbMUtzrfhh\/x43FcZq\/8AyUSP\/roKKKt7Ch8bPpf\/AJd4P9wfyryb46\/8e9j+NFFYo1Rwehfw\/hXvfhn\/AJF+P\/dNFFXEioY+h\/8AIyR\/U16aeooorOW5aOD+JH+vg\/GvO9X\/ANUaKKqOwPc3dF\/5AQ\/3TXii\/wDI9Rf9df60UVpL4UZU\/iZ9UJ\/x7w\/7g\/lXnPxx\/wCRXT\/PeiisjRbnz2elel\/CH\/UXP4UUVcNxVfgZifEn\/kY1\/wB4V734E\/5FSx\/3aKKU\/iFH4ET+Mv8AkVNQ\/wB2vnLwf\/yMlt\/vNRRQhmrrX\/IW1H6D+VZvgn\/kYLf\/AHjRRVrcl7HoXxI\/5A6fSum+A3\/IFuPwoop1DOn8JqePPuXv+7XzDP8A8fr\/AO8aKKzNYnrHwj6z\/hUvj7\/kKp9RRRWy+Ew+2eweEP8AkWbL6VP4j\/5F6+\/3aKKxNz5du\/vSfVv512fwe\/49rmiitI\/ERV+EofEj7s1Y\/gj\/AI8JaKKmpuXR+Es+Jf8Ajyb6V5+v+s\/GiipNJGxpP3zVa8\/4\/wAUUU3sStzfsP8Aj2Wo9Z\/1H4UUVBZydx9ytqz\/AOQK30ooqo7mUtjP8Gf8hKX612Wp\/wDINm+lFFSjQ8fl\/wBa3+8a6fw7\/qD9KKKUdwlsUB\/yHYv98fzr7J8K\/wDIKsv9wfyoopPcfQ8p\/aC\/5Dlj9a5rTf8AkN6d9aKKpA9juPiL\/qI\/9z+lL8E\/+QbeUUVVUyo\/CeZ+Lv8Akpb\/APXQV6T4Y\/5KIn\/XP\/2Wiio+yzT7SMm2\/wCR4uP9+veNL\/48YvpRRUS3KWx8\/wDin\/kZ9X\/6\/Jv\/AEM0UUUhH\/\/Z"
        }
    ]
}