{
    "_links": {
        "self": {
            "href": "http:\/\/default\/file\/88?_format=hal_json"
        },
        "type": {
            "href": "http:\/\/drupal.org\/rest\/type\/file\/image"
        },
        "http:\/\/drupal.org\/rest\/relation\/file\/image\/uid": [
            {
                "href": "http:\/\/default\/user\/1?_format=hal_json"
            }
        ]
    },
    "fid": [
        {
            "value": 88
        }
    ],
    "uuid": [
        {
            "value": "8a8b5068-bdf1-4c36-a761-f004e69d6774"
        }
    ],
    "langcode": [
        {
            "value": "en"
        }
    ],
    "type": [
        {
            "target_id": "image"
        }
    ],
    "_embedded": {
        "http:\/\/drupal.org\/rest\/relation\/file\/image\/uid": [
            {
                "_links": {
                    "self": {
                        "href": "http:\/\/default\/user\/1?_format=hal_json"
                    },
                    "type": {
                        "href": "http:\/\/drupal.org\/rest\/type\/user\/user"
                    }
                },
                "uuid": [
                    {
                        "value": "e293b5c8-f55c-4881-a86a-864c8e6aec85"
                    }
                ]
            }
        ]
    },
    "filename": [
        {
            "value": "Man with glasses.jpeg"
        }
    ],
    "uri": [
        {
            "value": "public:\/\/2019-07\/Man with glasses.jpeg",
            "url": "\/sites\/default\/files\/2019-07\/Man%20with%20glasses.jpeg"
        }
    ],
    "filemime": [
        {
            "value": "image\/jpeg"
        }
    ],
    "filesize": [
        {
            "value": 26108
        }
    ],
    "status": [
        {
            "value": true
        }
    ],
    "created": [
        {
            "value": "2019-07-17T02:51:13+00:00",
            "format": "Y-m-d\\TH:i:sP"
        }
    ],
    "changed": [
        {
            "value": "2019-07-17T02:51:21+00:00",
            "format": "Y-m-d\\TH:i:sP"
        }
    ],
    "data": [
        {
            "value": "\/9j\/4AAQSkZJRgABAQEAYABgAAD\/2wBDAAYEBQYFBAYGBQYHBwYIChAKCgkJChQODwwQFxQYGBcUFhYaHSUfGhsjHBYWICwgIyYnKSopGR8tMC0oMCUoKSj\/2wBDAQcHBwoIChMKChMoGhYaKCgoKCgoKCgoKCgoKCgoKCgoKCgoKCgoKCgoKCgoKCgoKCgoKCgoKCgoKCgoKCgoKCj\/wAARCAJBAkIDASIAAhEBAxEB\/8QAHwAAAQUBAQEBAQEAAAAAAAAAAAECAwQFBgcICQoL\/8QAtRAAAgEDAwIEAwUFBAQAAAF9AQIDAAQRBRIhMUEGE1FhByJxFDKBkaEII0KxwRVS0fAkM2JyggkKFhcYGRolJicoKSo0NTY3ODk6Q0RFRkdISUpTVFVWV1hZWmNkZWZnaGlqc3R1dnd4eXqDhIWGh4iJipKTlJWWl5iZmqKjpKWmp6ipqrKztLW2t7i5usLDxMXGx8jJytLT1NXW19jZ2uHi4+Tl5ufo6erx8vP09fb3+Pn6\/8QAHwEAAwEBAQEBAQEBAQAAAAAAAAECAwQFBgcICQoL\/8QAtREAAgECBAQDBAcFBAQAAQJ3AAECAxEEBSExBhJBUQdhcRMiMoEIFEKRobHBCSMzUvAVYnLRChYkNOEl8RcYGRomJygpKjU2Nzg5OkNERUZHSElKU1RVVldYWVpjZGVmZ2hpanN0dXZ3eHl6goOEhYaHiImKkpOUlZaXmJmaoqOkpaanqKmqsrO0tba3uLm6wsPExcbHyMnK0tPU1dbX2Nna4uPk5ebn6Onq8vP09fb3+Pn6\/9oADAMBAAIRAxEAPwD3\/wAJ\/wDIq6N\/15Q\/+gCtWsrwn\/yKujf9eUP\/AKAK1aCgooooAKKKKACiiigAooooAKKKKACiiigAooooAKKKKACiiigAooooAKKKKACiiigAooooAKKKKACiiigAooooAKKKKACiiigAooooAKKKKACiiigAooooAKKKKACiiigAooooAKKKKACiiigAooooAKKKKACiiigAooooAKKKKACiiigAooooAKKKKAPG9e\/5Dmo\/9fMn\/oRoo17\/AJDmo\/8AXzJ\/6EaKAPT\/AAn\/AMiro3\/XlD\/6AK1ayvCf\/Iq6N\/15Q\/8AoArVoAKKKKACiiigAooooAKKKKACiiigAooooAKKKKACiiigAooooAKKKKACiiigAooooAKKKKACiiigAoopCaADNBNMLc0yWVIwS7BcetK4DzIqtgsAfShZNx+WuM1rXYzr9pb2cquXIVsHpXYxgRqBSTuO1iUGlpoNOFUIKKKKACiiigAooooAKKKKACiiigAooooAKKKKACiiigAooooAKKKKACiiigAooooAKKKKACiiigAooooAKKKKACiiigDxvXv+Q5qP\/XzJ\/wChGijXv+Q5qP8A18yf+hGigD0\/wn\/yKujf9eUP\/oArVrK8J\/8AIq6N\/wBeUP8A6AK1aACiiigAooooAKKKKACiiigAooooAKKKKACiiigAooooAKKKKACiiigAooooAKKKQ0ALSZpucmsDxL4ms9Dt3aVt8uOEXk5pXHY6HNNEik4DAmvHG8caprNysKvFYxMfvOdpxXTWuqaPpm15NbWe5A5QSggmp5huJ3xNVLq+gt\/9Y43ema4DxF8Q7a1tW8h1aRh1B4FeXaz8QLq7kxa7nkA5btQ5dhqLPaPE3jO00mPbEyyXLdFHOK8+vfH0hS489iZXUhQOgrz4373B+0XEu+Y9s1QuUuZvMJG3I4z1qXc0UUjotN1nbdR3kk\/+lCX5EB5Jr6E0bVGuNJt57nAmZR8vfNfGFubvS9Q+0XO5grblzXf6L8S9QjciTABXahbt70ldEyVz6fS7DOF6Me3erkb54PWvm7Q\/iVfWdxI5H2pyd2T8wArsdE+MMNzKVu7ZkI6kLiqUieVnsoorJ0TXLPV7VJraVTu7Z5rVzVp3JFooopiCiiigAooooAKKKKACiiigAooooAKKKKACiiigAooooAKKKKACiiigAooooAKKKKACiiigAooooAKKKKAPG9e\/5Dmo\/wDXzJ\/6EaKNe\/5Dmo\/9fMn\/AKEaKAPT\/Cf\/ACKujf8AXlD\/AOgCtWsrwn\/yKujf9eUP\/oArVoAKKKKACiiigAooooAKKKKACiiigAooooAKKKKACiiigAooooAKKKKACiiigANRyOEUsxwo6k0415v8S\/F0dlA9nbyhWx87A9Papk7DSuT+NPGsdihgspF3fxPngV494i8UzXjiSKMyhThpHGR+dcT4t8WpNOLaBy2fvNmshdaursJY2oBjXkle9Tqaqy0O1s7l766+06lKY7ZRgBTjNV7tYJbsmxLBSf8AWPVG2srqVI\/tO4Rr0UdKnkDRv+\/lgt4B2JwTQkFx+pTW8cAi815X77TnNYbTztOI4E2AjGF61cvdY01RttgnHVz61gTeJoUuiLRA8qjO7GRTFc3TZaii78BAOQWpq3t\/G225kjf02GuKv\/EerXjOWmKxg4wp4rPs9VmS4zJNIx+vFFhcyO\/n+0TbjJteM9M84qi9lcCJywBXHG2qcGrB4C8cwBxhlJqFdakRvlfcp6rmkVc2dNuZLK1ZFRt7fxGo3vZoQwRhukPOe1Qxamk0JCFQT2eqblxJlnjIPvSA7Pwtr+o6ddRxxXxCsR\/HwDX0D4E8epeSppupuousfK4PDCvkOe6kVtsfUHhlrZ0XXbi2niuDKxeEg7s9MdqV2gaTPuoP+VPBBrzb4a+ObXxJpESyzok8YwcnrXepeW2QBcRk\/wC9WidzJqxdopisCMg5HqKcDVCFooooAKKKKACiiigAooooAKKKKACiiigAooooAKKKKACiiigAooooAKKKKACiiigAooooAKKKKAPG9e\/5Dmo\/9fMn\/oRoo17\/AJDmo\/8AXzJ\/6EaKAPT\/AAn\/AMiro3\/XlD\/6AK1ayvCf\/Iq6N\/15Q\/8AoArVoAKKKKACiiigAooooAKKKKACiiigAooooAKKKKACiiigAooooAKKKKACmk0pNeYfE34iwaC7afbsPtDr+VJuw0rnR+N\/FNtoelTMsyG4IICg8ivkrxx4iutcu5I7ZpC7HcxHc10mqX9xrMbu85aRuzGuL1Iz6Q2UtmlZv41XIFZ7s1SsjN0rw5NM5l1FmijHUng10A1bStAgKW8asx6Ow5NZ1vqWp3cRV7SUx9eV61lajoV1esZHVoIh183j8qpCbtsbI8XC7cKJWTPQKakl\/szUCI7y4ulkPILHiuKFpbwTBY5QXB+9nit\/THdyYrtEKkfLJimTqWL7w1AIme1uJHUfw561V0\/TlyY1gZXIxkjrVm5glgUPb3JOD90NR9smZFJYI\/r3ouOwtzpUUcBQRnf34rn73S0iXcFdavT3V3Ddea8jtGOuTxUdzrQvPlWIkDvigVjDkgkhBxkA1Hb+ajM2TwO9XrmVHbLFvoKqTP6ZxQIUXE7ZxwfUVbsrwv8AubgkE9GqGKHzISVf8qrC2laQbTzRoF2ar3LwSrGxBU8b\/ard\/fweRHBa\/Vm9TWWuIfluQZM9hzipYhBEPukhuQD2pMaZr6Prt3p2fsdw8R\/2Tiut0rxtqqsrfa5nYerV58kQQNLtYjsBUml3ywzN5x25PSo5Srn0P4Y+K97asiXRLp0JPNe2eF\/FVjrsCtDKqy45UmvjywkW4RSnQ1u6Hq99o90JI5GVVOcqaE2huKZ9lA06uM+Hfiu38QaTF+9U3CjDDPNdkDWqdzJqwtFFFMQUUUUAFFFFABRRRQAUUUUAFFFFABRRRQAUUUUAFFFFABRRRQAUUUUAFFFFABRRRQB43r3\/ACHNR\/6+ZP8A0I0Ua9\/yHNR\/6+ZP\/QjRQB6f4T\/5FXRv+vKH\/wBAFatZXhP\/AJFXRv8Aryh\/9AFatABRRRQAUUUUAFFFFABRRRQAUUUUAFFFFABRRRQAUUUUAFFFFABSE0prB8W6\/B4f0uS6mILAHaPek3YaIvGPiKPw9pslw\/LgfKtfHnjDV31TWrnULxz5kjnYuegrt\/G3jafxGH8yXy1ByozgV5FqKzz3LMQWUdGHSs3ds0Xuotxa41sSFYn61MfFpMRjnVSO3rXONbKWzJKA31qwuksCk+Ukj\/ip2C7Oo0\/xNuj2IyD0FWru4m1WDyZdwX1WuNv7NYbiKSDKxMO3Y10uhmVMF3+XHGT1pgZd14dQZIyD2qOaKe3tUgcnbnhh1Fd\/aWYvoycBXXqDWN4jsS9tsXCupzx6UxM5Wz3217GJZd0THGSa3b7RZCyzRHdGwyCKzTYbkVmDEAY49a6jSbpmsktpFIUcAnrSQji9WEkTLE6Ns71GLVIrcuAVz2rtbyzW5kCtGCoP3sVzmrIHmaFAcLxx3oGc9IigZUZpFhAXLrx71qxGCO3cyKNy8AVmMXut3O0DkAUARl1iPyDA9qY\/mONyEKBSNbShN3YVGQ\/Yn6UCJFIxukbLU5ZRuwFz7movJJI3E5NOa2lUggmgLCm4kjbaS2D69Km2R3IHynPqKbbxeZIIrjgHo3vU0cTWtx5bjjs3rSGa+hvNZOqMS8TdPUV2Wx5LYMmCO+a5WFSY1GME9GHSug0e\/Ux+RP8AKw\/WgaZe8Ka9d+HtXE1pIwUnlc8V9O+APGMHiO0COyrdKOV9a+Sr9o4dSTnarc57V0ng\/wATvoPiCGdXwmQDg8EUr2Y2rn2IDS1maDqkOr6bDd27qwdQTg9DWkDWiMRaKKKYBRRRQAUUUUAFFFFABRRRQAUUUUAFFFFABRRRQAUUUUAFFFFABRRRQAUUUUAeN69\/yHNR\/wCvmT\/0I0Ua9\/yHNR\/6+ZP\/AEI0UAen+E\/+RV0b\/ryh\/wDQBWrWV4T\/AORV0b\/ryh\/9AFatABRRRQAUUUUAFFFFABRRRQAUUUUAFFFFABRRRQAUUUUAFFFIaAIrieOCMySsEQdSa+c\/jL4p+26j9milzbqccHg16\/8AE7URYeH3yeX4r5Z8Sy+c4lcgqT071lN9DWC6mdrdnFc+W8cxjXHIBxWcI2h\/dxtuhYYz3zW81tFLaKZPlyOKySmJfLX+HpSTK5TGl04vvLoSc8ECreh28scxjm\/1LcYNdSdJnRYJY1DxsAW9jWinh9ptkievSncaiYc2i5Q2+Mo\/KN6H0rQ0XQnktHt5gyspwG966uLRria3SCKMmRfm6c112kaDL9mKzx4fZwcd6TmkP2bPOtKcWF6bO7yTt+V\/WsnxLBIbpWtiXDHGOtd1NpEZ1kR3IAk+6CauaX4dEmsbJYyArZBI4IonVSVhwpX1ZzXhrwxJcKkkseYwMkY711Z8EISJYkwGHTFekaJoS2wYBB5ZrbGnpswABUKTeoOKR88+INAns4nMUbccHAri5rOLLBQDMV5r6xu9Ft7iFo3RTuGDxXgfjLws+la+5gBMWd\/FHteX4hqnzbHmmn+F7m9nkBRiC3HFXLrwhcWWS8ZAx1xXu\/g3SLeaySZVUk9fY10t7oFrd2+ySNT+FQqkty3TitD5Qv8ATnjiwqHHfisZrJi2Avz+lfSOu+CBO+yFAqDviucPgeOEsoj3SeuKHXBUE9jxW3sWMwWRSDW7a6ePuPHwe+K9HPg794CUBxznFTjw8FGNv50vaj9ieRapphRDsHKnIIotmiubQ29yuJQPleuy1izWK7eJl+lcfe27xStsU\/Kc1rGZlOFhmjTsjyWlzyAfkatNoWZtyn5lrnrmfyp4pCO46VuxXQkClDwR2rQyI7otMg8z7yHioBIXA5zirUv7yIsp+ZTyPas2UFSZI\/qRQ0NM9j+D3i7UNJuYopHaWykcIcnO2vqC2mWeGOVfuuMiviL4f6ukGp20Uz4gaYFgT0r7T0h43021aA5iMY2n2pxZnJGgKKQUtWSFFFFABRRRQAUUUUAFFFFABRRRQAUUUUAFFFFABRRRQAUUUUAFFFFABRRRQB43r3\/Ic1H\/AK+ZP\/QjRRr3\/Ic1H\/r5k\/8AQjRQB6f4T\/5FXRv+vKH\/ANAFatZXhP8A5FXRv+vKH\/0AVq0AFFFFABRRRQAUUUUAFFFFABRRRQAUUUUAFFFFABRRRQAVDcSrDE8rnCIMmpTXK\/ELUhYaBMobEkoKgfWk3YaV2eR\/EPxTJr2vCziz9kjOCB3ryrU4RLrrJ1hj5K10F5JLa38cpXLOcE0q6ZHPdySK37yXg1nY28iO90+KS2hdD8gUNWFp+nSXOpHYuRuwPpXV+IYW07R0hHLt8oIrc8DaUhW2QqDK+CSe1TJpbmkU2NtrIWlvHBIMlz0rYOllLyzSIffxmtLWdEk+3xKA2AwwRXdabokZjt5JVHmIAc1g5uTtE1UVBXZT\/sAQLb3MCgOuA49RW9b2sTDeUHPPSrxAIxjj0oVQowBxVqNjFybOB8Y+FDc3SXdr98Hp71s6PpYNrEbhAJlA+bHWulYBhg8ijAHQUvZ63K9o+WwyKMIgHanEccUuKXHFaWMyBsjmsTUdHtr12adAxPfFbriqzjJxWclfc0i2tjnLDRTpkj\/ZyDExzt9K10iDLkjFWCMUmalKxTbZXkgVlPFZ09jFtZtozWuwJHFVZxxzSYRZz8lkiqcDrWJqFsIVZwv0rrJgOazbuNXUhhmsmaxZ5RqFohkluJgC4JwK5d7HzBMZU2l8kDHavUNR0dDOXHTOcdqxL3SS0pcDimpMpxR4prunmCQkg7e1ZltcPbyBSTg8ivS\/E+leYGBHQZrz2+tcN6beK66cro46kbMsXFwYWSVT8rjBFRGRkYk\/cbkVTLmWEoeq8iiCfzFMTnkdM1qZsmina2uldPu5zmvrb4BeK11jQ\/sU0haaLpuPYV8hwuJQ0b8Fe9esfs\/ahJaeLorfcQr8fXml1uS9UfYK0tIOtLWhAUUUUAFFFFABRRRQAUUUUAFFFFABRRRQAUUUUAFFFFABRRRQAUUUUAFFFFAHjevf8hzUf+vmT\/0I0Ua9\/wAhzUf+vmT\/ANCNFAHp\/hP\/AJFXRv8Aryh\/9AFatZXhP\/kVdG\/68of\/AEAVq0AFFFFABRRRQAUUUUAFFFFABRRRQAUUUUAFFFFABRRQaAGk815R8Rbv7Xq6wt9yMdPevVu9eIfEC+WHxDKqDkg8mpZcNzh\/FCH7TAsKA\/MDxTbKBoroGQ4JOfpWxIkaxC4lGSBkVmC9We3mYAB1JIpW6lplLxLeeffw233gAD+NenfDzSmKJOw5AwK8n8ORf2nq\/wA3zMHxX0j4fskstPiUDB2jNcsnzSOrSES+LaJ8F0BI9RVpOAAOgqIdakU81aMWSUAZoFOFUkQIFo20\/wClJiqsK43FGOKU0h4oAikFVmHNWHyc1XfjrUSLiRvyabilNNY44qCxp4qtcHrVlmwDVSY1LQ0Z8h5NU7jGzirk\/rVGfgGsmaoyb4ZHFZjAMCK07r71ZlxwT2qDToc14gtVeN9o5xXkutQBb3Y3Ga9qvwrQtu615X4tgTzC69RW9F2ZhVV0cTcoba5\/2Sap3Q2Th06HnNXrubzkKuOR3qtLHutQe4rsOQdbJuLMO9d38Kbs2\/iqxYcMJFXj61weltuZlPSun8BXa2Hi6yeXlPNX+dJiR94W0hkgjc9WXNT1R06YTWNtIn3XQEVdWrRItFFFMQUUUUAFFFFABRRRQAUUUUAFFFFABRRRQAUUUUAFFFFABRRRQAUUUUAeN69\/yHNR\/wCvmT\/0I0Ua9\/yHNR\/6+ZP\/AEI0UAen+E\/+RV0b\/ryh\/wDQBWrWV4T\/AORV0b\/ryh\/9AFatABRRRQAUUUUAFFFFABRRRQAUUUUAFFFFABRRRQAUUUUAQ3DFYZGHUCvm\/wAe3e\/VZfMOHMhANfSMgDKVPQ8V8zfE+wMfiKVkb92rljUMuBl6rrAe0hs04fAyRVSSWOG2ABwx4rC+c3ck+cgLhQauKhuLm2jznOGJpN6Gi3O1+FGm79aMzJlc56V72h4wK4HwHZxWVmrBQGI613UB4B9a57WZs3cmHWpkNRDrmpAaaIZKKcDUYNOFaIlkgNBNJnApCaokAc0jU3PNBNADHzg1Awz1qw+ahIPNQy0QOPSoyM9amcGo9tQy0Qy9KqyAkc1dcAiq8q8VDKRmzKazrritS5yFPNZVxk1lI0iUJ8EZxWRqHBBBrVlbG4Gse7OSag0RlX+TAxNeXeKWwzivTtQk\/csteYeK0JZiK1p7mVTY4mfDZx1FNT54HUdcVXuHKT59DyKkLFfmj4DDmu1HExLJQAQOGzWnZyNBf206j5omDn3xWXnYwY1ct5tzkHoR1oYkfdvgDU49W8KafcRdREqsPfFdOted\/A8qfA1ts7YB\/KvRFqo7EsWiiiqEFFFFABRRRQAUUUUAFFFFABRRRQAUUUUAFFFFABRRRQAUUUUAFFFFAHjevf8AIc1H\/r5k\/wDQjRRr3\/Ic1H\/r5k\/9CNFAHp\/hP\/kVdG\/68of\/AEAVq1leE\/8AkVdG\/wCvKH\/0AVq0AFFFFABRRRQAUUUUAFFFFABRRRQAUUUUAFFFFABRRRQAxvvV87fEZA3iS6iJyTkgfjX0SetfOXxBJj8dSbujf41DLicPqVuIFjCqcE81NpoWKdHcjrxV7UyDJIrD5RzXNteBZwSflU4pSdkaR1Z7x4QnM0Sc\/IBXeQHKgjpXlfw8ujcQR7enpXqcPEYrnNmiz\/KnCmIeKeDTRLHg1IpqECpRVoljxQaB0oAzVEjDSZzSuKaBQMGzTMc0pam87qQ0NdRUWKmcCombFS0NMicVXn6VM7E1UuG+UnNS0WmUrgcHNZkwIBq7cSjaSzAVT82N+N6n8azlEtOxQdQM8c1lXabSxxW7deXjIYVj3ZDhthBxWLVjWLucpqOQzZ6VwPimNtrMo4ru9WDeYRXN6vbiSzcN1qoOzJmro8e1DBlORg0iv+6UVb161aGUnHBNZ8JPl56gGu6LujhkrFhmDRHd1BqeL5GjYdCBVZAHRsHnrU5bAj56UyUfZ\/wEmWXwUir2bn8q9MFeGfsxXjTaHcxMxO1zxXuS9KqOxL3HUUUVQgooooAKKKKACiiigAooooAKKKKACiiigAooooAKKKKACiiigAooooA8b17\/AJDmo\/8AXzJ\/6EaKNe\/5Dmo\/9fMn\/oRooA9P8J\/8iro3\/XlD\/wCgCtWsrwn\/AMiro3\/XlD\/6AK1aACiiigAooooAKKKKACiiigAooooAKKKKACiiigAoNFFADD1FeBfGSz+x+JIrjj5wP51763UV4n8cVWXUbcA8qoNSyonl2q3AdD2ytcTM+64CZ\/irpNUmSOCTJ5ri7aVp9RVF\/ias5s2gj6H+FwVbWNUBJxya9ZjPyLXBfDXShZ6PDK33mUV3iMK54m8ywKlHvVOadIU3MQMVkz6+gJ5GBVohnR7gB1pVkB6Vwt54xtYkb58leuKwh8R47mXyLPaZBWiRmz1sHIo3Yryj\/hYD20ypckAmtzTvHFrdSBHO3PQmncOVncmT6Um8ZrEXU0lPyN15FWI7pSvzHDUXHyl2VwDUYlHrWdPc5fBOKhaXcdobntUcxooaGlJchX2k1TubzyiS33etZN5O4bdnBHXNZV9q6SWsi7vnWle4cqRt32sRRQ7w2OK4TXPiFDZs0afOR6VyXivxcIY2t4csSME15ZqN3dXMpKg5Y1SXclu2x6TqfxSUsVRW96zl+ISzDCyMjH3rgINMmkyNhLN3xUp8H6i\/zwITn2p2iK8j0SDxfLIP9eCPc1ND4nZJQ0rHn0rz6PwprFsoYq5745pXttSgwbhCAPUVnKKLUmj0+bVLbUItyHbIOxrMuyHi2561wkeoPbnJfn61v6ZqQuFAc8msnCxop3MLxTY74iQOlcVAMb0btXq9\/a+fbueteZarAbW9bIwCa2pS6GNVdSlASZyB0q2y7rhB2AqvEv7xioq3AOCT94Vsc6Poz9li+Tfe2rEB+SBX0ctfHPwCupbbxhE0ZISTCsB9a+xhg8joaqImOoooqiQooooAKKKKACiiigAooooAKKKKACiiigAooooAKKKKACiiigAooooA8b17\/kOaj\/18yf8AoRoo17\/kOaj\/ANfMn\/oRooA9P8J\/8iro3\/XlD\/6AK1ayvCf\/ACKujf8AXlD\/AOgCtWgAooooAKKKKACiiigAooooAKKKKACiiigAooooAKKKKAGt1FeFfHaTytRjx94pXup614h8fI0EaygAygcVMio7nz\/q12Sjqwwcd6Z8OtPOpeJIY2GV3A\/rVfUZftEO4jDDgiu1+BFmG8T+ZKNqheM\/Wspq6N4OzPpDTbZbWwiiQYCqBTrq8js4WklYDHrReX9lZIWurmKJe25sV534r1u0u2zHfR+RnGQ3WsGn0N1Z7l\/VvEou5vKUkRj061z93qFzdboLaMgHjcRS6YtszeZbJJOT7ZretYb1smOzSMH++uK0i0iZanGS+G75wS8uA3XmqlnoUWlSvKQxlHIIrvriFl4ubuBG\/u7uazLyzhK5acsPUGhz8wUfI4W9spdRuGdmx\/SrFjBLaMsczhlHRgea0bt7OBiA7D1OaoSmGYZgmyfTNTzW3ZfI3sjttK1CUrGmTwOtdVaXhlChjyK8Pll1e0k32sm4DopJrT0fx9PZzCLUYijjrkUnND9mz2F5S83GTio5Ztr7gTkVz2n+NNMvYh5EsSv3DGsTxF8R7DTQ0Yj82T\/ZGRQ3YIpvodXe34YNvwO2a4HX74hpUg3AsCM9q4PW\/ideXE5EUAVTwoxViHWpX08Pdf66QZ+gpra7Ja10Kd1akuzTEFs1FFaSNygTHvUN1qQwecmiyMtx88sjRQD3wTTYKJs2jSxYCLCzVpLf6jGoAVFFZul6kz3BtdGsXuZlGWZlzisrUfGF5HdyW8ttEHjOGAFHs5WuLnje1zp21e7Y7WmiB9CayNTkvbjPMbqayH1+O4QfabXZn+JVp9rfKkq+XIXhb3zilytBdPYz72J4VLSRBvoKp2errDcJGkbEscYxzXSaqBIqmLr1+tRrokUd3pupRqOZVSRT0HvTWxm9GbmhGTUbyOxaCaGSQZBkGAav6t8JJNRuMvdohHUBqtDUmTxPZxuIsbgEK9cZr0Syt54b2WS4bKPkjPaintcirJ7HgnjL4cTeFLRLv7QJYycYzmuJZwASOte8\/HO8gg0CKMyo8rMAEB5rxfTdMN3JFkHkDNauXciEebY9b\/Z2sLWXVBPLJtk7Bj1r6tTgAV8k+Gbu38PyW5HyyKQRtr6j8NagNS0e2uQclkGaVKak2i61CVNKT2ZrUUCitznCiiigAooooAKKKKACiiigAooooAKKKKACiiigAooooAKKKKACiiigDxvXv+Q5qP8A18yf+hGijXv+Q5qP\/XzJ\/wChGigD0\/wn\/wAiro3\/AF5Q\/wDoArVrK8J\/8iro3\/XlD\/6AK1aACiiigAooooAKKKKACiiigAooooAKKKKACiiigAooooAaxryj416eJ7F7hFZ2WPG1ea9VkOFY+grkJbu01K9mtpQGYZBVqyqStob0KfO2+iPmD4baTFqXisWuoxHy2PRh719BaloWk6TptwljbJBcLEdrouDUfivRtM8PWC6va26LNG+SVHOKrw+MtD1zTnQOy3bw9GI61KejTHUirpwPJtfiuLrRpWvryVwHKghuRTvhn4TM1tcXWqSNJApPlIxzn0NZGr3klv8AbLa9Ijh80sueCfpXY6DqDx6Xa+UCICoFcsWzqS01Os8ORRW8zlAqBTwB0rO8V+K5\/tP2Gwf5z9588KKJ7xbe2aWPkEdB61wVxo+sajeSTRq0UcpxnocGne7sXGNtTUg1EyTPFarJe3S8u5+ZRU2nw6jrsFy3nwW6wZyM46V1vgTQ4NHsZYpo8SSqQXI9a5LVPCOrm9u1spnSGRif3ZxkV0w5YrY56nPJtXOEk1S6\/tGSABJVV9hPWtcwSRFGdGiZuQwGAa1dN8FXds+yVBy25nYc11l7o4vLeGDaAIwBurOo4s2pKSscnYx3U7KCNxHcd60fFfh+G48NG8dAlzEeuOoxXWaHoMFq6qJCzngDNZPxYuxaaabGAjds3Nj1rBas1lLWyPNfA+hXmual5NjDJx95gOBXoWqfCq7MBfbGZAM\/NXdfBLSF0vwjHcbAJrj5y2OcEV3F6S8Z5NUqMWrszliJKXKj4c8TaVeaN4gEGow7FDfKQMA1oXLvLbq0YJUccV6h8eNF+1Wguo1zLCdxPfArz7wlJA4hjuMGGXCknsxrSLvG66ES0l6mbbWo4kmBb0UV3ngjRIb69R9T+SAfdQ\/1resdChtJV3WyyxnkNtzxXW6fYacNp+VT6GlGZbiuWx5lrOn6n4c1m8k0SMeXOCAyjoDXGW2jXb3c013FI8spJJx3NfSE8FuIyNquv51zt1aQiRiIgPTAqpVtLXM4UVvY87Xw2j6QEkUCQ8j1Fcsvhu7t7wiEkqT0r1y4haQ4AwB3qpdPaWMJO5WnPSo9r2K9klucIlpPHKkcyEkegrT1u1dPCFw6na4YlcdjitO0tpZJmnchgecVd8U25tfDsEci4NxMMA9watPqZSXQ4Pwxa3kRtb+\/k3yIAyAmuuudY1S+ZwbhkB6bT0qsYQsUUeOEUCpYAEcVnzFciPLNcF7LrZS\/uJZwH4DtnFdvpVnHBarJgZ28Vy3ibB8R\/U\/1rrwjm3tVUfLtBq5vRCor3milhprndIOQeK+qfhaCPCkAb0H8q+aVt8XUa45Y19R+BIPs\/hu0XplAf0rPDfxGejmllQp26nR0Ugpa9A8AKKKKACiiigAooooAKKKKACiiigAooooAKKKKACiiigAooooAKKKKAPG9e\/5Dmo\/9fMn\/AKEaKNe\/5Dmo\/wDXzJ\/6EaKAPT\/Cf\/Iq6N\/15Q\/+gCtWsrwn\/wAiro3\/AF5Q\/wDoArVoAKKKKACiiigAooooAKKKKACiiigAooooAKKKKACiiigBjruUj1rh9Q0owag88fDk5yK7o1SvoFcZxWVWCkdOHqum35nn\/jWOS+8Jzwv95cn9K4T4eaDbTSFnjUuq9cdK9c1e2VtKu9wz8h4rzv4Zki8vlPZ2AFZPaxru7oi8a+CbbVNPmKxgzxgsnHU1h+ACmoaTPYyqq3Vo5Rk+levSqMA4yRXnPiHQJ9E8QDX9FUtG\/FxCO\/cnFYvQ1TuOOn4+8BtB+7W\/pCrKginiKKOhxTNNubO\/xcbwrNyY2PIP0rWWya5wVlVE9jUKLKc1sTCzCrj5WHbNM2+SCCyio59KnUfJegfVqyrrSJ3Pz6gij\/fquaS2QlGMt5BqF5bxMfMlH51krcz6hL5NhC2CeXxxWnDoulQnfeXglb03Zq++u6XpcO22jUY7qOtKzesjRSjHSCuxba0TQtPe7vXDzAZRT3NeVahbXXibxJFaxgyPLKJJMc7EJ5BruLn+0\/F1wI7NGjhB++4wBXaeF\/C9n4dgJT97dv8Aflbk\/gauCT+EzlJxfvbmnpdsmn6db2cfCwoE\/Kn3L\/Kaei5bNE8Q2E1r0MNL6nm\/jq1S5t5AwypGCPavBNX0O70KZ54IXmsHbcQoyUPrX0p4ktw0TcZ9a5O2ktU3Qzxo8bcFWHFYqTizpcVKKOU+H\/jK0nSO0vJkwBgFzyPrXo8um6ffoHgu41Yj+Fq4LWPBmi3Vz9o03EE+clVwBVRdDv7eQeXcTgf7JqJNdioQk9nqd7L4cvUTNteKy+hase80zWFfbmM+\/NZ9vYaiVC\/2hcp9XqV9E1STB\/tWbj\/ppUe69jVKa3J18L6jMMz3aRg9QGxTZPCunxKTc3e5x3LUwaFe9ZdTuD9HqKXRYxxNdXL+vzU7pbEOM2QI+k6Rcb5rnz0XkRxtkn2xWbrOpSa7eLczp5dvGNsMWMYHYkVfl0uzhBMUIZ\/7zjmsiaNt7CtOdtWMHCzuyGTOeORQpyRUXzq+3nFP6MO4zQhM8\/8AFMRj1xX7V02k61D+7iYZ2riq3irTZbm9gaFcjgmi70M2sEd5D2wHFXN6IKEU5O512nRC91O12DIZxX09osQg0q1jxjagFfOPwugF5q9qGHAYGvplFCKqjoBiqw0LNsrMKvNCFPsSCikFLXYeWFFFFABRRRQAUUUUAFFFFABRRRQAUUUUAFFFFABRRRQAUUUUAFFFFAHjevf8hzUf+vmT\/wBCNFGvf8hzUf8Ar5k\/9CNFAHp\/hP8A5FXRv+vKH\/0AVq1leE\/+RV0b\/ryh\/wDQBWrQAUUUUAFFFFABRRRQAUUUUAFFFFABRRRQAUUUUAFFFFACGop\/uGpe9R3AzGaT2Kjuc9q0rR2c+BuBU8V5h4Ek2a3fqflLOxxXrUsAeQB+V7iuH1Lw8dP8SLf2hAhk4ZffNcskztTVrdToSwxioxFnqMqeoNKvzH61ZRMLzU2uF7GLc+H7KVy6K0Tn+5xVaTQmhA8u8mHturq4oc8mpPsyMw3DNP2YKpY4WfSps\/8AHzOf+BVWOjuW+d7hh9a9H+zRL\/APyphijB+6KTovuaKuuxwcOhLJwsbk+rCr1v4Uh3h7oKVHOK6a5uobZCTgYrCfWftM\/lwnI71nKEI\/FqaRnUlrFWRs2TQ2qCC1jCKOPlFW2YkVBYIpjDY5qwfvGt0tDmluSwAdKfcAeWajhGTUsxxGc1oloZt6nK60A0b59K8s1bel8VTPJ4r1fWApVuwxXnupRR\/bUYdmrlludtPY5y8stRhZZoi2D1FdJ4bvvlVbzBb3rdaGM26OQCCOQa4+5Rk1jbEfkb9KVrFp8y1PRbeOznUEohq5Hp9uV+VF\/KuMtzcwAMrEqO1dHpupb4wCcH0NOMk9yHBpaM0m06Db9xfyqjc6XA4wEA\/Cr4ugwwO9QvId3PSrdiFzI5fUdNVQ2F49a5bULDY2QOa7++kBDcDArktTkBdqzKeqOUmjGSMciqzrhMjtVy9YCQ461UnbEJIoRmyvJIHkXB5AqSP95DLG\/KkGs1GDTkg4IFWBMybFQbizc02Olueg\/CS2VNViOOBjFe\/968U+HkQTUbZk4JxkV7Z3rpobHNi3edxRRRRW5yhRRRQAUUUUAFFFFABRRRQAUUUUAFFFFABRRRQAUUUUAFFFFABRRRQB43r3\/Ic1H\/r5k\/8AQjRRr3\/Ic1H\/AK+ZP\/QjRQB6f4T\/AORV0b\/ryh\/9AFatZXhP\/kVdG\/68of8A0AVq0AFFFFABRRRQAUUUUAFFFFABRRRQAUUUUAFFFFABRRRQAnemyDKmn0hFIZkytiQVla83lxA9ea1rlAXYenNZHiD5tOLgj5etc8jqi72K1odwU+orQAwMGsnSpfNgRh6VpFuQM81BRcQgKBThIKrK2DzQzjsKu4rEzzc1nX94IkY5ApbmXaOvNcV4p1LylKIxLngAVnUnyo3o0+Z2K2t6zJcz\/Z4SWZjjArf8N6O8cIeX77cmsvwdopY\/bLoZduQDXewqEAxWdKF3zM3r1UlyQFgIRdmeRT3kCjNZ2r+YkTSwH5gOleS658R9T03UTbmzZkB67a1lPl0OeFJzV0e0pcBTmo7i7zxnivN9B8eR38YW4jaGQ\/3hitKbWtzbVPWjnYvZamh4gvFjgfLdq83utSD3QweAa0vFuq+VbEu2OK8d1bxIxldbVsH+9UcrbNVJRR6nqPiYRQiNHGQMVz8OvCS\/HzZPrXmUV\/cTz5kmY\/jW3pu4yhgeaHFocaiZ7XpWpLJGAxBzWsNmQ8X3vQV53o9wyIpY11dlfBVVi3FZtM0ujrLO5THzfe96fdTBkJBrIW7hlClSA1OaXsTVc3QztfUhvrnahGa5DU7oDJzzW3qk\/BC9q4XWbkhzk\/hQkKTsRz3QeQgHmq8858hh6VlPc\/vcqamjmLRyBu4qkjFsbBMuHOOcda1dGlVwQ6gt2rCtDtlCN90muns7REKSRmh7mtKOlz1n4VWhmujK4+6tetDrXA\/CmJBpruPvk13orqpK0ThxDvNjqKKK1MAooooAKKKKACiiigAooooAKKKKACiiigAooooAKKKKACiiigAooooA8b17\/kOaj\/18yf8AoRoo17\/kOaj\/ANfMn\/oRooA9P8J\/8iro3\/XlD\/6AK1ayvCf\/ACKujf8AXlD\/AOgCtWgAooooAKKKKACiiigAooooAKKKKACiiigAooooAKKKKACiiigDMvAVmz61iahbySwzIM7GBOK6C\/X5lNVcg8HoawnG7OqnLQ43Q5GjeSFuNpwBWvuxJWSU8jXZR2bJqzLMVc9cVk9DTqaIm5wKSSfAOOtUoW3Lkdar3lz5KEt0xScrFKN2QavqCwxOxbBArktNj+36l58\/KA8A1Q1jV\/t2oGCI\/KDyaSC\/EDiKI9O9ZfE7nRf2astz0q1uFUKsYGBxgVsLIpUc81xuj3W+NSoJbpzXQByFBH3sVtFnM9WWr6VBAQe9cPrWkQ3blvKUt1ziusijabLTZxnpTltQSyhMg07XBS5TzaXw0xXzcKuOmKyLy2v4JNkb5HY5r1qWzzEVdTiuX1OxcybFXjPWpkrFwbZ5F4tsdXu4Crv8oHY15y2j3QkIIPWvpi90wSQqhTJxjpXMX\/hZVYyYCj0NJS5SnHmPINO0t1cEglq2rUCB8MCpHrXZJokcc252UCnzaZY7wzuhpuVyVBoybWdkh3rkr3rYtr3dBlCc46Gq8kdpGCsci7fTNMEtvEuFZfwpXBpmtb6mYthY47VtW+ppMpTfhu1ec6nfDIw2MelO0Ga8vrobQwRT1qWkOMmjt9VkZIiQcmuA1ecvKxJ5FehavbNHpqvJwcV5nqbBpmK8UQFUehRHzNnpV+2BKv7LVOCEls5yM1rWMW+cIP4\/lqzEsx+FNXutNGpW1uzW6HnAOau6ZJKoVGjfd6Y5r6Q8C6alr4WtYJEVldASCOvFWh4X0gXHnCyh3Zz90VfsXumaQxajHlaMr4a2L2uhrJKpVpOQD6V19JGixoFRQqjgAdqcK3irKxxTlzNsdRRRVkBRRRQAUUUUAFFFFABRRRQAUUUUAFFFFABRRRQAUUUUAFFFFABRRRQB43r3\/Ic1H\/r5k\/8AQjRRr3\/Ic1H\/AK+ZP\/QjRQB6f4T\/AORV0b\/ryh\/9AFatZXhP\/kVdG\/68of8A0AVq0AFFFFABRRRQAUUUUAFFFFABRRRQAUUUUAFFFFABRRRQAUUUUARzRiRMGsa+t7pD+5ANbtFTKNy4TcTgNa0+e1kjuZCuW4NVpSzqDxjFdZ4shEmnbj\/Cc1xqv5iAqflArmqR5XZHRCbnqyxE5CZH41l+KfNGmStActtNXVlypI6UskYuIMfmKykro2g7O547bLNa6fc3BBacuc+1SeFbkXVwxuTt5713l9pMMIc7PlbkjFc1J4WkvVk+wv5TnlcHHNSmaaN3Z6FoxsoIQxkXOPWrzarZRHG9SfrXzd4pl8VaTK1rJ5kYXgOMgEU74cvrWvXckb3Ts0Z5+Y1paTWhapQT95n0gNag\/hxipF1uJeRiub0HwtdTDZdTOMjgg1atfBl4dSaKa4byexDVS5hONFXVzdk1q3K5crWfNq2mmQMzAmoU8DTNqJjkuH8jrndUmp\/D6EQO1tcPvA4yadpPoRzUYu1zJ1jxNptpyuGb0rg9f8XC6ZhEQq16Bp\/w1t5ofMv5mZ89Aaz\/ABB8NrHz4Ps24KCN2e9T7OT1Zca1GL5UeP3muSFsFmOemKoXt9dJEHZXAPTNeuaz4KtEuoBFEuFxniuR+JFhBYQqflRFWq5LFKrGWx5TqXiO5gchetVLfxPdyOF2ksegFRy6dda1ebbGFmX+9jivTfAfw6itNl1qYDyDkL1q2opamD55SutifwJ4YudSi+26oCqH7qGvS\/D+hwWzsyxgKParFoioixxqFXoAO1bVohgt3L4IxWF02ErnJePLpYrHYgHHFeQ6i\/7wYP3q7zx3eM0zqPuV5xlp7oKO1OC6kVH0NC2BVBgV0\/g6yN1q9uCm4bxxiuclUx7ADzivTvg9aGbWUZxnAzVpXZlJ2R79psQisIIwMbUAxVnFA44FLXVY5RMUAUtFMAooooAKKKKACiiigAooooAKKKKACiiigAooooAKKKKACiiigAooooAKKKKAPG9e\/wCQ5qP\/AF8yf+hGijXv+Q5qP\/XzJ\/6EaKAPT\/Cf\/Iq6N\/15Q\/8AoArVrK8J\/wDIq6N\/15Q\/+gCtWgAooooAKKKKACiiigAooooAKKKKACiiigAooooAKKKKACiiigAooooAq6nbi5spYz3U4rzUfLNJbJ1QkGvVK8y8VodK1oyAfJN39zWFZaXNqT1sVHODhc4FNt7ry5yrdDU0WDGzA5ZhUMMHmOSQMiuZnUhb98gA4Kmrnh6BCx2iqwg3ymM5ORxV7SM2zMrY4NTHcpvSxp6vollq1vsu4EcgcMRzXAW3gRvDWrSajoZyXPzRN0P0FenxPuUEUSrnnuK6URGbS5XsUdM1mP7IjXULRTD7y4xVy+1yz0+a2+0E\/wCkEBMepqpcrG+Q6At6kVDJbRXPlefEsnlEFMjOCKq4vYrfoaMvibS4dTSymuFSdhkbjgVbutT0+KNmkvYAAP71c1qmh6VqU63F3C0dwgwHQYNUbnw1prQsTLO5I6Mc0c7H7Gnpujei8VaMbd5PtKBFbaTuFcd42+I+n2EcZ0yKS7ctglBuAq3Z6LYraSRPaIV7Ar1rMm8NQMjKltHGmc\/KuKlzdjanhqbl1OH8Q+OdUu9RsZrC1PkZUyrt596zfEen3vi\/VI5rsm3sFXmPoSa7ybSbewTgLWXcyqO+B6VHOzq9hTjqijpul2WnRJHaxKoXuB1rftSSnNY1q3mOT\/CK1d+yPjqRWbdzCcr6I0LR8ybj0HFW9Xv1t7M84+XNUrZlSyJwd3c1w\/jTX2Fs8PRugNDRk2rnNeJ9TNzdMQ3y5xWZZook3juM1RjBnO5jnnNWEuBHn1rRKysYSld3NKGUSXA3Y2ivevgjph8qW+ZflOVWvnywImn8tesnA+tfWvw309tO8LWkb4yyBv0rSmrsxqPQ6gUtFFdBiFFFFABRRRQAUUUUAFFFFABRRRQAUUUUAFFFFABRRRQAUUUUAFFFFABRRRQAUUUUAeN69\/yHNR\/6+ZP\/AEI0Ua9\/yHNR\/wCvmT\/0I0UAen+E\/wDkVdG\/68of\/QBWrWV4T\/5FXRv+vKH\/ANAFatABRRRQAUUUUAFFFFABRRRQAUUUUAFFFFABRRRQAUUUUAFFFFABRRRQAVzXjvRzqujv5I\/fxfOmOpI7V0tB54NJq6sNOzueIaJeMzG3uTsnj+Ug1uRnrtIHrVb4jaHJp+prqVmhEb8PjsfWsvT78SR7d5571xyjZnZCXMjqUAypUjIqQQ7pxIrcHqKybV2JVWbBrXsXUPjO41CKZrW7MBgjgVOHBqC3fLFak2lD7VqiCO4j70y3YI3zdKmkJAPcelU5SrLkHB96e2qLjPSzNZvIePkLms6YRq\/ygEVjXGoeSSN2cVRl1+NFO480OojWELbM6XzolB3AVk6lqMaqyriuYm8RK5IB71Ru9TjnXhwDUOpfY6KcYp3kyHXNRB3Fm4Fc8JjO2ScCq+s3GbpUVi5Y9BVy0s2CrvHJ6VHmxVavNpEu2Y4Cr3NaRjLBQOgpNPsyvJHNXzG67sjCYxk0r6mLVild3Rs7YnIKkcivHPFN8bzUmCcgGu78V6gbaB0zxXlEsxa9Z1OcmtYrqc85dC5HJ5K\/WoZpcnPelmcdf4vSoYo2klBxke1WjNs7L4b6Y2qeIrKIqcbwxx6V9jWcAtrWKFeiKFFeA\/AXSE\/tI3TAEhOM9q+hK1p9zGe4UUUVoQFFFFABRRRQAUUUUAFFFFABRRRQAUUUUAFFFFABRRRQAUUUUAFFFFABRRRQAUUUUAeN69\/yHNR\/6+ZP\/QjRRr3\/ACHNR\/6+ZP8A0I0UAen+E\/8AkVdG\/wCvKH\/0AVq1leE\/+RV0b\/ryh\/8AQBWrQAUUUUAFFFFABRRRQAUUUUAFFFFABRRRQAUUUUAFFFFABRRRQAUUUUAFFFFAFe+tIb22eC4QOjDBBFeKeMdEn8O37SwKTbHke1e51geLbSK7s9k6hlPFZVVdXNaTs7HkWk6p5zoxcEnrk9K6K3ujDdBk5VutcdrumPpl+VhBWA8hhVmw1TMIVmJYHArmt1Oq\/Q9KspN0gZW61q43DmuU0O+RoVTIEh7tW7bTkPs3bj6iqRDLTccVWuLcSKQMgn0q8V3Lupq59OKqw0zj7zQ5DMSJG2k9M1g6voU4k3R7ioHP1r0\/y1IyRUTxxEYKilyFKoeN2vh6d5mZy\/J4FLqXha7RA0RPNetCzhWQuqgVBPEjcGk4lqojyPT\/AA7JFOJJhub3rpIdMyy7RzXUzWiZwAPrTrO2SPLms2nsaOStcz4tOS3gLyEbsVzurTkI43jYPQ11Gr3KpbOe3bNeV+IL0xpK4k49M01EycurOU8c36ynYp4AxXCISpzVzWbx57tlJyCaihgkd1AHFbJWRzyd2SW6NKp4y2cVtaXbFZVG0Ed6ZbWgiGR949a2NOi+bJqZSHGPc90+B1uFgllxjqK9brzb4LoBo8hx\/Ga9Jrel8KMKnxBRRRWhAUUUUAFFFFABRRRQAUUUUAFFFFABRRRQAUUUUAFFFFABRRRQAUUUUAFFFFABRRRQB43r3\/Ic1H\/r5k\/9CNFGvf8AIc1H\/r5k\/wDQjRQB6f4T\/wCRV0b\/AK8of\/QBWrWV4T\/5FXRv+vKH\/wBAFatABRRRQAUUUUAFFFFABRRRQAUUUUAFFFFABRRRQAUUUUAFFFFABRRRQAUUUUAFZuvLus\/xrSqhrX\/Hm1TP4WVD4kcHrGnJfWrK4yccV5te2cumXZWRDtzw1euBcrg1mappkd5AyyoCexrkWh2vU8\/sdSeOdWYttB6iu80a+RwhRshu5rhdT017IuE5T0qhp2sT6fOqsf3RPB9Kpa7Es9viuAflyKlV8cHpXGaRrccuws4Oe9dIlyJipjOQOtUSaJfGMdKilIHWobmdIk3A5+lZ1xf4UkkdKbdgWpdmkGOvPpVYtuyc4rnv7WJmYFue1PTUVMwDvx9ai5aRqSOcnJzioVuMQuRyarPcod208GsvVtVgsrRxvAcj1qepd9DH8S60QpizyDz9K8g8XarvLJE5zWt4k13c0rBgW5Ga8+kklvbliQdo71cY9TGcugW6PMwJGTnrXQ2EflphsE1TsLRlXcfyrUAwBxzSnIUIky4z7VfszhhVBOgzVu3PzCsjVI+jvg4mNAZh3f8ApXoNeKfDzxjDo1ilpcJlGbO4dq9g06\/g1C3Wa2cMpGeDXXSkmrI5KkWndluiiitTMKKKKACiiigAooooAKKKKACiiigAooooAKKKKACiiigAooooAKKKKACiiigAooooA8b17\/kOaj\/18yf+hGijXv8AkOaj\/wBfMn\/oRooA9P8ACf8AyKujf9eUP\/oArVrK8J\/8iro3\/XlD\/wCgCtWgAooooAKKKKACiiigAooooAKKKKACiiigAooooAKKKKACiiigAooooAKKKKACs\/W+bM1oVn606raMD1PSplsyobo5xBheelNZQxPNSwH5AGpzR45WuY7DA1TTknVm2jNef67orRuSoyp7elesSJuBFYmoWQkLZFTexW+55HZahc6RdFZwWhzwR2ru9J8SQFFaOUEEcjNVNX0ESKSqA\/WuQvNBubXc1szAnnjpVKaZLg1sekyeJIPLZSwz71z2oeJ0VSgbIPcVwckWpqGXcrEjBzWVc2upt8rEbfUU7IV\/I62XW3kuMhsCrFjqrSO3mSEAHjmvP1s9RRz82cDjmmpBqr7hv2j60aCuz0i48VLBE6luRwDXFa\/4ga95MnsQDVFdJuZV\/wBKmb8DU8OhxIRyWH+1SvFFe8zm5ILjULlcZWD1PeteDTI4FxxWyYo4k2Ko4NV5uOBSlO+wRp23KnlhelN+tSv0qEZJqLlWHp1q5a\/fFVIwc1ch+TDGkOxPeai1rcRAH5eMivcPhVfSpBGXY+XL0BrxXRdDn8Q6xGQpFrGcu3Y+1e06MEsp7WGHiOMhRWlKLvzGNeatynrNFRwNuhRvUVJXYcgUUUUAFFFFABRRRQAUUUUAFFFFABRRRQAUUUUAFFFFABRRRQAUUUUAFFFFABRRRQB43r3\/ACHNR\/6+ZP8A0I0Ua9\/yHNR\/6+ZP\/QjRQB6f4T\/5FXRv+vKH\/wBAFatZXhP\/AJFXRv8Aryh\/9AFatABRRRQAUUUUAFFFFABRRRQAUUUUAFFFFABRRRQAUUUUAFFFFABRRRQAUUUUAFZGuoWiDDoDWsehqu6LNGyP0NJq6sOLs7nMxDIqcYxg1NLatbyEEfJ2NJtGOK5rWOu9yrLHjkVVliBHTmtPbkVBLHg+9JoaZjvaqwIIqhcaYjKQV4roGj7EVEydjyKhxLUjhL\/w4pYvHwO+K56+0VoicE49DXqk0QIwKyNQskcEEYNQ00Wnfc8uks2RhleBVd4MPuArtr3TgM45rFnsypIxSuy0kc9LH6iqzgjpW3Pb9azpYRk8nFAMzH5J71XkHODWm8BwdtQm25z1piMx05OKrqrbsEVryQYqHyecngCi5LRBEgA5rY8O6Hca5eCKJSLdT879qk8N6Bda\/eiOJStsp+d69m03SrfSLFbe1QAActjkmtadLm1exhVqqGi3M2z06DSbJbe1UAAckdTSQOROmOoOat3XORVJfkmU+9dLWhxXuzvNI8XaVLKlhJcpHcquCrtjNdQrBlDKcg9CK+PfibNLp\/itLi3kaNmXOVOO9d18MPivLbvFY6y++InAkJyRSUmty7X2PomioLK7hvbZJ7dw8bjIINT1oSFFFFABRRRQAUUUUAFFFFABRRRQAUUUUAFFFFABRRRQAUUUUAFFFFABRRRQB43r3\/Ic1H\/r5k\/9CNFGvf8AIc1H\/r5k\/wDQjRQB6f4T\/wCRV0b\/AK8of\/QBWrWV4T\/5FXRv+vKH\/wBAFatABRRRQAUUUUAFFFFABRRRQAUUUUAFFFFABRRRQAUUUUAFFFFABRRRQAUUUUAI33TVdTzVfVdXtdOaOOeQCSQ7VXPNTIdwDevNNAyZlWRMOMis+5tGj5QZWr6mpOoqZRTKjJowSR070xwCMMK1ruyWUbk4asqVWibbKMe9YSi4m8ZKRXcEcHp61GVwPUVYJB+lROh6qfwqDQrNHyaq3MOV6VcLhT8wxQcN0IpWTHexzd3aZ6Cse5sQSc12FzD3rJuo+TxxWbjY1jI5C6sgAcDisqazHPFddcxg5FZcsI5AqSjmjanPTiopIAAeOa35YCOgqpNCMZNK5aVzn5Ye7VoeHPDF1r12FVStsD8zmt3w54Yn1y9XKlbZTlmPevXdP02DTbVYLZAqqOcDrW9Glz6y2OavWVP3Y7mVpWkW2j2SW9qgUAcnHJNMvHwCK0r2QKDWBeTda7djzm7spzNnNUnbn3p80wGaotMDL14FQxHk3xpmVdUtip+baM1xNtcHIIOKs\/ErUWvPFcylsrHlR+dYkE+KSWhdz3n4TfEmfSJo7HUXL2jHAJ5219I6dfW+oWqT2sivGwyCDmvge2vGTG013XhL4jatoZVIZi0QP3GPFJXiPc+yKK8k8FfF+y1R0g1MCGU8bugr1S0vLe7jD20qSKecqc1akmDVieiiimIKKKKACiiigAooooAKKKKACiiigAooooAKKKKACiiigAooooA8b17\/AJDmo\/8AXzJ\/6EaKNe\/5Dmo\/9fMn\/oRooA9P8J\/8iro3\/XlD\/wCgCtWsrwn\/AMiro3\/XlD\/6AK1aACiiigAooooAKKKKACiiigAooooAKKKKACiiigAooooAKKKKACiignAyaACsnxHrdtoenSXNy4G0HaCeprL8U+NdN0GJw8qyTgcIpzzXzx458aXfiK7O9ysIPyoDxUt30Q9tzaufFM+ueLrWeVz5XnAIuegzX0Tandbwn1UV8g6HcbNXsGPaVa+udNffp9q3rGDVqNkTe5cFSCohT1NAIkqG5gSdCrj8alFOpMq9jnLuzltySvzJVUSA9DXVSIGBB6Vg6lZRhi0DfP8A3axnT6xN4Vb6SKUgDryKrNER90mnq7IxWQYb0p5ZfesdzbYqsrbTnmsu6DnPFbE8qhcZrHvJwARmpk0XFMx7hWJOaqGLAz3rQ5ck9qY0eayubGTMma0fDXh46vc758pbJyT61b0vSX1G9SEA7c5Y+1dtdQR2MUdpbAKgHOO9a0aXM+Z7GOIr8i5Y7k1i1jZRrbW6BEHGQOtTXbiOPcDlT0NYzpkVcXM2lSqTynIruT6HmvuY2oXPXmufvLkc81NfXPXnpXO31ycnBobJHXd3g4B5rNv75bWxnndsBUJqN5Czc1z3j5JV8LzzBticj68VO4HjerXP23VLm4\/vOSKrI2Dg1FGcoD604GrsMvRyYFWopsVmI3rUyOamw7m5b3hQggkEdDXW6D471fS8C3u5No\/hLHFedq5HeplmbtUuNxpn0P4T+M1zHcRx6qqvETgsOor17TfHWhX6IY72JC3ZmFfEkNwQMZq1FfyxYMbsuPQ0tVsO6e59421\/a3Q\/0eeOT\/dOas18Q6V4z1WwZTb3swx23V3Wh\/GXV7Qr9oKSqOu7mnzPqh2R9SUV47oHxr0+6IW\/jaMnuBgV32leNdE1JQYb2FSezMM01JCszpKKggu4LgZhlRx\/snNT1QgooooAKKKKACiiigAooooAKKKKACiiigDxvXv+Q5qP\/XzJ\/wChGijXv+Q5qP8A18yf+hGigD0\/wn\/yKujf9eUP\/oArVrK8J\/8AIq6N\/wBeUP8A6AK1aACiiigAooooAKKKKACiiigAooooAKKKKACiiigAooooAKKK5Dxt40s\/D1uyhw9wRwo7Um7DSOovLuCziMlxIsaDuxxXkfxA+JqRrJaaQ2T0Mn+FebeJvG2pazK\/mTssRP3FPFcfPclmOT+NKzkF0ti3quqTXcrSTyM7tySTmsZpCXzSSyZNQk81cY2IbNCCYw7JQeUO4V9aeAL\/APtHwpYT5ywjVT+VfIBkJjKDkkV9HfAPUxdeGXtGbLxN09gK0a0JW56opp6moQ1PU1BZODTgajU0rNtQse1JjKmo3XljYh+Y1lq5DbupHNNuZTJMzH1pi9ahsC1fWq3dt50Y2yj071zxmZGKvww4wa6ezk2AqRwayNdszgzRjkc8VlUhdcyN6VSz5ZGLdM8g+UVntbuxy2avQzBxycH0qX5TXJa52puOhnpAAMYpTBjtzV\/aOwqzplobq8XP3F5NNRu7A52V2auhwJpmnGdx+9fpVd3aaQu\/U1PfTCaYIn+rj+UVEoPpXeo8qsjzJS5ndjQuasWi4juR22GmqoA96lgIEVyfSM00I8z1GXE8wz0YisSclmNad8d91MR03mqqw7m4pEENlZPczqijqa4f496olrDaaLbMARh5MV7HpkEen2M17NgCNC3NfKvjrVm1rxVe3THKByq\/TNUkCMBsAADtT1HGTTW5py9KoY8GpQcdKjUetPUUMCUHFPVuKg5BpwyaVgLCt3zVhZ\/k27RVIKQeTT1IB5NFgHtJh8DgVNHMfWqUzDOcipYjkUrDNCOdgetX7bUJoSDFIyH2NY0Zqwp6VPKO52+leNNYscGG9m47FjXcaB8YtUtCovAkyd88mvF1Y4zmnrOc9aXKHMfVeg\/F7Sb7C3QaJz68Cu50\/wAR6VfoGt7yFs9t3NfEMd0VOa1LDW7m2YGG4kjI\/unFGqHdH2+jq65Qgj1FOr5L0j4j63Y4CXTSIOzsTXaaV8bLmPal7ArD1UU+buFj6AorzXSPi3ol2qicvE5\/vYArrdP8V6PfKDDfQ89iwp8yCxu0VDDcwzDMUiv9DU1MQUVBNeW8BxNMiH3NOguYZxmGRX\/3TQBLRRRQB43r3\/Ic1H\/r5k\/9CNFGvf8AIc1H\/r5k\/wDQjRQB6f4T\/wCRV0b\/AK8of\/QBWrWV4T\/5FXRv+vKH\/wBAFatABRRRQAUUUUAFFFFABRRRQAUUUUAFFFFABRTJZEiQtIwVR3Ncj4j8f6To6MBMsso6BDmk2kOx2DEKCScAVz2veLtK0eNjNcIzj+FTzXiXin4qX+oF0tW8mLp8vBrznUNXnunLzys7HuTSu3sGiPWvFHxaubgtFpiiNf7x4NeXaxq9xqEzS3UrSSN3JzWSJsAsetQvIWJNVGHVkuRK0vvUEj5FRsx9aaTnk1okTcRj6GmdPrStwM01Ou41SQmyaLKmvTvgdrLad4n+yk\/u51xj3Jry9Sd3tXSeBr37D4nsJycDzVB\/On0EfXsg2sRSq1OicXNtFMvIdQRUTAqayNCwrUl2+22c+1RK1NuyXtXHtQwMUtyTUkZzWeHZWIar9spOCOlZIouR8gVKcOCjDOadBHxyKn8rHIq7COP1ex+yzmRF+VjzVVHGK7K+tVuIGVh1rj5Ifs07RuDweK5atPld0dlGpzLle48HPet23QWOllukkvA+lYkQVWVuuDmtuaM38CNE4wg5XNOile5OIb5dCnEQB6nvUgYlsCkMXkryantYSea6Opyi7OgpbgeRpV2\/+wRVkphwKpeIX8vQZ8dyRTDoeYsNzsfU5rQ0yz8yQEjio7aDft4rpdLtgmMjjqaEQcP8ZtbXQvCDW8bbZpxtGPQivlnJILNyzcmvUPj1rp1TxP8AY43zDbjGB6g15iRiqQ0MUc1KopqjmpFHNMByinE4FA6U0mgBpf8AOldJWi+Q4btSKmTVlG4AYfjQBiTzXMTYckUwXEx\/iNbtxAkyYYZ96oraCJsYyPWlYCO28xyNxP41rRDCj1qCJQBwKsKDSsBKDUgbFRCng0WAl3570Fqj6D3pR707ATK4qQN3zxVdetOzRYC0kpHQ1MlwehqkpPWnA8e9S4jNAXHvzVu31KeHHlTOh9jWMGx1pwkxS5QudrpvjPWLQgQ30x9i1dnpvxS1mC1aOZ0diMAknIrySyOBuIq4s3PWjkHzHbX3irUb6UyTXUhJ5wG4rQ8O+Mr\/AEm8jkFw7x5+ZWPBFeexzEHg8VMk+TjNDiFz7C8L65BrumR3UBGSPmHoa2K8A+CniP7HqJsZpP3cv3cnvXv4ORxQmB43r3\/Ic1H\/AK+ZP\/QjRRr3\/Ic1H\/r5k\/8AQjRTA9P8J\/8AIq6N\/wBeUP8A6AK1ayvCf\/Iq6N\/15Q\/+gCtWgAooooAKKKKACiiigAooooAKKZNLHCheVwijqTXCeKviTpmkI6W7iecf3TkUm0h2O6nnit4y8zqijuxrhfFPxK0zSFdLdxNMP7vIrxXxX8Q9S1d2BmMUR6KhxXC3N88jEsxJPep1YXSPQfFPxI1PVmYLKYYj2Q4rgrvUZJmLO5ZvUms55ic81EXJHNUoEtsneYseTUatuYDqKrsx5oiuYkOHcKfc1aQi6x6DtSN6CmCeJ+jqfoacAD0NaWJuNJAppIHJpJPlJ5qNcseenamA7JY5PT0p3Wk4x70u7IxTJAE59qt20hjIkXhl5H1qoOKliPNAH1z8KNbXWfCluSwMkIEZH0FdbLHkV88\/APXvsWtSafM58uUZUe5r6MNYy0ZqtUZzKVNKTuRh6irckYIqqylTQBzlzEVmYH1q9p5\/hNSX0GXDikhjwQR1qLWZVzTjUiplJqK3fcAG61aAFWIhI3Hmub8R6fM0gmhUFR1xXVhRTJIwVIIyD2qJRUlZlQk4O6OAgYdD1rX0neJjsB245qbUNEUTCSFgoJ5FTebDY2xijwXI5NYQpuL1OipVi46FeQebc7f4Qa0oEHQVj2spebjmt23QhRXSu5yMhkGHJ9BWR4q40YD+81bLjLkVm+KIt9nCg9RSB7HI6dBkrkdK0dfu10jw3e3jnG2M7T74q1ZWuCqgcmuD\/aK1X+y\/CcVjG2JZ2wR7EUIk+Y9Xu31DVbq6lJLSSEgn0qkRzUoQrGAetNAyeasBqjHbipUFKEGM0\/GOlADDTQOtToqN1PzUjxMp6cUWAYgqTbxSIKfnigLjNxT6U5sOuR0phbnFKOASaBiIADU6ntWe8he4VEOT3rRVMAUgHilPShRxzSnpzTAQc04U3FSIhNOwg70oBJ4BqeKAZwTmrQRFHAFOwmyoI32\/dNLsYDOKtmXjFRM\/PtRYLldhxS2yGacJ26mnTEAZFWbBfKtnlYctwKmw7kzOFOxRwOKTcD0qt5nr1pwf86qwrlkMR3p8bNjdVLcc9acs5Xg9KllHQ6JqT2d7DPGxVo2DV9b+CdYTWtAtrhWy20BvrXxXBcAyjBr6T\/Z+vXl0uaBiSoYkVlsyuhHr3\/Ic1H\/r5k\/9CNFGvf8AIc1H\/r5k\/wDQjRVAen+E\/wDkVdG\/68of\/QBWrWV4T\/5FXRv+vKH\/ANAFatABRRRQAUUU13VFLOQAO5oAdRWHqvinSdNQtcXcWR2Dc1wWv\/F+xtty6ehdvVhxS5kOx6tLKkKFpWCqO5rjPFHxC0rRo3VJRNMOgQ5rwvxJ8R9W1VmXzzFGeyHFcRdahJM5aRyzeppasLpHfeL\/AIj6lrDsscphh9EOK4C6vXkYszEk9Saoyzbqgd\/eqULEt3J5J9x61AXyetRMfSk3cVaQrkucUx29KQGkPSnYVxu4nrVae2SX73WrPbpQKdhXMt7Jk5jlcH60ka6irgRybh7mtUJvb2qZQsSnA5p2C4kYfyV8374605Wz9Kblj1pQcdqYiQUpHpTVx+NOpiFwMU9DzUfIp69aANvw5qTaZrFneIceXICfpX2LoV+mpaRa3cbBhKgY4r4kXkEetfR\/wA8QfbtFk06ViZYTxn+6KiaLiz1o1HIgIqSk9jWZZQmTIINQRJg4rRlQGqzLtf60CJEQH61OmRwabGuBUoFAxR7U2eQRRljTsVmanKS4jHSgClPcPI5OTiqEtu0pyCa1RD8uccGnJGoHSs3e4FfT7MRLnHNaqDCUqJsh5HJp4AER+laIRUT5pT9aj1eHzI4+OhqS1O6VsetWrqPfFgdRS6DMvTrbdcZI+UV8vftDa0dW8Z\/ZEbMduuMe4NfUupzjTNBvLpjtMcZbNfEGv3r6lr2oXkpyZJWIJ9KIITMKUYPNNC5qaTlqVVHpWtiCPFKRx71IQKay0WC5GFxz3qeOQgYbkUwCnYoAkMAfmI8+lQyIyA7xg1IpKcg4NMndpWG7mhgRRrkkmo7yULHkdegFTuQi4qnBGbq4LEfIlSUS2EGxfMb77c1fXJNCoKfgU7CDvQfSlPAFFVYTYgXmpVOKZjjrS5496YEokPakMjetR545oBJ69KAJA560pbJzUecUZzUgPYBgAO9XZpR5SRjoo7Vnq37wAVYJwDnrQDE3DtSE9yajc+9RPJgc0wJzLg04Or8E4rPeXimiQkioGaUcTrJuXkV9A\/s6alGk09pKwWQgsAa+e7S8aMgEZFdr4K1v+y9YtryFtpVhuHqKylo7lo9p17\/kOaj\/ANfMn\/oRorC1DxBb3F\/czeYo8yVn6+pJop3A9s8J\/wDIq6N\/15Q\/+gCtWsrwn\/yKujf9eUP\/AKAK1HYIpZjgDk0wMnxF4gsdBtTNeyBfRc8mvO7r4xWaSkRQOUHqK8\/+K2vyar4ili3kwQkqBnjIrgZZfSkk5ajvY97ufjNYrZs0UL+f2BHFebeIfiVrGqO22cwxnshIrz2eUljiqJuSkmHPBp8ncXMbt7qk9yxM0zyH1Y5rPecnvVUvn6VG78VSiTcmeX3qJn4qMkkVGWOOtVYVyXcPxppOQajzRmnYVwJNAJpO9L70AOFGfSkHPNBPpVAKOtKBk00vtHPWpP4QRQIdkKMLQOvNAAFL3oAD1z2pVGfpSg54IpDxTEOApR70Zx0ozkUALS4zSAelBORxQBLGea9A+DWrvpnjGFA2I5wEP4mvPFPatLQ7prPV7KdDgpKCTQ9hrQ+3PcdDSHmqOhXIu9Gs7jOTJGGq9WBqIwyKgkGRnvVimbODS6gEX3BT802M\/LinAUwFJwpPpWS2ZJyxHetSY7YjVKFMtzQhMmSMbBkU5YkByalxxUUhwMCjcNhJWyQBROdlux9qSJe5pt7kwEDvxTAh0tcqWPerQcNMV9qLVPKt1+lQ2wLXbN2xikM4T48av\/ZXgidY32yTZjx9RXyC+fJUnqRk17n+01rXn6paaZC+VUB2FeHXHXA6VcERJlXbk0\/HGKB7U\/FWSMxTSM8VJjB6UhU9RSAYBinge1AFPA70DGv93GKjRcKWNSdW5pkzbFJJ4FFhFK9fgIv3m4q9ZwiGFV796qadGbi4aZx8o4FaZ68UJDbExx0owMU7pSHpVCE7c03Hen4oA4pANAp4HekwaWgLiHmg4o6UhFAwA\/KlzgUuOBUczYXilYB9t8zkkVM5qO2GI93rRK2elMVyN34xUJy1SBTnmnqvtSHchEOetTJbripAvFKrYqWh3Hx24q9ZxmNwQazGnZfu0R3jhsk1LQ0zUnv5xPIA5+8f50VgzXhMrn\/aNFZ2Hc++fCf\/ACKujf8AXlD\/AOgCofGWoJpvh68mdtp8sgfWpvCf\/Iq6N\/15Q\/8AoArgPjxqJt9Cjt1ON78\/SnLYpHgWoTm6vJpnbh2LZrNcmRiF6CnMGfvhBTg6DiMZrSK0IbKsoABC1j3sZYZzyOa2ZsAnms65AbOKpoVyGCTfEMnkUpOfpVGJjDclW+6avZz9KEJjcnpTWzTgKGGKYCA9qCewpvSgHFIBTxQuab1PNLnHAqhDunSjNJjjilX3oAQ8j3qS3bcCrdRTSaaDsdWoAtClo4ODTSTmgB4wPrQRzmkxg07PHNMQcUoNNH0pRxQA4GjoaM8UmaBCjrU6nAyv3hyKr7s8YqVDge9Az6t+DGsjVfCUSMwMkGEx9BXemvnP9n3XBZ61LYTPhZVJUe9fRrisZKzNY7DQcmn4qNeDUgNIZHHkOcjipaCOKQUgI5+VxTYkxzTpOeKcvApiFaoWGTT3PFQhuaYMlXA4pJVyAD60KpJBp7jOKQDZ22x1FE629rJO\/CqNxNNu2yQg71g\/EbVF0bwXfTMdpMTKPrigZ8o\/EnU\/7X8bahOG3IjtGPzrkZOGPpVhpTM8sxJLSsX\/ADqueuDWqVkZt3YgUYpcY4pygdKfgUwI8ZFNwcVLjApuMmnYQ1RjoKRj2709sr0pgXc3vRYBcYTJ61majISywocsx5+lXrmQRxknoKz9MjNxctO\/QdKGCNW1iENuqgduak3Y7UA847UAZOaBCcminDpSgdaAGjoaFFKBzSkDtQMYTzS4OaO9HU0gFGMUlKtLgDJoATAxmqsxywUdzU0jYWq0DebdBfTmkNl8YWIL6CoTkmppcVGF55qiRQPWlPSlLqoqpcXiIDyKkaLRbApokUdSKw7jVOSEqk9\/I561LZVjqxNCOpFSottJ0YA1yEUs8h+XNaVlDKWBd8UtwLs1svnPhhjce9FQyKfMb5j1NFRYZ+gHhP8A5FXRv+vKH\/0AV5N+0NuK2w528V6z4T\/5FXRv+vKH\/wBAFcb8atHF\/wCHfPUfPEd34AVMti0fMNy5HyL071CJCgwo5NS3KlZCDUO4LW0TNkbhictVeYg9KsO+ahkAx0q7EmTfLjDDtU9vJviBFF4uUNVdMkwzoe1StGMv5z9aaRS8joKMmqENyMU3PNKeKQikMAad\/Km5o5J60CHigH5qbnmlAPU9KYDjSFcinDn6UUAPt2+Uq3UVKTkAVWJ2OG7d6sghsEdKYCjkUoNJjmlA\/KgQp60ucdaPpSH3oEIOTTuhpPpS9vegA45p0fPFMApV5pjN7wlqDaZ4jsblTgLIufpX2TptyLzT7e4XkSIGr4eVtuGHVeRX1p8ItXXVvCFthsvCBGfwFZzXUuLOzPBpynNNekj61BZMKQ96UU01IDSM0HpQaRjk0xDH9KRF5p+3mpFGBTAUDFMmOADT6r3jbYs0hkEf7269hXkH7TWsfZ9Dt9ORsNK4yPY17HpyfKXPevln9oLVv7T8ai3DZSBMfiDTWrE9jy5h5aqvoMU1VyaklPNMxzW1jMXaF570ucYoC4HrS4zRYBp6+lJgGnHHem9aYhCfSlI2rnvSKvzZNRXcwjjZjwBSY0Zmrz72WFDyTzV7T4xDAB7VkWSm4u2lbpnit6FeOlJdwY9Tk47U\/ocUgHOelO6daokTFLmlx+VIeKQwFDcijnOaQn0oAaeDSg8UmM09VwMmkAo4prnANOJqrcyYBIoAr3c20Hmk0IeYZZT6kVlX9xkECtrRwItPBP8AFzSTuynsW2I3VDLKFFQzzhSTmsa9vSSQpobsJK5bvL\/b0NY89w8jHJ4pEjluHwoJrTtdJGAZTz6Cod2VsZUcbOeATWjbWJOMrWrFbRQjhRTpHCDjiiwXGW1sF4OBRLOkJIByRVO5umA+U1nszO2STSYy292S7H3oqkep4oqQP0e8J\/8AIq6N\/wBeUP8A6AKyviPqllp3hm7N6QS6FUHvitXwn\/yKujf9eUP\/AKAK+f8A4765Pea59jViIYh90eopPsWjy3UJRJO7LwCciqhNKw4OTmoWJ7VtEyY\/PrTW600MQeacWyM1ZJBOu5elZEX7q+x0BrdK8c1l6jFtZZV7GpaKTLpXpimOMU6BhJErD0pSOaYkQHrk0nGafJwajx70hgOtKvXimA808HvTAccZpe3FNGMU4DigTHrxTs8c01cGlGD16UANf5lqS2fK7T2puM9Kjz5cgbt0NMRcwMe9KvvSAggHPBpTwaYB06UHrigeppT60CFP5Yo60hyMZoz7UAHQ07\/dpgp49DSAepBAzXtX7OWr+Vf3OnSv8rAuBmvFFIHauo+HOqnSPF1lOThJHCN9M0mroqO59hyCmR\/eojlWeBJU+64yKE4asjUnFIe9KKQ1IDTSAUd6dTEIBzTqKaxwKBiA\/NVXUj8ir6mp4zljVa9+e4jT3FAh13N9h0eec8eXGWr4k8U3zal4n1K8Y53TMB9M19a\/FvVf7I8E3jg4MiGMflXxszZBdvvOdxq4K7JkyJvvUAUh604DNaogVRSnpigcc0pPegBjgED1qI5qVuetIg9elADWO1AKwtZnLMIUPJ61r3syxRs57DisCzU3N00jevFRJ9Bo09LhCRjjmtMdPSobdAoxU+QePSqQmAJNHTrSqPelNMBD0pe3NAP5UnNIEHTmkFFKvWkMFXinkACheKimkABpiGTS4OBWTfz9RViabOcVjXsuSalspFdsyyhR3NdIp8q1jj6YHNYOlrvu1J6Dmr+qXYXKqeamOmo2V9Quvm2qarWdpJdyDAO3ual0+xkvZdzcJ3NdHHClvEEjAGP1oS5tWGxDBapboAoA96e7Y6UrMTUTZqyRGfIqtM+Qc9Kmdc9KiMO7rUsZSK7jjrUqW49KtJCinmpkA\/hFSUZTw4dvrRVqQfvG+poqQP0I8KEDwro5PA+xQ\/8AoAr5j+Lc0cvi26MbZAJB+ua+ire5+yfDqzmBwV06Ig\/9sxXyfrty11qNzLIxJdyc1O7K6GJIcHFRE1NLtHU1EdgHLVujNjck9acBTcqeh4oyAeDVIkVsiop4\/MQj1qQkZ603dkGmBUsGKSNEe3Iq7jJJrPusxyCVeo61dgmWVAwPXrQgGyL3NV2GOtXWGe3FVZlpWHcgzzThTMYpe\/tSAkHTinDpxTFbFSZ6GmADOafnijrzTgM0AIM4prp8pp+OKCMigQWrZUq3UVOD61SJMcocdO9W87lDDoaAH989qDzTc8YFKDyM0CHYyM0hB70hPzUuecUAAIBpcHOaaQM+9OAJFAxR71Zt5PKnilB5jYMKqgnvUg5UihjTPs3wJqC6j4UsJVOSIlB+uK2ujV5P+zxrH2rQprF2y8bnH0r1l+tYtWZotiYdKD0pqHIp56VIxnenCmjrTu1MBCahlbAp7Gq0h3GmJk0A4zUCjzL\/ANlFTxcJTLIZd3PrSYI8U\/aY1ho7S001G++wcj2r53m\/u+lekfHDVTqfjeWPdlIF2\/iDXm0v3s1rBaESepH6A1Io\/Ko17561Ih4qyR306UjH1pwqJyaAExk0SZUcHmlUcZqtez+VEznt0oAyNbuN7LCp+tT6ZFsQcc1nWqm4uTI3c1u26ACoWupT0LMY9KkXCnmmRin9W5qiBTx2pcjHFIc0cdKBie1G4UhNHHagBQBTkXmo9wHeopZz\/BQMtyEKvJrKu5GZjswaSUyN1Y1QuCy5wxzSbAdtdslyBWTckiRgamd5Gb7x4qo5yxrOTKSLlk4gjZz1NOtLeTULrvtzyar28bXEixJ3rr7G1S0gCIPmxyacVcG7CxxpbRCOMYAHNN69al25OTSEDqKsghIxTWwKlIyeKYwHegZCck\/KKQoc\/NT5JAvTrUZdmqWhocFQdeahluFiBxiiUkKSaz2hmuH+VTt9TUsaGPdEux96KGsXDEZHWipGfeWqf8kttP8AsHRf+ixXype\/65\/rRRUx+Ip7GRdVUbpRRXQZBF96pR1NFFNCY7+GhaKKYEF5\/qzUOmdDRRSH0NT+CoJelFFMRUbrSd6KKkYpqRegoopgyRKkFFFAkONMNFFMCKb7hqxb\/wDHuKKKQD\/4h9KD96iimIXvR\/FRRSQCv94U4dTRRQN7i9qUUUUAe1fs1f8AIQvP9019ASdaKKyluaR2HRU89KKKllCClPSiigCGSqx+9RRTJLI\/1R+lMtv+PaSiikyj4z+IX\/I66p\/11b+dctJ1ooraGxlLcj71ItFFUSO7GoXoooAkH+qrH13\/AI9fxoopS2HHcpaV92tqP+lFFJbDZMvQVIO1FFUSBpp6iiikMaKQ96KKBkRqM\/eoooASasq5+8aKKlgU\/wC99KpnqaKKyZZq+Hv+PyupPU0UVrDYiQw96jPSiiqAVelQS\/eoopAVJfvVPH938KKKQdSOf7oqxb\/6uiipZSKMv+tf\/eNFFFQM\/9k="
        }
    ]
}