{
    "_links": {
        "self": {
            "href": "http:\/\/default\/admin\/structure\/menu\/item\/16\/edit?_format=hal_json"
        },
        "type": {
            "href": "http:\/\/drupal.org\/rest\/type\/menu_link_content\/menu_link_content"
        }
    },
    "id": [
        {
            "value": 16
        }
    ],
    "uuid": [
        {
            "value": "72124560-8cb5-44b6-ae14-ec317d4609b9"
        }
    ],
    "revision_id": [
        {
            "value": 16
        }
    ],
    "langcode": [
        {
            "value": "en",
            "lang": "en"
        }
    ],
    "bundle": [
        {
            "value": "menu_link_content"
        }
    ],
    "enabled": [
        {
            "value": true
        }
    ],
    "title": [
        {
            "value": "Lectures",
            "lang": "en"
        }
    ],
    "menu_name": [
        {
            "value": "mobile-main-navigation"
        }
    ],
    "link": [
        {
            "uri": "internal:\/lectures",
            "title": "",
            "options": []
        }
    ],
    "external": [
        {
            "value": false
        }
    ],
    "rediscover": [
        {
            "value": true
        }
    ],
    "weight": [
        {
            "value": -45
        }
    ],
    "expanded": [
        {
            "value": false
        }
    ],
    "changed": [
        {
            "value": "2019-04-16T06:54:38+00:00",
            "lang": "en",
            "format": "Y-m-d\\TH:i:sP"
        }
    ],
    "default_langcode": [
        {
            "value": true,
            "lang": "en"
        }
    ],
    "revision_translation_affected": [
        {
            "value": true,
            "lang": "en"
        }
    ]
}