{
    "_links": {
        "self": {
            "href": ""
        },
        "type": {
            "href": "http:\/\/drupal.org\/rest\/type\/paragraph\/text_element"
        }
    },
    "id": [
        {
            "value": 624
        }
    ],
    "uuid": [
        {
            "value": "06edc469-e0e1-456e-87de-e7b45cbc4eaa"
        }
    ],
    "revision_id": [
        {
            "value": 1089
        }
    ],
    "langcode": [
        {
            "value": "en",
            "lang": "en"
        }
    ],
    "type": [
        {
            "target_id": "text_element"
        }
    ],
    "status": [
        {
            "value": true,
            "lang": "en"
        }
    ],
    "created": [
        {
            "value": "2019-04-29T05:41:08+00:00",
            "lang": "en",
            "format": "Y-m-d\\TH:i:sP"
        }
    ],
    "parent_id": [
        {
            "value": "143"
        }
    ],
    "parent_type": [
        {
            "value": "node"
        }
    ],
    "parent_field_name": [
        {
            "value": "field_header_text"
        }
    ],
    "behavior_settings": [
        {
            "value": []
        }
    ],
    "default_langcode": [
        {
            "value": true,
            "lang": "en"
        }
    ],
    "revision_translation_affected": [
        {
            "value": true,
            "lang": "en"
        }
    ],
    "field_footnote": [
        {
            "value": "<p>Harry P + Ron W + Hermione&nbsp;G, 2016<\/p>\r\n",
            "format": "basic_html",
            "processed": "<p>Harry P + Ron W + Hermione\u00a0G, 2016<\/p>"
        }
    ],
    "field_text": [
        {
            "value": "<p>Ut enim ad minim veniam, quis nostrud exercitation.<\/p>\r\n",
            "format": "basic_html",
            "processed": "<p>Ut enim ad minim veniam, quis nostrud exercitation.<\/p>"
        }
    ],
    "field_title": [
        {
            "value": "Grapes"
        }
    ]
}