{
    "_links": {
        "self": {
            "href": ""
        },
        "type": {
            "href": "http:\/\/drupal.org\/rest\/type\/paragraph\/text_element"
        }
    },
    "id": [
        {
            "value": 566
        }
    ],
    "uuid": [
        {
            "value": "1b20a3d5-22a2-42a7-be11-f2300c10c256"
        }
    ],
    "revision_id": [
        {
            "value": 993
        }
    ],
    "langcode": [
        {
            "value": "en",
            "lang": "en"
        }
    ],
    "type": [
        {
            "target_id": "text_element"
        }
    ],
    "status": [
        {
            "value": true,
            "lang": "en"
        }
    ],
    "created": [
        {
            "value": "2019-03-27T09:29:16+00:00",
            "lang": "en",
            "format": "Y-m-d\\TH:i:sP"
        }
    ],
    "parent_id": [
        {
            "value": "567"
        }
    ],
    "parent_type": [
        {
            "value": "paragraph"
        }
    ],
    "parent_field_name": [
        {
            "value": "field_ref_paragraphs"
        }
    ],
    "behavior_settings": [
        {
            "value": []
        }
    ],
    "default_langcode": [
        {
            "value": true,
            "lang": "en"
        }
    ],
    "field_text": [
        {
            "value": "<p>We're no strangers to love<br \/>\r\nYou know the rules and so do I<br \/>\r\nA full commitment's what I'm thinking of<br \/>\r\nYou wouldn't get this from any other guy<\/p>\r\n\r\n<p>I just wanna tell you how I'm feeling<br \/>\r\nGotta make you understand<\/p>\r\n\r\n<p>Never gonna give you up<br \/>\r\nNever gonna let you down<br \/>\r\nNever gonna run around and desert you<br \/>\r\nNever gonna make you cry<br \/>\r\nNever gonna say goodbye<br \/>\r\nNever gonna tell a lie and hurt you<\/p>\r\n\r\n<p>We've known each other for so long<br \/>\r\nYour heart's been aching but you're too shy to say it<br \/>\r\nInside we both know what's been going on<br \/>\r\nWe know the game and we're gonna play it<\/p>\r\n\r\n<p>And if you ask me how I'm feeling<br \/>\r\nDon't tell me you're too blind to see<\/p>\r\n\r\n<p>Never gonna give you up<br \/>\r\nNever gonna let you down<br \/>\r\nNever gonna run around and desert you<br \/>\r\nNever gonna make you cry<br \/>\r\nNever gonna say goodbye<br \/>\r\nNever gonna\u2026<\/p>\r\n",
            "format": "basic_html",
            "processed": "<p>We're no strangers to love<br \/>\nYou know the rules and so do I<br \/>\nA full commitment's what I'm thinking of<br \/>\nYou wouldn't get this from any other guy<\/p>\n\n<p>I just wanna tell you how I'm feeling<br \/>\nGotta make you understand<\/p>\n\n<p>Never gonna give you up<br \/>\nNever gonna let you down<br \/>\nNever gonna run around and desert you<br \/>\nNever gonna make you cry<br \/>\nNever gonna say goodbye<br \/>\nNever gonna tell a lie and hurt you<\/p>\n\n<p>We've known each other for so long<br \/>\nYour heart's been aching but you're too shy to say it<br \/>\nInside we both know what's been going on<br \/>\nWe know the game and we're gonna play it<\/p>\n\n<p>And if you ask me how I'm feeling<br \/>\nDon't tell me you're too blind to see<\/p>\n\n<p>Never gonna give you up<br \/>\nNever gonna let you down<br \/>\nNever gonna run around and desert you<br \/>\nNever gonna make you cry<br \/>\nNever gonna say goodbye<br \/>\nNever gonna\u2026<\/p>"
        }
    ],
    "field_title": [
        {
            "value": "Text version:"
        }
    ]
}