{
    "_links": {
        "self": {
            "href": ""
        },
        "type": {
            "href": "http:\/\/drupal.org\/rest\/type\/paragraph\/details"
        }
    },
    "id": [
        {
            "value": 632
        }
    ],
    "uuid": [
        {
            "value": "3c41a57d-e9b6-4a5d-ace9-440f62ade1f4"
        }
    ],
    "revision_id": [
        {
            "value": 1097
        }
    ],
    "langcode": [
        {
            "value": "en",
            "lang": "en"
        }
    ],
    "type": [
        {
            "target_id": "details"
        }
    ],
    "status": [
        {
            "value": true,
            "lang": "en"
        }
    ],
    "created": [
        {
            "value": "2019-04-30T04:40:28+00:00",
            "lang": "en",
            "format": "Y-m-d\\TH:i:sP"
        }
    ],
    "parent_id": [
        {
            "value": "147"
        }
    ],
    "parent_type": [
        {
            "value": "node"
        }
    ],
    "parent_field_name": [
        {
            "value": "field_details"
        }
    ],
    "behavior_settings": [
        {
            "value": []
        }
    ],
    "default_langcode": [
        {
            "value": true,
            "lang": "en"
        }
    ],
    "revision_translation_affected": [
        {
            "value": true,
            "lang": "en"
        }
    ],
    "field_text": [
        {
            "value": "<p>Lorem ipsum at it's best<\/p>\r\n",
            "format": "basic_html",
            "processed": "<p>Lorem ipsum at it's best<\/p>",
            "lang": "en"
        }
    ],
    "field_title": [
        {
            "value": "Project description",
            "lang": "en"
        }
    ]
}