{
    "_links": {
        "self": {
            "href": ""
        },
        "type": {
            "href": "http:\/\/drupal.org\/rest\/type\/paragraph\/view_reference"
        }
    },
    "id": [
        {
            "value": 584
        }
    ],
    "uuid": [
        {
            "value": "579708ea-c9db-4c9d-aa5d-b41104acf30d"
        }
    ],
    "revision_id": [
        {
            "value": 1024
        }
    ],
    "langcode": [
        {
            "value": "en",
            "lang": "en"
        }
    ],
    "type": [
        {
            "target_id": "view_reference"
        }
    ],
    "status": [
        {
            "value": true,
            "lang": "en"
        }
    ],
    "created": [
        {
            "value": "2019-04-08T03:11:30+00:00",
            "lang": "en",
            "format": "Y-m-d\\TH:i:sP"
        }
    ],
    "parent_id": [
        {
            "value": "585"
        }
    ],
    "parent_type": [
        {
            "value": "paragraph"
        }
    ],
    "parent_field_name": [
        {
            "value": "field_ref_paragraphs"
        }
    ],
    "behavior_settings": [
        {
            "value": []
        }
    ],
    "default_langcode": [
        {
            "value": true,
            "lang": "en"
        }
    ],
    "field_ref_view": [
        {
            "target_id": "content_list",
            "display_id": "content_list_article",
            "data": "a:5:{s:5:\"title\";N;s:6:\"offset\";N;s:5:\"pager\";N;s:8:\"argument\";N;s:5:\"limit\";s:0:\"\";}"
        }
    ]
}