{
    "_links": {
        "self": {
            "href": ""
        },
        "type": {
            "href": "http:\/\/drupal.org\/rest\/type\/paragraph\/slideshow"
        }
    },
    "id": [
        {
            "value": 50
        }
    ],
    "uuid": [
        {
            "value": "621172ca-d25a-4d37-a360-f30553ddfd0f"
        }
    ],
    "revision_id": [
        {
            "value": 1268
        }
    ],
    "langcode": [
        {
            "value": "en",
            "lang": "en"
        }
    ],
    "type": [
        {
            "target_id": "slideshow"
        }
    ],
    "status": [
        {
            "value": true,
            "lang": "en"
        }
    ],
    "created": [
        {
            "value": "2019-02-01T10:45:30+00:00",
            "lang": "en",
            "format": "Y-m-d\\TH:i:sP"
        }
    ],
    "parent_id": [
        {
            "value": "3"
        }
    ],
    "parent_type": [
        {
            "value": "node"
        }
    ],
    "parent_field_name": [
        {
            "value": "field_content"
        }
    ],
    "behavior_settings": [
        {
            "value": []
        }
    ],
    "default_langcode": [
        {
            "value": true,
            "lang": "en"
        }
    ],
    "_embedded": {
        "http:\/\/drupal.org\/rest\/relation\/paragraph\/slideshow\/field_ref_paragraphs": [
            {
                "_links": {
                    "type": {
                        "href": "http:\/\/drupal.org\/rest\/type\/paragraph\/slider_image"
                    },
                    "http:\/\/drupal.org\/rest\/relation\/paragraph\/slider_image\/field_image": [
                        {
                            "href": "http:\/\/default\/media\/29?_format=hal_json"
                        }
                    ]
                },
                "id": [
                    {
                        "value": 557
                    }
                ],
                "uuid": [
                    {
                        "value": "9b0e586a-6f4c-401c-a3c2-93d61639aeb8"
                    }
                ],
                "revision_id": [
                    {
                        "value": 1267
                    }
                ],
                "langcode": [
                    {
                        "value": "en",
                        "lang": "en"
                    }
                ],
                "type": [
                    {
                        "target_id": "slider_image"
                    }
                ],
                "status": [
                    {
                        "value": true,
                        "lang": "en"
                    }
                ],
                "created": [
                    {
                        "value": "2019-03-27T07:41:39+00:00",
                        "lang": "en",
                        "format": "Y-m-d\\TH:i:sP"
                    }
                ],
                "parent_id": [
                    {
                        "value": "50"
                    }
                ],
                "parent_type": [
                    {
                        "value": "paragraph"
                    }
                ],
                "parent_field_name": [
                    {
                        "value": "field_ref_paragraphs"
                    }
                ],
                "behavior_settings": [
                    {
                        "value": []
                    }
                ],
                "default_langcode": [
                    {
                        "value": true,
                        "lang": "en"
                    }
                ],
                "field_content_alignment": [
                    {
                        "value": "left"
                    }
                ],
                "_embedded": {
                    "http:\/\/drupal.org\/rest\/relation\/paragraph\/slider_image\/field_image": [
                        {
                            "_links": {
                                "self": {
                                    "href": "http:\/\/default\/media\/29?_format=hal_json"
                                },
                                "type": {
                                    "href": "http:\/\/drupal.org\/rest\/type\/media\/image"
                                }
                            },
                            "uuid": [
                                {
                                    "value": "2a418a08-cd4d-4ce0-8439-583b733c2e4a"
                                }
                            ]
                        }
                    ]
                },
                "field_link": [
                    {
                        "uri": "internal:\/",
                        "title": "Learn more",
                        "options": [],
                        "lang": "en"
                    }
                ],
                "field_text": [
                    {
                        "value": "<p>Copenhagen and New York Based group of architects, designers, builders, and thinkers.<\/p>\r\n",
                        "format": "basic_html",
                        "processed": "<p>Copenhagen and New York Based group of architects, designers, builders, and thinkers.<\/p>",
                        "lang": "en"
                    }
                ],
                "field_title": [
                    {
                        "value": "Big Bjarke Ingels Group",
                        "lang": "en"
                    }
                ]
            }
        ]
    }
}