{
    "_links": {
        "self": {
            "href": ""
        },
        "type": {
            "href": "http:\/\/drupal.org\/rest\/type\/paragraph\/banner"
        },
        "http:\/\/drupal.org\/rest\/relation\/paragraph\/banner\/field_image": [
            {
                "href": "http:\/\/default\/media\/11?_format=hal_json",
                "lang": "en"
            }
        ]
    },
    "id": [
        {
            "value": 367
        }
    ],
    "uuid": [
        {
            "value": "65953366-6e63-4802-a809-d1f3aaa9eb51"
        }
    ],
    "revision_id": [
        {
            "value": 824
        }
    ],
    "langcode": [
        {
            "value": "en",
            "lang": "en"
        }
    ],
    "type": [
        {
            "target_id": "banner"
        }
    ],
    "status": [
        {
            "value": true,
            "lang": "en"
        }
    ],
    "created": [
        {
            "value": "2019-02-14T07:34:19+00:00",
            "lang": "en",
            "format": "Y-m-d\\TH:i:sP"
        }
    ],
    "parent_id": [
        {
            "value": "68"
        }
    ],
    "parent_type": [
        {
            "value": "node"
        }
    ],
    "parent_field_name": [
        {
            "value": "field_content"
        }
    ],
    "behavior_settings": [
        {
            "value": []
        }
    ],
    "default_langcode": [
        {
            "value": true,
            "lang": "en"
        }
    ],
    "_embedded": {
        "http:\/\/drupal.org\/rest\/relation\/paragraph\/banner\/field_image": [
            {
                "_links": {
                    "self": {
                        "href": "http:\/\/default\/media\/11?_format=hal_json"
                    },
                    "type": {
                        "href": "http:\/\/drupal.org\/rest\/type\/media\/image"
                    }
                },
                "uuid": [
                    {
                        "value": "d8c96503-6be5-444d-bc29-863916b93aae"
                    }
                ],
                "lang": "en"
            }
        ]
    },
    "field_link": [
        {
            "uri": "internal:\/",
            "title": "Do want to see another work",
            "options": [],
            "lang": "en"
        }
    ],
    "field_text": [
        {
            "value": "<p>Banner text<\/p>\r\n",
            "format": "basic_html",
            "processed": "<p>Banner text<\/p>",
            "lang": "en"
        }
    ]
}