{
    "_links": {
        "self": {
            "href": ""
        },
        "type": {
            "href": "http:\/\/drupal.org\/rest\/type\/paragraph\/view_reference"
        }
    },
    "id": [
        {
            "value": 334
        }
    ],
    "uuid": [
        {
            "value": "6677f9c4-71f1-4f06-be05-eec815ad7a92"
        }
    ],
    "revision_id": [
        {
            "value": 1192
        }
    ],
    "langcode": [
        {
            "value": "en",
            "lang": "en"
        }
    ],
    "type": [
        {
            "target_id": "view_reference"
        }
    ],
    "status": [
        {
            "value": true,
            "lang": "en"
        }
    ],
    "created": [
        {
            "value": "2019-02-12T07:20:32+00:00",
            "lang": "en",
            "format": "Y-m-d\\TH:i:sP"
        }
    ],
    "parent_id": [
        {
            "value": "61"
        }
    ],
    "parent_type": [
        {
            "value": "node"
        }
    ],
    "parent_field_name": [
        {
            "value": "field_content"
        }
    ],
    "behavior_settings": [
        {
            "value": []
        }
    ],
    "default_langcode": [
        {
            "value": true,
            "lang": "en"
        }
    ],
    "field_ref_view": [
        {
            "target_id": "content_list",
            "display_id": "content_list_work",
            "data": "a:5:{s:5:\"title\";N;s:6:\"offset\";N;s:5:\"pager\";N;s:8:\"argument\";N;s:5:\"limit\";s:0:\"\";}"
        }
    ]
}