{
    "_links": {
        "self": {
            "href": ""
        },
        "type": {
            "href": "http:\/\/drupal.org\/rest\/type\/paragraph\/details"
        }
    },
    "id": [
        {
            "value": 636
        }
    ],
    "uuid": [
        {
            "value": "70427c10-1d6c-4df4-9df9-90f4f7738d87"
        }
    ],
    "revision_id": [
        {
            "value": 1277
        }
    ],
    "langcode": [
        {
            "value": "en",
            "lang": "en"
        }
    ],
    "type": [
        {
            "target_id": "details"
        }
    ],
    "status": [
        {
            "value": true,
            "lang": "en"
        }
    ],
    "created": [
        {
            "value": "2019-04-30T04:44:35+00:00",
            "lang": "en",
            "format": "Y-m-d\\TH:i:sP"
        }
    ],
    "parent_id": [
        {
            "value": "148"
        }
    ],
    "parent_type": [
        {
            "value": "node"
        }
    ],
    "parent_field_name": [
        {
            "value": "field_details"
        }
    ],
    "behavior_settings": [
        {
            "value": []
        }
    ],
    "default_langcode": [
        {
            "value": true,
            "lang": "en"
        }
    ],
    "field_text": [
        {
            "value": "<p>In progress<\/p>\r\n",
            "format": "basic_html",
            "processed": "<p>In progress<\/p>",
            "lang": "en"
        }
    ],
    "field_title": [
        {
            "value": "Project status",
            "lang": "en"
        }
    ]
}