{
    "_links": {
        "self": {
            "href": ""
        },
        "type": {
            "href": "http:\/\/drupal.org\/rest\/type\/paragraph\/text_element"
        }
    },
    "id": [
        {
            "value": 579
        }
    ],
    "uuid": [
        {
            "value": "785f894e-1263-468f-8b22-90bec735ad1e"
        }
    ],
    "revision_id": [
        {
            "value": 909
        }
    ],
    "langcode": [
        {
            "value": "en",
            "lang": "en"
        }
    ],
    "type": [
        {
            "target_id": "text_element"
        }
    ],
    "status": [
        {
            "value": true,
            "lang": "en"
        }
    ],
    "created": [
        {
            "value": "2019-04-04T07:50:48+00:00",
            "lang": "en",
            "format": "Y-m-d\\TH:i:sP"
        }
    ],
    "parent_id": [
        {
            "value": "122"
        }
    ],
    "parent_type": [
        {
            "value": "node"
        }
    ],
    "parent_field_name": [
        {
            "value": "field_content"
        }
    ],
    "behavior_settings": [
        {
            "value": []
        }
    ],
    "default_langcode": [
        {
            "value": true,
            "lang": "en"
        }
    ],
    "field_text": [
        {
            "value": "<p>Lorem ipsum dolor sit amet, consectetur adipiscing elit. Aliquam bibendum diam eu porttitor tincidunt. Fusce laoreet leo in iaculis interdum. Duis at pulvinar massa. Maecenas efficitur elit consectetur hendrerit tempor. Maecenas posuere nisl sodales, luctus nisi sit amet, ornare metus. Sed pretium ex vitae commodo dapibus. Duis sit amet risus feugiat, suscipit mauris nec, cursus dolor. Fusce non orci eu urna efficitur condimentum. Cras quis tincidunt augue, non mattis arcu. Vestibulum ante ipsum primis in faucibus orci luctus et ultrices posuere cubilia Curae; Vivamus bibendum lacus a purus tincidunt tincidunt.<\/p>\r\n",
            "format": "basic_html",
            "processed": "<p>Lorem ipsum dolor sit amet, consectetur adipiscing elit. Aliquam bibendum diam eu porttitor tincidunt. Fusce laoreet leo in iaculis interdum. Duis at pulvinar massa. Maecenas efficitur elit consectetur hendrerit tempor. Maecenas posuere nisl sodales, luctus nisi sit amet, ornare metus. Sed pretium ex vitae commodo dapibus. Duis sit amet risus feugiat, suscipit mauris nec, cursus dolor. Fusce non orci eu urna efficitur condimentum. Cras quis tincidunt augue, non mattis arcu. Vestibulum ante ipsum primis in faucibus orci luctus et ultrices posuere cubilia Curae; Vivamus bibendum lacus a purus tincidunt tincidunt.<\/p>"
        }
    ]
}