{
    "_links": {
        "self": {
            "href": ""
        },
        "type": {
            "href": "http:\/\/drupal.org\/rest\/type\/paragraph\/text_element"
        }
    },
    "id": [
        {
            "value": 626
        }
    ],
    "uuid": [
        {
            "value": "7df08840-db68-4d2a-bdd3-3e3cf87d7443"
        }
    ],
    "revision_id": [
        {
            "value": 1091
        }
    ],
    "langcode": [
        {
            "value": "en",
            "lang": "en"
        }
    ],
    "type": [
        {
            "target_id": "text_element"
        }
    ],
    "status": [
        {
            "value": true,
            "lang": "en"
        }
    ],
    "created": [
        {
            "value": "2019-04-29T05:48:21+00:00",
            "lang": "en",
            "format": "Y-m-d\\TH:i:sP"
        }
    ],
    "parent_id": [
        {
            "value": "144"
        }
    ],
    "parent_type": [
        {
            "value": "node"
        }
    ],
    "parent_field_name": [
        {
            "value": "field_header_text"
        }
    ],
    "behavior_settings": [
        {
            "value": []
        }
    ],
    "default_langcode": [
        {
            "value": true,
            "lang": "en"
        }
    ],
    "revision_translation_affected": [
        {
            "value": true,
            "lang": "en"
        }
    ],
    "field_footnote": [
        {
            "value": "<p>Gol D. Roger + Chopper, 2019<\/p>\r\n",
            "format": "basic_html",
            "processed": "<p>Gol D. Roger + Chopper, 2019<\/p>"
        }
    ],
    "field_text": [
        {
            "value": "<p>Lorem ipsum dolor sit amet, consectetur adipiscing elit.<\/p>\r\n",
            "format": "basic_html",
            "processed": "<p>Lorem ipsum dolor sit amet, consectetur adipiscing elit.<\/p>"
        }
    ],
    "field_title": [
        {
            "value": "Peaches"
        }
    ]
}