{
    "_links": {
        "self": {
            "href": ""
        },
        "type": {
            "href": "http:\/\/drupal.org\/rest\/type\/paragraph\/view_reference"
        }
    },
    "id": [
        {
            "value": 551
        }
    ],
    "uuid": [
        {
            "value": "8a4a57f1-adf9-4409-bd98-2bd41a62f779"
        }
    ],
    "revision_id": [
        {
            "value": 1195
        }
    ],
    "langcode": [
        {
            "value": "en",
            "lang": "en"
        }
    ],
    "type": [
        {
            "target_id": "view_reference"
        }
    ],
    "status": [
        {
            "value": true,
            "lang": "en"
        }
    ],
    "created": [
        {
            "value": "2019-03-15T05:01:13+00:00",
            "lang": "en",
            "format": "Y-m-d\\TH:i:sP"
        }
    ],
    "parent_id": [
        {
            "value": "116"
        }
    ],
    "parent_type": [
        {
            "value": "node"
        }
    ],
    "parent_field_name": [
        {
            "value": "field_content"
        }
    ],
    "behavior_settings": [
        {
            "value": []
        }
    ],
    "default_langcode": [
        {
            "value": true,
            "lang": "en"
        }
    ],
    "field_ref_view": [
        {
            "target_id": "content_list",
            "display_id": "content_list_lecture",
            "data": "a:5:{s:5:\"pager\";N;s:5:\"limit\";s:0:\"\";s:8:\"argument\";N;s:6:\"offset\";N;s:5:\"title\";N;}"
        }
    ]
}