{
    "_links": {
        "self": {
            "href": ""
        },
        "type": {
            "href": "http:\/\/drupal.org\/rest\/type\/paragraph\/banner"
        },
        "http:\/\/drupal.org\/rest\/relation\/paragraph\/banner\/field_image": [
            {
                "href": "http:\/\/default\/media\/13?_format=hal_json",
                "lang": "en"
            }
        ]
    },
    "id": [
        {
            "value": 631
        }
    ],
    "uuid": [
        {
            "value": "c5dfa5db-b7ae-49dc-8ea3-4a8ede017c62"
        }
    ],
    "revision_id": [
        {
            "value": 1096
        }
    ],
    "langcode": [
        {
            "value": "en",
            "lang": "en"
        }
    ],
    "type": [
        {
            "target_id": "banner"
        }
    ],
    "status": [
        {
            "value": true,
            "lang": "en"
        }
    ],
    "created": [
        {
            "value": "2019-04-30T04:41:44+00:00",
            "lang": "en",
            "format": "Y-m-d\\TH:i:sP"
        }
    ],
    "parent_id": [
        {
            "value": "147"
        }
    ],
    "parent_type": [
        {
            "value": "node"
        }
    ],
    "parent_field_name": [
        {
            "value": "field_content"
        }
    ],
    "behavior_settings": [
        {
            "value": []
        }
    ],
    "default_langcode": [
        {
            "value": true,
            "lang": "en"
        }
    ],
    "revision_translation_affected": [
        {
            "value": true,
            "lang": "en"
        }
    ],
    "field_background_color": [
        {
            "name": "",
            "color": {
                "hexadecimal": "#FFFFFF",
                "rgb": {
                    "red": 255,
                    "green": 255,
                    "blue": "255"
                }
            },
            "lang": "en"
        }
    ],
    "_embedded": {
        "http:\/\/drupal.org\/rest\/relation\/paragraph\/banner\/field_image": [
            {
                "_links": {
                    "self": {
                        "href": "http:\/\/default\/media\/13?_format=hal_json"
                    },
                    "type": {
                        "href": "http:\/\/drupal.org\/rest\/type\/media\/image"
                    }
                },
                "uuid": [
                    {
                        "value": "ac70482a-35fb-4ff9-aabc-c7fd1ac1866c"
                    }
                ],
                "lang": "en"
            }
        ]
    },
    "field_link": [
        {
            "uri": "internal:\/",
            "title": "Link text",
            "options": [],
            "lang": "en"
        }
    ],
    "field_text": [
        {
            "value": "<p>Banner example<\/p>\r\n",
            "format": "basic_html",
            "processed": "<p>Banner example<\/p>",
            "lang": "en"
        }
    ]
}