{
    "_links": {
        "self": {
            "href": ""
        },
        "type": {
            "href": "http:\/\/drupal.org\/rest\/type\/paragraph\/contact_form"
        }
    },
    "id": [
        {
            "value": 338
        }
    ],
    "uuid": [
        {
            "value": "dd7fadaf-906f-4508-8eda-a9e72ce90ea7"
        }
    ],
    "revision_id": [
        {
            "value": 1200
        }
    ],
    "langcode": [
        {
            "value": "en",
            "lang": "en"
        }
    ],
    "type": [
        {
            "target_id": "contact_form"
        }
    ],
    "status": [
        {
            "value": true,
            "lang": "en"
        }
    ],
    "created": [
        {
            "value": "2019-02-12T07:39:21+00:00",
            "lang": "en",
            "format": "Y-m-d\\TH:i:sP"
        }
    ],
    "parent_id": [
        {
            "value": "62"
        }
    ],
    "parent_type": [
        {
            "value": "node"
        }
    ],
    "parent_field_name": [
        {
            "value": "field_content"
        }
    ],
    "behavior_settings": [
        {
            "value": []
        }
    ],
    "default_langcode": [
        {
            "value": true,
            "lang": "en"
        }
    ],
    "field_ref_form": [
        {
            "target_id": "contact",
            "default_data": null,
            "status": "open",
            "open": null,
            "close": null
        }
    ],
    "field_title": [
        {
            "value": "Drop us a line",
            "lang": "en"
        }
    ]
}