{
    "_links": {
        "self": {
            "href": ""
        },
        "type": {
            "href": "http:\/\/drupal.org\/rest\/type\/paragraph\/container"
        }
    },
    "id": [
        {
            "value": 585
        }
    ],
    "uuid": [
        {
            "value": "ea70a359-225d-40bb-bdeb-271aeeb05544"
        }
    ],
    "revision_id": [
        {
            "value": 1191
        }
    ],
    "langcode": [
        {
            "value": "en",
            "lang": "en"
        }
    ],
    "type": [
        {
            "target_id": "container"
        }
    ],
    "status": [
        {
            "value": true,
            "lang": "en"
        }
    ],
    "created": [
        {
            "value": "2019-04-08T03:11:00+00:00",
            "lang": "en",
            "format": "Y-m-d\\TH:i:sP"
        }
    ],
    "parent_id": [
        {
            "value": "118"
        }
    ],
    "parent_type": [
        {
            "value": "node"
        }
    ],
    "parent_field_name": [
        {
            "value": "field_content"
        }
    ],
    "behavior_settings": [
        {
            "value": []
        }
    ],
    "default_langcode": [
        {
            "value": true,
            "lang": "en"
        }
    ],
    "field_background_color": [
        {
            "name": null,
            "color": {
                "hexadecimal": "#FFFFFF",
                "rgb": {
                    "red": 255,
                    "green": 255,
                    "blue": "255"
                }
            }
        }
    ],
    "field_container_type": [
        {
            "value": "awards_list"
        }
    ],
    "_embedded": {
        "http:\/\/drupal.org\/rest\/relation\/paragraph\/container\/field_ref_paragraphs": [
            {
                "_links": {
                    "type": {
                        "href": "http:\/\/drupal.org\/rest\/type\/paragraph\/view_reference"
                    }
                },
                "id": [
                    {
                        "value": 584,
                        "lang": "en"
                    }
                ],
                "uuid": [
                    {
                        "value": "579708ea-c9db-4c9d-aa5d-b41104acf30d",
                        "lang": "en"
                    }
                ],
                "revision_id": [
                    {
                        "value": 1024,
                        "lang": "en"
                    }
                ],
                "langcode": [
                    {
                        "value": "en",
                        "lang": "en"
                    }
                ],
                "type": [
                    {
                        "target_id": "view_reference",
                        "lang": "en"
                    }
                ],
                "status": [
                    {
                        "value": true,
                        "lang": "en"
                    }
                ],
                "created": [
                    {
                        "value": "2019-04-08T03:11:30+00:00",
                        "lang": "en",
                        "format": "Y-m-d\\TH:i:sP"
                    }
                ],
                "parent_id": [
                    {
                        "value": "585",
                        "lang": "en"
                    }
                ],
                "parent_type": [
                    {
                        "value": "paragraph",
                        "lang": "en"
                    }
                ],
                "parent_field_name": [
                    {
                        "value": "field_ref_paragraphs",
                        "lang": "en"
                    }
                ],
                "behavior_settings": [
                    {
                        "value": [],
                        "lang": "en"
                    }
                ],
                "default_langcode": [
                    {
                        "value": true,
                        "lang": "en"
                    }
                ],
                "field_ref_view": [
                    {
                        "target_id": "content_list",
                        "display_id": "content_list_article",
                        "data": "a:5:{s:5:\"title\";N;s:6:\"offset\";N;s:5:\"pager\";N;s:8:\"argument\";N;s:5:\"limit\";s:0:\"\";}",
                        "lang": "en"
                    }
                ],
                "lang": "en"
            }
        ]
    },
    "field_title": [
        {
            "value": "Awards",
            "lang": "en"
        }
    ]
}