{
    "_links": {
        "self": {
            "href": ""
        },
        "type": {
            "href": "http:\/\/drupal.org\/rest\/type\/paragraph\/media_element"
        },
        "http:\/\/drupal.org\/rest\/relation\/paragraph\/media_element\/field_ref_media": [
            null
        ]
    },
    "id": [
        {
            "value": 578
        }
    ],
    "uuid": [
        {
            "value": "f2b175ee-9d36-4b83-8569-0e35b9136838"
        }
    ],
    "revision_id": [
        {
            "value": 914
        }
    ],
    "langcode": [
        {
            "value": "en",
            "lang": "en"
        }
    ],
    "type": [
        {
            "target_id": "media_element"
        }
    ],
    "status": [
        {
            "value": true,
            "lang": "en"
        }
    ],
    "created": [
        {
            "value": "2019-04-04T07:50:23+00:00",
            "lang": "en",
            "format": "Y-m-d\\TH:i:sP"
        }
    ],
    "parent_id": [
        {
            "value": "122"
        }
    ],
    "parent_type": [
        {
            "value": "node"
        }
    ],
    "parent_field_name": [
        {
            "value": "field_content"
        }
    ],
    "behavior_settings": [
        {
            "value": []
        }
    ],
    "default_langcode": [
        {
            "value": true,
            "lang": "en"
        }
    ],
    "_embedded": {
        "http:\/\/drupal.org\/rest\/relation\/paragraph\/media_element\/field_ref_media": [
            null
        ]
    }
}