{
    "_links": {
        "self": {
            "href": "http:\/\/default\/work\/mammoth?_format=hal_json"
        },
        "type": {
            "href": "http:\/\/drupal.org\/rest\/type\/node\/work"
        },
        "http:\/\/drupal.org\/rest\/relation\/node\/work\/revision_uid": [
            {
                "href": "http:\/\/default\/user\/1?_format=hal_json"
            }
        ],
        "http:\/\/drupal.org\/rest\/relation\/node\/work\/uid": [
            {
                "href": "http:\/\/default\/user\/1?_format=hal_json",
                "lang": "en"
            }
        ],
        "http:\/\/drupal.org\/rest\/relation\/node\/work\/field_multiple_image": [
            {
                "href": "http:\/\/default\/media\/18?_format=hal_json"
            }
        ],
        "http:\/\/drupal.org\/rest\/relation\/node\/work\/field_ref_term": [
            {
                "href": "http:\/\/default\/taxonomy\/term\/44?_format=hal_json"
            }
        ]
    },
    "nid": [
        {
            "value": 148
        }
    ],
    "uuid": [
        {
            "value": "22933b38-e95f-49f0-a904-23dfa915f659"
        }
    ],
    "vid": [
        {
            "value": 331
        }
    ],
    "langcode": [
        {
            "value": "en",
            "lang": "en"
        }
    ],
    "type": [
        {
            "target_id": "work"
        }
    ],
    "revision_timestamp": [
        {
            "value": "2019-06-20T03:03:48+00:00",
            "format": "Y-m-d\\TH:i:sP"
        }
    ],
    "_embedded": {
        "http:\/\/drupal.org\/rest\/relation\/node\/work\/revision_uid": [
            {
                "_links": {
                    "self": {
                        "href": "http:\/\/default\/user\/1?_format=hal_json"
                    },
                    "type": {
                        "href": "http:\/\/drupal.org\/rest\/type\/user\/user"
                    }
                },
                "uuid": [
                    {
                        "value": "e293b5c8-f55c-4881-a86a-864c8e6aec85"
                    }
                ]
            }
        ],
        "http:\/\/drupal.org\/rest\/relation\/node\/work\/uid": [
            {
                "_links": {
                    "self": {
                        "href": "http:\/\/default\/user\/1?_format=hal_json"
                    },
                    "type": {
                        "href": "http:\/\/drupal.org\/rest\/type\/user\/user"
                    }
                },
                "uuid": [
                    {
                        "value": "e293b5c8-f55c-4881-a86a-864c8e6aec85"
                    }
                ],
                "lang": "en"
            }
        ],
        "http:\/\/drupal.org\/rest\/relation\/node\/work\/field_details": [
            {
                "_links": {
                    "type": {
                        "href": "http:\/\/drupal.org\/rest\/type\/paragraph\/details"
                    }
                },
                "id": [
                    {
                        "value": 636
                    }
                ],
                "uuid": [
                    {
                        "value": "70427c10-1d6c-4df4-9df9-90f4f7738d87"
                    }
                ],
                "revision_id": [
                    {
                        "value": 1277
                    }
                ],
                "langcode": [
                    {
                        "value": "en",
                        "lang": "en"
                    }
                ],
                "type": [
                    {
                        "target_id": "details"
                    }
                ],
                "status": [
                    {
                        "value": true,
                        "lang": "en"
                    }
                ],
                "created": [
                    {
                        "value": "2019-04-30T04:44:35+00:00",
                        "lang": "en",
                        "format": "Y-m-d\\TH:i:sP"
                    }
                ],
                "parent_id": [
                    {
                        "value": "148"
                    }
                ],
                "parent_type": [
                    {
                        "value": "node"
                    }
                ],
                "parent_field_name": [
                    {
                        "value": "field_details"
                    }
                ],
                "behavior_settings": [
                    {
                        "value": []
                    }
                ],
                "default_langcode": [
                    {
                        "value": true,
                        "lang": "en"
                    }
                ],
                "field_text": [
                    {
                        "value": "<p>In progress<\/p>\r\n",
                        "format": "basic_html",
                        "processed": "<p>In progress<\/p>",
                        "lang": "en"
                    }
                ],
                "field_title": [
                    {
                        "value": "Project status",
                        "lang": "en"
                    }
                ]
            }
        ],
        "http:\/\/drupal.org\/rest\/relation\/node\/work\/field_header_text": [
            {
                "_links": {
                    "type": {
                        "href": "http:\/\/drupal.org\/rest\/type\/paragraph\/text_element"
                    }
                },
                "id": [
                    {
                        "value": 637
                    }
                ],
                "uuid": [
                    {
                        "value": "e75578ba-6134-4a3c-beb9-56f0732e48cd"
                    }
                ],
                "revision_id": [
                    {
                        "value": 1278
                    }
                ],
                "langcode": [
                    {
                        "value": "en",
                        "lang": "en"
                    }
                ],
                "type": [
                    {
                        "target_id": "text_element"
                    }
                ],
                "status": [
                    {
                        "value": true,
                        "lang": "en"
                    }
                ],
                "created": [
                    {
                        "value": "2019-04-30T04:44:35+00:00",
                        "lang": "en",
                        "format": "Y-m-d\\TH:i:sP"
                    }
                ],
                "parent_id": [
                    {
                        "value": "148"
                    }
                ],
                "parent_type": [
                    {
                        "value": "node"
                    }
                ],
                "parent_field_name": [
                    {
                        "value": "field_header_text"
                    }
                ],
                "behavior_settings": [
                    {
                        "value": []
                    }
                ],
                "default_langcode": [
                    {
                        "value": true,
                        "lang": "en"
                    }
                ],
                "field_footnote": [
                    {
                        "value": "<p>Impsum Sulfurum, 2018<\/p>\r\n",
                        "format": "basic_html",
                        "processed": "<p>Impsum Sulfurum, 2018<\/p>"
                    }
                ],
                "field_text": [
                    {
                        "value": "<p>Lorem ipsum dolor sit amet, consectetur adipiscing elit.<\/p>\r\n",
                        "format": "basic_html",
                        "processed": "<p>Lorem ipsum dolor sit amet, consectetur adipiscing elit.<\/p>"
                    }
                ],
                "field_title": [
                    {
                        "value": "Mammoth"
                    }
                ]
            }
        ],
        "http:\/\/drupal.org\/rest\/relation\/node\/work\/field_multiple_image": [
            {
                "_links": {
                    "self": {
                        "href": "http:\/\/default\/media\/18?_format=hal_json"
                    },
                    "type": {
                        "href": "http:\/\/drupal.org\/rest\/type\/media\/image"
                    }
                },
                "uuid": [
                    {
                        "value": "20af79c0-2dd1-4205-a1e1-6e3a5184531e"
                    }
                ]
            }
        ],
        "http:\/\/drupal.org\/rest\/relation\/node\/work\/field_ref_term": [
            {
                "_links": {
                    "self": {
                        "href": "http:\/\/default\/taxonomy\/term\/44?_format=hal_json"
                    },
                    "type": {
                        "href": "http:\/\/drupal.org\/rest\/type\/taxonomy_term\/project_types"
                    }
                },
                "uuid": [
                    {
                        "value": "524db508-1e77-4b98-86c6-2b9aaf44c84f"
                    }
                ]
            }
        ]
    },
    "status": [
        {
            "value": true,
            "lang": "en"
        }
    ],
    "title": [
        {
            "value": "Mammoth",
            "lang": "en"
        }
    ],
    "created": [
        {
            "value": "2019-04-30T04:42:37+00:00",
            "lang": "en",
            "format": "Y-m-d\\TH:i:sP"
        }
    ],
    "changed": [
        {
            "value": "2019-06-20T03:03:48+00:00",
            "lang": "en",
            "format": "Y-m-d\\TH:i:sP"
        }
    ],
    "promote": [
        {
            "value": false,
            "lang": "en"
        }
    ],
    "sticky": [
        {
            "value": false,
            "lang": "en"
        }
    ],
    "default_langcode": [
        {
            "value": true,
            "lang": "en"
        }
    ],
    "revision_translation_affected": [
        {
            "value": true,
            "lang": "en"
        }
    ],
    "path": [
        {
            "alias": "\/work\/mammoth",
            "pid": 148,
            "langcode": "en",
            "lang": "en"
        }
    ],
    "rh_action": [
        {
            "value": "bundle_default"
        }
    ],
    "rh_redirect_response": [
        {
            "value": 301
        }
    ],
    "field_summary": [
        {
            "value": "<p>Lorem ipsum dolor sit amet, consectetur adipiscing elit, sed do eiusmod tempor incididunt ut labore et dolore magna aliqua. Ut enim ad minim veniam, quis nostrud exercitation ullamco laboris nisi ut aliquip ex ea commodo consequat. Duis aute irure dolor in reprehenderit in voluptate velit esse cillum dolore eu fugiat nulla pariatur. Excepteur sint occaecat cupidatat non proident, sunt in culpa qui officia deserunt mollit anim id est laborum.<\/p>\r\n",
            "format": "basic_html",
            "processed": "<p>Lorem ipsum dolor sit amet, consectetur adipiscing elit, sed do eiusmod tempor incididunt ut labore et dolore magna aliqua. Ut enim ad minim veniam, quis nostrud exercitation ullamco laboris nisi ut aliquip ex ea commodo consequat. Duis aute irure dolor in reprehenderit in voluptate velit esse cillum dolore eu fugiat nulla pariatur. Excepteur sint occaecat cupidatat non proident, sunt in culpa qui officia deserunt mollit anim id est laborum.<\/p>"
        }
    ]
}