{
    "_links": {
        "self": {
            "href": "http:\/\/default\/work\/ding-dong?_format=hal_json"
        },
        "type": {
            "href": "http:\/\/drupal.org\/rest\/type\/node\/work"
        },
        "http:\/\/drupal.org\/rest\/relation\/node\/work\/revision_uid": [
            {
                "href": "http:\/\/default\/user\/1?_format=hal_json"
            }
        ],
        "http:\/\/drupal.org\/rest\/relation\/node\/work\/uid": [
            {
                "href": "http:\/\/default\/user\/1?_format=hal_json",
                "lang": "en"
            }
        ],
        "http:\/\/drupal.org\/rest\/relation\/node\/work\/field_multiple_image": [
            {
                "href": "http:\/\/default\/media\/14?_format=hal_json"
            }
        ],
        "http:\/\/drupal.org\/rest\/relation\/node\/work\/field_ref_term": [
            {
                "href": "http:\/\/default\/taxonomy\/term\/42?_format=hal_json"
            }
        ]
    },
    "nid": [
        {
            "value": 141
        }
    ],
    "uuid": [
        {
            "value": "27a640d4-f83d-4be6-9053-39484311a75c"
        }
    ],
    "vid": [
        {
            "value": 286
        }
    ],
    "langcode": [
        {
            "value": "en",
            "lang": "en"
        }
    ],
    "type": [
        {
            "target_id": "work"
        }
    ],
    "revision_timestamp": [
        {
            "value": "2019-04-29T05:33:52+00:00",
            "format": "Y-m-d\\TH:i:sP"
        }
    ],
    "_embedded": {
        "http:\/\/drupal.org\/rest\/relation\/node\/work\/revision_uid": [
            {
                "_links": {
                    "self": {
                        "href": "http:\/\/default\/user\/1?_format=hal_json"
                    },
                    "type": {
                        "href": "http:\/\/drupal.org\/rest\/type\/user\/user"
                    }
                },
                "uuid": [
                    {
                        "value": "e293b5c8-f55c-4881-a86a-864c8e6aec85"
                    }
                ]
            }
        ],
        "http:\/\/drupal.org\/rest\/relation\/node\/work\/uid": [
            {
                "_links": {
                    "self": {
                        "href": "http:\/\/default\/user\/1?_format=hal_json"
                    },
                    "type": {
                        "href": "http:\/\/drupal.org\/rest\/type\/user\/user"
                    }
                },
                "uuid": [
                    {
                        "value": "e293b5c8-f55c-4881-a86a-864c8e6aec85"
                    }
                ],
                "lang": "en"
            }
        ],
        "http:\/\/drupal.org\/rest\/relation\/node\/work\/field_details": [
            {
                "_links": {
                    "type": {
                        "href": "http:\/\/drupal.org\/rest\/type\/paragraph\/details"
                    }
                },
                "id": [
                    {
                        "value": 619
                    }
                ],
                "uuid": [
                    {
                        "value": "9c351df2-c5a5-4871-9586-2f086203727e"
                    }
                ],
                "revision_id": [
                    {
                        "value": 1084
                    }
                ],
                "langcode": [
                    {
                        "value": "en",
                        "lang": "en"
                    }
                ],
                "type": [
                    {
                        "target_id": "details"
                    }
                ],
                "status": [
                    {
                        "value": true,
                        "lang": "en"
                    }
                ],
                "created": [
                    {
                        "value": "2019-04-29T05:32:50+00:00",
                        "lang": "en",
                        "format": "Y-m-d\\TH:i:sP"
                    }
                ],
                "parent_id": [
                    {
                        "value": "141"
                    }
                ],
                "parent_type": [
                    {
                        "value": "node"
                    }
                ],
                "parent_field_name": [
                    {
                        "value": "field_details"
                    }
                ],
                "behavior_settings": [
                    {
                        "value": []
                    }
                ],
                "default_langcode": [
                    {
                        "value": true,
                        "lang": "en"
                    }
                ],
                "revision_translation_affected": [
                    {
                        "value": true,
                        "lang": "en"
                    }
                ],
                "field_text": [
                    {
                        "value": "<p>Detail content<\/p>\r\n",
                        "format": "basic_html",
                        "processed": "<p>Detail content<\/p>",
                        "lang": "en"
                    }
                ],
                "field_title": [
                    {
                        "value": "Detail title",
                        "lang": "en"
                    }
                ]
            }
        ],
        "http:\/\/drupal.org\/rest\/relation\/node\/work\/field_header_text": [
            {
                "_links": {
                    "type": {
                        "href": "http:\/\/drupal.org\/rest\/type\/paragraph\/text_element"
                    }
                },
                "id": [
                    {
                        "value": 620
                    }
                ],
                "uuid": [
                    {
                        "value": "080b0627-1290-4dfd-9db2-a6a327188b62"
                    }
                ],
                "revision_id": [
                    {
                        "value": 1085
                    }
                ],
                "langcode": [
                    {
                        "value": "en",
                        "lang": "en"
                    }
                ],
                "type": [
                    {
                        "target_id": "text_element"
                    }
                ],
                "status": [
                    {
                        "value": true,
                        "lang": "en"
                    }
                ],
                "created": [
                    {
                        "value": "2019-04-29T05:32:50+00:00",
                        "lang": "en",
                        "format": "Y-m-d\\TH:i:sP"
                    }
                ],
                "parent_id": [
                    {
                        "value": "141"
                    }
                ],
                "parent_type": [
                    {
                        "value": "node"
                    }
                ],
                "parent_field_name": [
                    {
                        "value": "field_header_text"
                    }
                ],
                "behavior_settings": [
                    {
                        "value": []
                    }
                ],
                "default_langcode": [
                    {
                        "value": true,
                        "lang": "en"
                    }
                ],
                "revision_translation_affected": [
                    {
                        "value": true,
                        "lang": "en"
                    }
                ],
                "field_footnote": [
                    {
                        "value": "<p>Master Chief + Gordon F, 2000<\/p>\r\n",
                        "format": "basic_html",
                        "processed": "<p>Master Chief + Gordon F, 2000<\/p>"
                    }
                ],
                "field_text": [
                    {
                        "value": "<p>Lorem ipsum dolor sit amet, consectetur adipiscing elit.<\/p>\r\n",
                        "format": "basic_html",
                        "processed": "<p>Lorem ipsum dolor sit amet, consectetur adipiscing elit.<\/p>"
                    }
                ],
                "field_title": [
                    {
                        "value": "Ding Dong"
                    }
                ]
            }
        ],
        "http:\/\/drupal.org\/rest\/relation\/node\/work\/field_multiple_image": [
            {
                "_links": {
                    "self": {
                        "href": "http:\/\/default\/media\/14?_format=hal_json"
                    },
                    "type": {
                        "href": "http:\/\/drupal.org\/rest\/type\/media\/image"
                    }
                },
                "uuid": [
                    {
                        "value": "8d0f82e4-a606-44cb-a5a9-a1fa9cfafd8d"
                    }
                ]
            }
        ],
        "http:\/\/drupal.org\/rest\/relation\/node\/work\/field_ref_term": [
            {
                "_links": {
                    "self": {
                        "href": "http:\/\/default\/taxonomy\/term\/42?_format=hal_json"
                    },
                    "type": {
                        "href": "http:\/\/drupal.org\/rest\/type\/taxonomy_term\/project_types"
                    }
                },
                "uuid": [
                    {
                        "value": "b8302437-dd82-45e2-85a0-f8ad95029c0b"
                    }
                ]
            }
        ]
    },
    "status": [
        {
            "value": true,
            "lang": "en"
        }
    ],
    "title": [
        {
            "value": "Ding Dong",
            "lang": "en"
        }
    ],
    "created": [
        {
            "value": "2019-04-29T05:30:58+00:00",
            "lang": "en",
            "format": "Y-m-d\\TH:i:sP"
        }
    ],
    "changed": [
        {
            "value": "2019-04-29T05:33:52+00:00",
            "lang": "en",
            "format": "Y-m-d\\TH:i:sP"
        }
    ],
    "promote": [
        {
            "value": false,
            "lang": "en"
        }
    ],
    "sticky": [
        {
            "value": false,
            "lang": "en"
        }
    ],
    "default_langcode": [
        {
            "value": true,
            "lang": "en"
        }
    ],
    "revision_translation_affected": [
        {
            "value": true,
            "lang": "en"
        }
    ],
    "path": [
        {
            "alias": "\/work\/ding-dong",
            "pid": 150,
            "langcode": "en",
            "lang": "en"
        }
    ],
    "rh_action": [
        {
            "value": "bundle_default"
        }
    ],
    "rh_redirect_response": [
        {
            "value": 301
        }
    ],
    "field_summary": [
        {
            "value": "<p>Lorem ipsum dolor sit amet, consectetur adipiscing elit, sed do eiusmod tempor incididunt ut labore et dolore magna aliqua. Ut enim ad minim veniam, quis nostrud exercitation ullamco laboris nisi ut aliquip ex ea commodo consequat. Duis aute irure dolor in reprehenderit in voluptate velit esse cillum dolore eu fugiat nulla pariatur. Excepteur sint occaecat cupidatat non proident, sunt in culpa qui officia deserunt mollit anim id est laborum.<\/p>\r\n",
            "format": "basic_html",
            "processed": "<p>Lorem ipsum dolor sit amet, consectetur adipiscing elit, sed do eiusmod tempor incididunt ut labore et dolore magna aliqua. Ut enim ad minim veniam, quis nostrud exercitation ullamco laboris nisi ut aliquip ex ea commodo consequat. Duis aute irure dolor in reprehenderit in voluptate velit esse cillum dolore eu fugiat nulla pariatur. Excepteur sint occaecat cupidatat non proident, sunt in culpa qui officia deserunt mollit anim id est laborum.<\/p>"
        }
    ]
}