{
    "_links": {
        "self": {
            "href": "http:\/\/default\/work\/our-best-work?_format=hal_json"
        },
        "type": {
            "href": "http:\/\/drupal.org\/rest\/type\/node\/work"
        },
        "http:\/\/drupal.org\/rest\/relation\/node\/work\/revision_uid": [
            {
                "href": "http:\/\/default\/user\/1?_format=hal_json"
            }
        ],
        "http:\/\/drupal.org\/rest\/relation\/node\/work\/uid": [
            {
                "href": "http:\/\/default\/user\/1?_format=hal_json",
                "lang": "en"
            }
        ],
        "http:\/\/drupal.org\/rest\/relation\/node\/work\/field_multiple_image": [
            {
                "href": "http:\/\/default\/media\/13?_format=hal_json"
            }
        ],
        "http:\/\/drupal.org\/rest\/relation\/node\/work\/field_ref_term": [
            {
                "href": "http:\/\/default\/taxonomy\/term\/43?_format=hal_json"
            }
        ]
    },
    "nid": [
        {
            "value": 138
        }
    ],
    "uuid": [
        {
            "value": "8ddf65da-d734-4e3e-aaee-520b82766f9f"
        }
    ],
    "vid": [
        {
            "value": 289
        }
    ],
    "langcode": [
        {
            "value": "en",
            "lang": "en"
        }
    ],
    "type": [
        {
            "target_id": "work"
        }
    ],
    "revision_timestamp": [
        {
            "value": "2019-04-29T05:07:20+00:00",
            "format": "Y-m-d\\TH:i:sP"
        }
    ],
    "_embedded": {
        "http:\/\/drupal.org\/rest\/relation\/node\/work\/revision_uid": [
            {
                "_links": {
                    "self": {
                        "href": "http:\/\/default\/user\/1?_format=hal_json"
                    },
                    "type": {
                        "href": "http:\/\/drupal.org\/rest\/type\/user\/user"
                    }
                },
                "uuid": [
                    {
                        "value": "e293b5c8-f55c-4881-a86a-864c8e6aec85"
                    }
                ]
            }
        ],
        "http:\/\/drupal.org\/rest\/relation\/node\/work\/uid": [
            {
                "_links": {
                    "self": {
                        "href": "http:\/\/default\/user\/1?_format=hal_json"
                    },
                    "type": {
                        "href": "http:\/\/drupal.org\/rest\/type\/user\/user"
                    }
                },
                "uuid": [
                    {
                        "value": "e293b5c8-f55c-4881-a86a-864c8e6aec85"
                    }
                ],
                "lang": "en"
            }
        ],
        "http:\/\/drupal.org\/rest\/relation\/node\/work\/field_details": [
            {
                "_links": {
                    "type": {
                        "href": "http:\/\/drupal.org\/rest\/type\/paragraph\/details"
                    }
                },
                "id": [
                    {
                        "value": 604
                    }
                ],
                "uuid": [
                    {
                        "value": "11e2b7a8-eecb-4484-8d2f-01c2a6e95ed1"
                    }
                ],
                "revision_id": [
                    {
                        "value": 1062
                    }
                ],
                "langcode": [
                    {
                        "value": "en",
                        "lang": "en"
                    }
                ],
                "type": [
                    {
                        "target_id": "details"
                    }
                ],
                "status": [
                    {
                        "value": true,
                        "lang": "en"
                    }
                ],
                "created": [
                    {
                        "value": "2019-04-29T05:04:06+00:00",
                        "lang": "en",
                        "format": "Y-m-d\\TH:i:sP"
                    }
                ],
                "parent_id": [
                    {
                        "value": "138"
                    }
                ],
                "parent_type": [
                    {
                        "value": "node"
                    }
                ],
                "parent_field_name": [
                    {
                        "value": "field_details"
                    }
                ],
                "behavior_settings": [
                    {
                        "value": []
                    }
                ],
                "default_langcode": [
                    {
                        "value": true,
                        "lang": "en"
                    }
                ],
                "revision_translation_affected": [
                    {
                        "value": true,
                        "lang": "en"
                    }
                ],
                "field_text": [
                    {
                        "value": "<p>Our best work<\/p>\r\n",
                        "format": "basic_html",
                        "processed": "<p>Our best work<\/p>",
                        "lang": "en"
                    }
                ],
                "field_title": [
                    {
                        "value": "Project title",
                        "lang": "en"
                    }
                ]
            },
            {
                "_links": {
                    "type": {
                        "href": "http:\/\/drupal.org\/rest\/type\/paragraph\/details"
                    }
                },
                "id": [
                    {
                        "value": 605
                    }
                ],
                "uuid": [
                    {
                        "value": "22e9a0d7-643c-42be-a8d9-562708914f92"
                    }
                ],
                "revision_id": [
                    {
                        "value": 1063
                    }
                ],
                "langcode": [
                    {
                        "value": "en",
                        "lang": "en"
                    }
                ],
                "type": [
                    {
                        "target_id": "details"
                    }
                ],
                "status": [
                    {
                        "value": true,
                        "lang": "en"
                    }
                ],
                "created": [
                    {
                        "value": "2019-04-29T05:05:50+00:00",
                        "lang": "en",
                        "format": "Y-m-d\\TH:i:sP"
                    }
                ],
                "parent_id": [
                    {
                        "value": "138"
                    }
                ],
                "parent_type": [
                    {
                        "value": "node"
                    }
                ],
                "parent_field_name": [
                    {
                        "value": "field_details"
                    }
                ],
                "behavior_settings": [
                    {
                        "value": []
                    }
                ],
                "default_langcode": [
                    {
                        "value": true,
                        "lang": "en"
                    }
                ],
                "revision_translation_affected": [
                    {
                        "value": true,
                        "lang": "en"
                    }
                ],
                "field_text": [
                    {
                        "value": "<p>Dolor Sit Amet + Lorem Ipsum<\/p>\r\n",
                        "format": "basic_html",
                        "processed": "<p>Dolor Sit Amet + Lorem Ipsum<\/p>",
                        "lang": "en"
                    }
                ],
                "field_title": [
                    {
                        "value": "Team",
                        "lang": "en"
                    }
                ]
            },
            {
                "_links": {
                    "type": {
                        "href": "http:\/\/drupal.org\/rest\/type\/paragraph\/details"
                    }
                },
                "id": [
                    {
                        "value": 606
                    }
                ],
                "uuid": [
                    {
                        "value": "deefcb98-d050-47d4-8e19-95318ebaeeb8"
                    }
                ],
                "revision_id": [
                    {
                        "value": 1064
                    }
                ],
                "langcode": [
                    {
                        "value": "en",
                        "lang": "en"
                    }
                ],
                "type": [
                    {
                        "target_id": "details"
                    }
                ],
                "status": [
                    {
                        "value": true,
                        "lang": "en"
                    }
                ],
                "created": [
                    {
                        "value": "2019-04-29T05:06:37+00:00",
                        "lang": "en",
                        "format": "Y-m-d\\TH:i:sP"
                    }
                ],
                "parent_id": [
                    {
                        "value": "138"
                    }
                ],
                "parent_type": [
                    {
                        "value": "node"
                    }
                ],
                "parent_field_name": [
                    {
                        "value": "field_details"
                    }
                ],
                "behavior_settings": [
                    {
                        "value": []
                    }
                ],
                "default_langcode": [
                    {
                        "value": true,
                        "lang": "en"
                    }
                ],
                "revision_translation_affected": [
                    {
                        "value": true,
                        "lang": "en"
                    }
                ],
                "field_text": [
                    {
                        "value": "<p>2k17<\/p>\r\n",
                        "format": "basic_html",
                        "processed": "<p>2k17<\/p>",
                        "lang": "en"
                    }
                ],
                "field_title": [
                    {
                        "value": "Project date",
                        "lang": "en"
                    }
                ]
            },
            {
                "_links": {
                    "type": {
                        "href": "http:\/\/drupal.org\/rest\/type\/paragraph\/details"
                    }
                },
                "id": [
                    {
                        "value": 607
                    }
                ],
                "uuid": [
                    {
                        "value": "c33ceaa9-f5f7-46b0-9001-f08d4e98f22f"
                    }
                ],
                "revision_id": [
                    {
                        "value": 1065
                    }
                ],
                "langcode": [
                    {
                        "value": "en",
                        "lang": "en"
                    }
                ],
                "type": [
                    {
                        "target_id": "details"
                    }
                ],
                "status": [
                    {
                        "value": true,
                        "lang": "en"
                    }
                ],
                "created": [
                    {
                        "value": "2019-04-29T05:07:00+00:00",
                        "lang": "en",
                        "format": "Y-m-d\\TH:i:sP"
                    }
                ],
                "parent_id": [
                    {
                        "value": "138"
                    }
                ],
                "parent_type": [
                    {
                        "value": "node"
                    }
                ],
                "parent_field_name": [
                    {
                        "value": "field_details"
                    }
                ],
                "behavior_settings": [
                    {
                        "value": []
                    }
                ],
                "default_langcode": [
                    {
                        "value": true,
                        "lang": "en"
                    }
                ],
                "revision_translation_affected": [
                    {
                        "value": true,
                        "lang": "en"
                    }
                ],
                "field_text": [
                    {
                        "value": "<p>Done<\/p>\r\n",
                        "format": "basic_html",
                        "processed": "<p>Done<\/p>",
                        "lang": "en"
                    }
                ],
                "field_title": [
                    {
                        "value": "Status",
                        "lang": "en"
                    }
                ]
            }
        ],
        "http:\/\/drupal.org\/rest\/relation\/node\/work\/field_header_text": [
            {
                "_links": {
                    "type": {
                        "href": "http:\/\/drupal.org\/rest\/type\/paragraph\/text_element"
                    }
                },
                "id": [
                    {
                        "value": 608
                    }
                ],
                "uuid": [
                    {
                        "value": "807d6c90-8aa2-4b9d-a3a4-377df8eafc8c"
                    }
                ],
                "revision_id": [
                    {
                        "value": 1066
                    }
                ],
                "langcode": [
                    {
                        "value": "en",
                        "lang": "en"
                    }
                ],
                "type": [
                    {
                        "target_id": "text_element"
                    }
                ],
                "status": [
                    {
                        "value": true,
                        "lang": "en"
                    }
                ],
                "created": [
                    {
                        "value": "2019-04-29T05:04:06+00:00",
                        "lang": "en",
                        "format": "Y-m-d\\TH:i:sP"
                    }
                ],
                "parent_id": [
                    {
                        "value": "138"
                    }
                ],
                "parent_type": [
                    {
                        "value": "node"
                    }
                ],
                "parent_field_name": [
                    {
                        "value": "field_header_text"
                    }
                ],
                "behavior_settings": [
                    {
                        "value": []
                    }
                ],
                "default_langcode": [
                    {
                        "value": true,
                        "lang": "en"
                    }
                ],
                "revision_translation_affected": [
                    {
                        "value": true,
                        "lang": "en"
                    }
                ],
                "field_footnote": [
                    {
                        "value": "<p>Dolor Sit Amet + Lorem Ipsum, 2k17<\/p>\r\n",
                        "format": "basic_html",
                        "processed": "<p>Dolor Sit Amet + Lorem Ipsum, 2k17<\/p>"
                    }
                ],
                "field_text": [
                    {
                        "value": "<p>Lorem ipsum dolor sit amet.<\/p>\r\n",
                        "format": "basic_html",
                        "processed": "<p>Lorem ipsum dolor sit amet.<\/p>"
                    }
                ],
                "field_title": [
                    {
                        "value": "Our best work"
                    }
                ]
            }
        ],
        "http:\/\/drupal.org\/rest\/relation\/node\/work\/field_multiple_image": [
            {
                "_links": {
                    "self": {
                        "href": "http:\/\/default\/media\/13?_format=hal_json"
                    },
                    "type": {
                        "href": "http:\/\/drupal.org\/rest\/type\/media\/image"
                    }
                },
                "uuid": [
                    {
                        "value": "ac70482a-35fb-4ff9-aabc-c7fd1ac1866c"
                    }
                ]
            }
        ],
        "http:\/\/drupal.org\/rest\/relation\/node\/work\/field_ref_term": [
            {
                "_links": {
                    "self": {
                        "href": "http:\/\/default\/taxonomy\/term\/43?_format=hal_json"
                    },
                    "type": {
                        "href": "http:\/\/drupal.org\/rest\/type\/taxonomy_term\/project_types"
                    }
                },
                "uuid": [
                    {
                        "value": "699239c0-4306-4daf-b6fe-15c41afe1837"
                    }
                ]
            }
        ]
    },
    "status": [
        {
            "value": true,
            "lang": "en"
        }
    ],
    "title": [
        {
            "value": "Our best work",
            "lang": "en"
        }
    ],
    "created": [
        {
            "value": "2019-04-29T05:01:27+00:00",
            "lang": "en",
            "format": "Y-m-d\\TH:i:sP"
        }
    ],
    "changed": [
        {
            "value": "2019-04-29T05:07:20+00:00",
            "lang": "en",
            "format": "Y-m-d\\TH:i:sP"
        }
    ],
    "promote": [
        {
            "value": false,
            "lang": "en"
        }
    ],
    "sticky": [
        {
            "value": false,
            "lang": "en"
        }
    ],
    "default_langcode": [
        {
            "value": true,
            "lang": "en"
        }
    ],
    "revision_translation_affected": [
        {
            "value": true,
            "lang": "en"
        }
    ],
    "path": [
        {
            "alias": "\/work\/our-best-work",
            "pid": 153,
            "langcode": "en",
            "lang": "en"
        }
    ],
    "rh_action": [
        {
            "value": "bundle_default"
        }
    ],
    "rh_redirect_response": [
        {
            "value": 301
        }
    ],
    "field_summary": [
        {
            "value": "<p>Lorem ipsum dolor sit amet, consectetur adipiscing elit, sed do eiusmod tempor incididunt ut labore et dolore magna aliqua. Ut enim ad minim veniam, quis nostrud exercitation ullamco laboris nisi ut aliquip ex ea commodo consequat. Duis aute irure dolor in reprehenderit in voluptate velit esse cillum dolore eu fugiat nulla pariatur. Excepteur sint occaecat cupidatat non proident, sunt in culpa qui officia deserunt mollit anim id est laborum.<\/p>\r\n",
            "format": "basic_html",
            "processed": "<p>Lorem ipsum dolor sit amet, consectetur adipiscing elit, sed do eiusmod tempor incididunt ut labore et dolore magna aliqua. Ut enim ad minim veniam, quis nostrud exercitation ullamco laboris nisi ut aliquip ex ea commodo consequat. Duis aute irure dolor in reprehenderit in voluptate velit esse cillum dolore eu fugiat nulla pariatur. Excepteur sint occaecat cupidatat non proident, sunt in culpa qui officia deserunt mollit anim id est laborum.<\/p>"
        }
    ]
}