{
    "_links": {
        "self": {
            "href": "http:\/\/default\/jobs\/smm-manager?_format=hal_json"
        },
        "type": {
            "href": "http:\/\/drupal.org\/rest\/type\/node\/job"
        },
        "http:\/\/drupal.org\/rest\/relation\/node\/job\/revision_uid": [
            {
                "href": "http:\/\/default\/user\/1?_format=hal_json"
            }
        ],
        "http:\/\/drupal.org\/rest\/relation\/node\/job\/uid": [
            {
                "href": "http:\/\/default\/user\/1?_format=hal_json",
                "lang": "en"
            }
        ]
    },
    "nid": [
        {
            "value": 125
        }
    ],
    "uuid": [
        {
            "value": "d0f543df-9983-4343-a43d-9edafcd1ef22"
        }
    ],
    "vid": [
        {
            "value": 232
        }
    ],
    "langcode": [
        {
            "value": "en",
            "lang": "en"
        }
    ],
    "type": [
        {
            "target_id": "job"
        }
    ],
    "revision_timestamp": [
        {
            "value": "2019-04-04T10:30:39+00:00",
            "format": "Y-m-d\\TH:i:sP"
        }
    ],
    "_embedded": {
        "http:\/\/drupal.org\/rest\/relation\/node\/job\/revision_uid": [
            {
                "_links": {
                    "self": {
                        "href": "http:\/\/default\/user\/1?_format=hal_json"
                    },
                    "type": {
                        "href": "http:\/\/drupal.org\/rest\/type\/user\/user"
                    }
                },
                "uuid": [
                    {
                        "value": "e293b5c8-f55c-4881-a86a-864c8e6aec85"
                    }
                ]
            }
        ],
        "http:\/\/drupal.org\/rest\/relation\/node\/job\/uid": [
            {
                "_links": {
                    "self": {
                        "href": "http:\/\/default\/user\/1?_format=hal_json"
                    },
                    "type": {
                        "href": "http:\/\/drupal.org\/rest\/type\/user\/user"
                    }
                },
                "uuid": [
                    {
                        "value": "e293b5c8-f55c-4881-a86a-864c8e6aec85"
                    }
                ],
                "lang": "en"
            }
        ]
    },
    "status": [
        {
            "value": true,
            "lang": "en"
        }
    ],
    "title": [
        {
            "value": "SMM Manager",
            "lang": "en"
        }
    ],
    "created": [
        {
            "value": "2019-04-04T10:29:47+00:00",
            "lang": "en",
            "format": "Y-m-d\\TH:i:sP"
        }
    ],
    "changed": [
        {
            "value": "2019-04-04T10:30:39+00:00",
            "lang": "en",
            "format": "Y-m-d\\TH:i:sP"
        }
    ],
    "promote": [
        {
            "value": false,
            "lang": "en"
        }
    ],
    "sticky": [
        {
            "value": false,
            "lang": "en"
        }
    ],
    "default_langcode": [
        {
            "value": true,
            "lang": "en"
        }
    ],
    "revision_translation_affected": [
        {
            "value": true,
            "lang": "en"
        }
    ],
    "path": [
        {
            "alias": "\/jobs\/smm-manager",
            "pid": 145,
            "langcode": "en",
            "lang": "en"
        }
    ],
    "rh_action": [
        {
            "value": "bundle_default"
        }
    ],
    "rh_redirect_response": [
        {
            "value": 301
        }
    ],
    "body": [
        {
            "value": "<p>Lorem ipsum, dolor sit amet.<\/p>\r\n\r\n<p>- Lorem<\/p>\r\n\r\n<p>- Ipsum<\/p>\r\n\r\n<p>- Dolor<\/p>\r\n\r\n<p>- Sit<\/p>\r\n\r\n<p>- Amet<\/p>\r\n",
            "format": "basic_html",
            "processed": "<p>Lorem ipsum, dolor sit amet.<\/p>\n\n<p>- Lorem<\/p>\n\n<p>- Ipsum<\/p>\n\n<p>- Dolor<\/p>\n\n<p>- Sit<\/p>\n\n<p>- Amet<\/p>",
            "summary": "",
            "lang": "en"
        }
    ],
    "field_link": [
        {
            "uri": "internal:\/contact-us",
            "title": "Apply job",
            "options": []
        }
    ],
    "field_title": [
        {
            "value": "SMM Manager"
        }
    ],
    "field_wage": [
        {
            "value": "1000$+"
        }
    ]
}