{
    "_links": {
        "self": {
            "href": "http:\/\/default\/news\/hot-news-are-here?_format=hal_json"
        },
        "type": {
            "href": "http:\/\/drupal.org\/rest\/type\/node\/news"
        },
        "http:\/\/drupal.org\/rest\/relation\/node\/news\/revision_uid": [
            {
                "href": "http:\/\/default\/user\/1?_format=hal_json"
            }
        ],
        "http:\/\/drupal.org\/rest\/relation\/node\/news\/uid": [
            {
                "href": "http:\/\/default\/user\/1?_format=hal_json",
                "lang": "en"
            }
        ],
        "http:\/\/drupal.org\/rest\/relation\/node\/news\/field_teaser_image": [
            {
                "href": "http:\/\/default\/media\/5?_format=hal_json",
                "lang": "en"
            }
        ]
    },
    "nid": [
        {
            "value": 122
        }
    ],
    "uuid": [
        {
            "value": "f71a003d-f77e-46ca-bf08-9b6e6b12b59b"
        }
    ],
    "vid": [
        {
            "value": 226
        }
    ],
    "langcode": [
        {
            "value": "en",
            "lang": "en"
        }
    ],
    "type": [
        {
            "target_id": "news"
        }
    ],
    "revision_timestamp": [
        {
            "value": "2019-04-04T07:56:49+00:00",
            "format": "Y-m-d\\TH:i:sP"
        }
    ],
    "_embedded": {
        "http:\/\/drupal.org\/rest\/relation\/node\/news\/revision_uid": [
            {
                "_links": {
                    "self": {
                        "href": "http:\/\/default\/user\/1?_format=hal_json"
                    },
                    "type": {
                        "href": "http:\/\/drupal.org\/rest\/type\/user\/user"
                    }
                },
                "uuid": [
                    {
                        "value": "e293b5c8-f55c-4881-a86a-864c8e6aec85"
                    }
                ]
            }
        ],
        "http:\/\/drupal.org\/rest\/relation\/node\/news\/uid": [
            {
                "_links": {
                    "self": {
                        "href": "http:\/\/default\/user\/1?_format=hal_json"
                    },
                    "type": {
                        "href": "http:\/\/drupal.org\/rest\/type\/user\/user"
                    }
                },
                "uuid": [
                    {
                        "value": "e293b5c8-f55c-4881-a86a-864c8e6aec85"
                    }
                ],
                "lang": "en"
            }
        ],
        "http:\/\/drupal.org\/rest\/relation\/node\/news\/field_content": [
            {
                "_links": {
                    "type": {
                        "href": "http:\/\/drupal.org\/rest\/type\/paragraph\/text_element"
                    }
                },
                "id": [
                    {
                        "value": 577,
                        "lang": "en"
                    }
                ],
                "uuid": [
                    {
                        "value": "539e872c-53b7-4dc5-86e4-d8175d2eec81",
                        "lang": "en"
                    }
                ],
                "revision_id": [
                    {
                        "value": 913,
                        "lang": "en"
                    }
                ],
                "langcode": [
                    {
                        "value": "en",
                        "lang": "en"
                    }
                ],
                "type": [
                    {
                        "target_id": "text_element",
                        "lang": "en"
                    }
                ],
                "status": [
                    {
                        "value": true,
                        "lang": "en"
                    }
                ],
                "created": [
                    {
                        "value": "2019-04-04T07:49:51+00:00",
                        "lang": "en",
                        "format": "Y-m-d\\TH:i:sP"
                    }
                ],
                "parent_id": [
                    {
                        "value": "122",
                        "lang": "en"
                    }
                ],
                "parent_type": [
                    {
                        "value": "node",
                        "lang": "en"
                    }
                ],
                "parent_field_name": [
                    {
                        "value": "field_content",
                        "lang": "en"
                    }
                ],
                "behavior_settings": [
                    {
                        "value": [],
                        "lang": "en"
                    }
                ],
                "default_langcode": [
                    {
                        "value": true,
                        "lang": "en"
                    }
                ],
                "field_text": [
                    {
                        "value": "<p>Lorem ipsum dolor sit amet, consectetur adipiscing elit. Aliquam bibendum diam eu porttitor tincidunt. Fusce laoreet leo in iaculis interdum. Duis at pulvinar massa. Maecenas efficitur elit consectetur hendrerit tempor. Maecenas posuere nisl sodales, luctus nisi sit amet, ornare metus. Sed pretium ex vitae commodo dapibus. Duis sit amet risus feugiat, suscipit mauris nec, cursus dolor. Fusce non orci eu urna efficitur condimentum. Cras quis tincidunt augue, non mattis arcu. Vestibulum ante ipsum primis in faucibus orci luctus et ultrices posuere cubilia Curae; Vivamus bibendum lacus a purus tincidunt tincidunt.<\/p>\r\n",
                        "format": "basic_html",
                        "processed": "<p>Lorem ipsum dolor sit amet, consectetur adipiscing elit. Aliquam bibendum diam eu porttitor tincidunt. Fusce laoreet leo in iaculis interdum. Duis at pulvinar massa. Maecenas efficitur elit consectetur hendrerit tempor. Maecenas posuere nisl sodales, luctus nisi sit amet, ornare metus. Sed pretium ex vitae commodo dapibus. Duis sit amet risus feugiat, suscipit mauris nec, cursus dolor. Fusce non orci eu urna efficitur condimentum. Cras quis tincidunt augue, non mattis arcu. Vestibulum ante ipsum primis in faucibus orci luctus et ultrices posuere cubilia Curae; Vivamus bibendum lacus a purus tincidunt tincidunt.<\/p>",
                        "lang": "en"
                    }
                ],
                "lang": "en"
            },
            {
                "_links": {
                    "type": {
                        "href": "http:\/\/drupal.org\/rest\/type\/paragraph\/media_element"
                    },
                    "http:\/\/drupal.org\/rest\/relation\/paragraph\/media_element\/field_ref_media": [
                        {
                            "lang": "en"
                        }
                    ]
                },
                "id": [
                    {
                        "value": 578,
                        "lang": "en"
                    }
                ],
                "uuid": [
                    {
                        "value": "f2b175ee-9d36-4b83-8569-0e35b9136838",
                        "lang": "en"
                    }
                ],
                "revision_id": [
                    {
                        "value": 914,
                        "lang": "en"
                    }
                ],
                "langcode": [
                    {
                        "value": "en",
                        "lang": "en"
                    }
                ],
                "type": [
                    {
                        "target_id": "media_element",
                        "lang": "en"
                    }
                ],
                "status": [
                    {
                        "value": true,
                        "lang": "en"
                    }
                ],
                "created": [
                    {
                        "value": "2019-04-04T07:50:23+00:00",
                        "lang": "en",
                        "format": "Y-m-d\\TH:i:sP"
                    }
                ],
                "parent_id": [
                    {
                        "value": "122",
                        "lang": "en"
                    }
                ],
                "parent_type": [
                    {
                        "value": "node",
                        "lang": "en"
                    }
                ],
                "parent_field_name": [
                    {
                        "value": "field_content",
                        "lang": "en"
                    }
                ],
                "behavior_settings": [
                    {
                        "value": [],
                        "lang": "en"
                    }
                ],
                "default_langcode": [
                    {
                        "value": true,
                        "lang": "en"
                    }
                ],
                "_embedded": {
                    "http:\/\/drupal.org\/rest\/relation\/paragraph\/media_element\/field_ref_media": [
                        {
                            "lang": "en"
                        }
                    ]
                },
                "lang": "en"
            },
            {
                "_links": {
                    "type": {
                        "href": "http:\/\/drupal.org\/rest\/type\/paragraph\/quote_element"
                    }
                },
                "id": [
                    {
                        "value": 580,
                        "lang": "en"
                    }
                ],
                "uuid": [
                    {
                        "value": "f4b86031-1252-4538-b565-01b82e72afe5",
                        "lang": "en"
                    }
                ],
                "revision_id": [
                    {
                        "value": 915,
                        "lang": "en"
                    }
                ],
                "langcode": [
                    {
                        "value": "en",
                        "lang": "en"
                    }
                ],
                "type": [
                    {
                        "target_id": "quote_element",
                        "lang": "en"
                    }
                ],
                "status": [
                    {
                        "value": true,
                        "lang": "en"
                    }
                ],
                "created": [
                    {
                        "value": "2019-04-04T07:51:42+00:00",
                        "lang": "en",
                        "format": "Y-m-d\\TH:i:sP"
                    }
                ],
                "parent_id": [
                    {
                        "value": "122",
                        "lang": "en"
                    }
                ],
                "parent_type": [
                    {
                        "value": "node",
                        "lang": "en"
                    }
                ],
                "parent_field_name": [
                    {
                        "value": "field_content",
                        "lang": "en"
                    }
                ],
                "behavior_settings": [
                    {
                        "value": [],
                        "lang": "en"
                    }
                ],
                "default_langcode": [
                    {
                        "value": true,
                        "lang": "en"
                    }
                ],
                "revision_translation_affected": [
                    {
                        "value": true,
                        "lang": "en"
                    }
                ],
                "field_author": [
                    {
                        "value": "Lorem Ipsum",
                        "lang": "en"
                    }
                ],
                "field_text": [
                    {
                        "value": "<p>Dolor sit amet! Consectetur adipiscing elit.<\/p>\r\n",
                        "format": "basic_html",
                        "processed": "<p>Dolor sit amet! Consectetur adipiscing elit.<\/p>",
                        "lang": "en"
                    }
                ],
                "lang": "en"
            },
            {
                "_links": {
                    "type": {
                        "href": "http:\/\/drupal.org\/rest\/type\/paragraph\/text_element"
                    }
                },
                "id": [
                    {
                        "value": 579,
                        "lang": "en"
                    }
                ],
                "uuid": [
                    {
                        "value": "785f894e-1263-468f-8b22-90bec735ad1e",
                        "lang": "en"
                    }
                ],
                "revision_id": [
                    {
                        "value": 909,
                        "lang": "en"
                    }
                ],
                "langcode": [
                    {
                        "value": "en",
                        "lang": "en"
                    }
                ],
                "type": [
                    {
                        "target_id": "text_element",
                        "lang": "en"
                    }
                ],
                "status": [
                    {
                        "value": true,
                        "lang": "en"
                    }
                ],
                "created": [
                    {
                        "value": "2019-04-04T07:50:48+00:00",
                        "lang": "en",
                        "format": "Y-m-d\\TH:i:sP"
                    }
                ],
                "parent_id": [
                    {
                        "value": "122",
                        "lang": "en"
                    }
                ],
                "parent_type": [
                    {
                        "value": "node",
                        "lang": "en"
                    }
                ],
                "parent_field_name": [
                    {
                        "value": "field_content",
                        "lang": "en"
                    }
                ],
                "behavior_settings": [
                    {
                        "value": [],
                        "lang": "en"
                    }
                ],
                "default_langcode": [
                    {
                        "value": true,
                        "lang": "en"
                    }
                ],
                "field_text": [
                    {
                        "value": "<p>Lorem ipsum dolor sit amet, consectetur adipiscing elit. Aliquam bibendum diam eu porttitor tincidunt. Fusce laoreet leo in iaculis interdum. Duis at pulvinar massa. Maecenas efficitur elit consectetur hendrerit tempor. Maecenas posuere nisl sodales, luctus nisi sit amet, ornare metus. Sed pretium ex vitae commodo dapibus. Duis sit amet risus feugiat, suscipit mauris nec, cursus dolor. Fusce non orci eu urna efficitur condimentum. Cras quis tincidunt augue, non mattis arcu. Vestibulum ante ipsum primis in faucibus orci luctus et ultrices posuere cubilia Curae; Vivamus bibendum lacus a purus tincidunt tincidunt.<\/p>\r\n",
                        "format": "basic_html",
                        "processed": "<p>Lorem ipsum dolor sit amet, consectetur adipiscing elit. Aliquam bibendum diam eu porttitor tincidunt. Fusce laoreet leo in iaculis interdum. Duis at pulvinar massa. Maecenas efficitur elit consectetur hendrerit tempor. Maecenas posuere nisl sodales, luctus nisi sit amet, ornare metus. Sed pretium ex vitae commodo dapibus. Duis sit amet risus feugiat, suscipit mauris nec, cursus dolor. Fusce non orci eu urna efficitur condimentum. Cras quis tincidunt augue, non mattis arcu. Vestibulum ante ipsum primis in faucibus orci luctus et ultrices posuere cubilia Curae; Vivamus bibendum lacus a purus tincidunt tincidunt.<\/p>",
                        "lang": "en"
                    }
                ],
                "lang": "en"
            }
        ],
        "http:\/\/drupal.org\/rest\/relation\/node\/news\/field_teaser_image": [
            {
                "_links": {
                    "self": {
                        "href": "http:\/\/default\/media\/5?_format=hal_json"
                    },
                    "type": {
                        "href": "http:\/\/drupal.org\/rest\/type\/media\/image"
                    }
                },
                "uuid": [
                    {
                        "value": "87238ed3-d793-4273-9bd6-9ee4158672ba"
                    }
                ],
                "lang": "en"
            }
        ]
    },
    "status": [
        {
            "value": true,
            "lang": "en"
        }
    ],
    "title": [
        {
            "value": "Hot news are here",
            "lang": "en"
        }
    ],
    "created": [
        {
            "value": "2019-04-04T07:36:34+00:00",
            "lang": "en",
            "format": "Y-m-d\\TH:i:sP"
        }
    ],
    "changed": [
        {
            "value": "2019-04-04T07:56:49+00:00",
            "lang": "en",
            "format": "Y-m-d\\TH:i:sP"
        }
    ],
    "promote": [
        {
            "value": false,
            "lang": "en"
        }
    ],
    "sticky": [
        {
            "value": false,
            "lang": "en"
        }
    ],
    "default_langcode": [
        {
            "value": true,
            "lang": "en"
        }
    ],
    "path": [
        {
            "alias": "\/news\/hot-news-are-here",
            "pid": 142,
            "langcode": "en",
            "lang": "en"
        }
    ],
    "rh_action": [
        {
            "value": "bundle_default"
        }
    ],
    "rh_redirect_response": [
        {
            "value": 301
        }
    ],
    "field_text": [
        {
            "value": "<p>Lorem ipsum dolor sit amet, consectetur adipiscing elit, sed do eiusmod tempor incididunt ut labore et dolore magna aliqua. Ut enim ad minim veniam, quis nostrud exercitation ullamco laboris nisi ut aliquip ex ea commodo consequat. Duis aute irure dolor in reprehenderit in voluptate velit esse cillum dolore eu fugiat nulla pariatur. Excepteur sint occaecat cupidatat non proident, sunt in culpa qui officia deserunt mollit anim id est laborum.<\/p>\r\n",
            "format": "basic_html",
            "processed": "<p>Lorem ipsum dolor sit amet, consectetur adipiscing elit, sed do eiusmod tempor incididunt ut labore et dolore magna aliqua. Ut enim ad minim veniam, quis nostrud exercitation ullamco laboris nisi ut aliquip ex ea commodo consequat. Duis aute irure dolor in reprehenderit in voluptate velit esse cillum dolore eu fugiat nulla pariatur. Excepteur sint occaecat cupidatat non proident, sunt in culpa qui officia deserunt mollit anim id est laborum.<\/p>",
            "lang": "en"
        }
    ]
}